 KPT            1  SPIN            1  KWEIGHT    1.0000000000000000     
     1   -24.725  2.00000
     2   -24.725  2.00000
     3   -24.725  2.00000
     4   -24.725  2.00000
     5   -24.724  2.00000
     6   -24.724  2.00000
     7   -24.724  2.00000
     8   -24.723  2.00000
     9   -24.666  2.00000
    10   -24.666  2.00000
    11   -24.666  2.00000
    12   -24.666  2.00000
    13   -24.666  2.00000
    14   -24.666  2.00000
    15   -24.666  2.00000
    16   -24.666  2.00000
    17   -24.666  2.00000
    18   -24.666  2.00000
    19   -24.666  2.00000
    20   -24.666  2.00000
    21   -24.664  2.00000
    22   -24.664  2.00000
    23   -24.664  2.00000
    24   -24.664  2.00000
    25   -24.664  2.00000
    26   -24.664  2.00000
    27   -24.664  2.00000
    28   -24.664  2.00000
    29   -24.664  2.00000
    30   -24.664  2.00000
    31   -24.664  2.00000
    32   -24.664  2.00000
    33   -24.637  2.00000
    34   -24.637  2.00000
    35   -24.637  2.00000
    36   -24.637  2.00000
    37   -24.637  2.00000
    38   -24.636  2.00000
    39   -24.636  2.00000
    40   -24.636  2.00000
    41   -24.635  2.00000
    42   -24.635  2.00000
    43   -24.635  2.00000
    44   -24.634  2.00000
    45   -24.634  2.00000
    46   -24.634  2.00000
    47   -24.634  2.00000
    48   -24.634  2.00000
    49   -23.354  2.00000
    50   -23.354  2.00000
    51   -23.354  2.00000
    52   -23.354  2.00000
    53   -23.354  2.00000
    54   -23.354  2.00000
    55   -23.354  2.00000
    56   -23.354  2.00000
    57   -23.354  2.00000
    58   -23.354  2.00000
    59   -23.354  2.00000
    60   -23.354  2.00000
    61   -23.354  2.00000
    62   -23.354  2.00000
    63   -23.354  2.00000
    64   -23.354  2.00000
    65   -23.354  2.00000
    66   -23.354  2.00000
    67   -23.354  2.00000
    68   -23.354  2.00000
    69   -23.354  2.00000
    70   -23.354  2.00000
    71   -23.354  2.00000
    72   -23.354  2.00000
    73   -23.278  2.00000
    74   -23.278  2.00000
    75   -23.278  2.00000
    76   -23.278  2.00000
    77   -23.278  2.00000
    78   -23.278  2.00000
    79   -23.278  2.00000
    80   -23.278  2.00000
    81   -23.278  2.00000
    82   -23.278  2.00000
    83   -23.278  2.00000
    84   -23.278  2.00000
    85   -23.278  2.00000
    86   -23.278  2.00000
    87   -23.278  2.00000
    88   -23.278  2.00000
    89   -23.278  2.00000
    90   -23.278  2.00000
    91   -23.278  2.00000
    92   -23.278  2.00000
    93   -23.278  2.00000
    94   -23.278  2.00000
    95   -23.278  2.00000
    96   -23.278  2.00000
    97   -22.569  2.00000
    98   -22.569  2.00000
    99   -22.569  2.00000
   100   -22.569  2.00000
   101   -22.569  2.00000
   102   -22.569  2.00000
   103   -22.569  2.00000
   104   -22.569  2.00000
   105   -19.586  2.00000
   106   -19.584  2.00000
   107   -19.584  2.00000
   108   -19.584  2.00000
   109   -19.582  2.00000
   110   -19.582  2.00000
   111   -19.582  2.00000
   112   -19.582  2.00000
   113   -19.582  2.00000
   114   -19.582  2.00000
   115   -19.582  2.00000
   116   -19.582  2.00000
   117   -19.582  2.00000
   118   -19.582  2.00000
   119   -19.582  2.00000
   120   -19.582  2.00000
   121   -19.582  2.00000
   122   -19.582  2.00000
   123   -19.582  2.00000
   124   -19.580  2.00000
   125   -19.580  2.00000
   126   -19.580  2.00000
   127   -19.580  2.00000
   128   -19.580  2.00000
   129   -17.701  2.00000
   130   -17.693  2.00000
   131   -17.693  2.00000
   132   -17.693  2.00000
   133   -17.684  2.00000
   134   -17.684  2.00000
   135   -17.684  2.00000
   136   -17.684  2.00000
   137   -17.684  2.00000
   138   -17.684  2.00000
   139   -17.684  2.00000
   140   -17.684  2.00000
   141   -17.684  2.00000
   142   -17.684  2.00000
   143   -17.684  2.00000
   144   -17.684  2.00000
   145   -17.684  2.00000
   146   -17.684  2.00000
   147   -17.684  2.00000
   148   -17.676  2.00000
   149   -17.676  2.00000
   150   -17.676  2.00000
   151   -17.676  2.00000
   152   -17.676  2.00000
   153   -17.284  2.00000
   154   -17.284  2.00000
   155   -17.284  2.00000
   156   -17.284  2.00000
   157   -17.284  2.00000
   158   -17.284  2.00000
   159   -17.284  2.00000
   160   -17.284  2.00000
   161   -17.284  2.00000
   162   -17.284  2.00000
   163   -17.284  2.00000
   164   -17.284  2.00000
   165   -17.284  2.00000
   166   -17.284  2.00000
   167   -17.284  2.00000
   168   -17.284  2.00000
   169   -17.284  2.00000
   170   -17.284  2.00000
   171   -17.284  2.00000
   172   -17.284  2.00000
   173   -17.284  2.00000
   174   -17.284  2.00000
   175   -17.284  2.00000
   176   -17.284  2.00000
   177   -15.156  2.00000
   178   -15.118  2.00000
   179   -15.118  2.00000
   180   -15.118  2.00000
   181   -15.078  2.00000
   182   -15.078  2.00000
   183   -15.078  2.00000
   184   -15.077  2.00000
   185   -15.077  2.00000
   186   -15.077  2.00000
   187   -15.077  2.00000
   188   -15.077  2.00000
   189   -15.077  2.00000
   190   -15.077  2.00000
   191   -15.077  2.00000
   192   -15.077  2.00000
   193   -15.077  2.00000
   194   -15.077  2.00000
   195   -15.077  2.00000
   196   -15.034  2.00000
   197   -15.034  2.00000
   198   -15.034  2.00000
   199   -15.034  2.00000
   200   -15.034  2.00000
   201   -14.039  2.00000
   202   -14.039  2.00000
   203   -14.039  2.00000
   204   -14.037  2.00000
   205   -14.037  2.00000
   206   -14.037  2.00000
   207   -14.034  2.00000
   208   -14.034  2.00000
   209   -14.034  2.00000
   210   -14.034  2.00000
   211   -14.034  2.00000
   212   -14.034  2.00000
   213   -14.033  2.00000
   214   -14.033  2.00000
   215   -14.033  2.00000
   216   -14.033  2.00000
   217   -14.033  2.00000
   218   -14.033  2.00000
   219   -14.029  2.00000
   220   -14.029  2.00000
   221   -14.029  2.00000
   222   -14.029  2.00000
   223   -14.029  2.00000
   224   -14.029  2.00000
   225   -13.813  2.00000
   226   -13.736  2.00000
   227   -13.736  2.00000
   228   -13.736  2.00000
   229   -13.661  2.00000
   230   -13.661  2.00000
   231   -13.661  2.00000
   232   -13.660  2.00000
   233   -13.660  2.00000
   234   -13.660  2.00000
   235   -13.660  2.00000
   236   -13.660  2.00000
   237   -13.660  2.00000
   238   -13.659  2.00000
   239   -13.659  2.00000
   240   -13.659  2.00000
   241   -13.657  2.00000
   242   -13.657  2.00000
   243   -13.657  2.00000
   244   -13.572  2.00000
   245   -13.572  2.00000
   246   -13.572  2.00000
   247   -13.572  2.00000
   248   -13.572  2.00000
   249   -12.911  2.00000
   250   -12.862  2.00000
   251   -12.862  2.00000
   252   -12.862  2.00000
   253   -12.835  2.00000
   254   -12.835  2.00000
   255   -12.835  2.00000
   256   -12.835  2.00000
   257   -12.835  2.00000
   258   -12.835  2.00000
   259   -12.835  2.00000
   260   -12.835  2.00000
   261   -12.835  2.00000
   262   -12.834  2.00000
   263   -12.834  2.00000
   264   -12.834  2.00000
   265   -12.822  2.00000
   266   -12.822  2.00000
   267   -12.822  2.00000
   268   -12.787  2.00000
   269   -12.787  2.00000
   270   -12.787  2.00000
   271   -12.787  2.00000
   272   -12.787  2.00000
   273   -11.694  2.00000
   274   -11.694  2.00000
   275   -11.694  2.00000
   276   -11.693  2.00000
   277   -11.693  2.00000
   278   -11.693  2.00000
   279   -11.686  2.00000
   280   -11.669  2.00000
   281   -11.669  2.00000
   282   -11.669  2.00000
   283   -11.661  2.00000
   284   -11.661  2.00000
   285   -11.661  2.00000
   286   -11.661  2.00000
   287   -11.661  2.00000
   288   -11.661  2.00000
   289   -11.658  2.00000
   290   -11.658  2.00000
   291   -11.658  2.00000
   292   -11.657  2.00000
   293   -11.657  2.00000
   294   -11.657  2.00000
   295   -11.654  2.00000
   296   -11.654  2.00000
   297   -11.654  2.00000
   298   -11.654  2.00000
   299   -11.654  2.00000
   300   -11.654  2.00000
   301   -11.651  2.00000
   302   -11.651  2.00000
   303   -11.651  2.00000
   304   -11.651  2.00000
   305   -11.651  2.00000
   306   -11.651  2.00000
   307   -11.650  2.00000
   308   -11.650  2.00000
   309   -11.650  2.00000
   310   -11.631  2.00000
   311   -11.631  2.00000
   312   -11.631  2.00000
   313   -11.631  2.00000
   314   -11.631  2.00000
   315   -11.598  2.00000
   316   -11.598  2.00000
   317   -11.598  2.00000
   318   -11.598  2.00000
   319   -11.598  2.00000
   320   -11.598  2.00000
   321   -11.479  2.00000
   322   -11.479  2.00000
   323   -11.479  2.00000
   324   -11.479  2.00000
   325   -11.479  2.00000
   326   -11.479  2.00000
   327   -11.430  2.00000
   328   -11.430  2.00000
   329   -11.430  2.00000
   330   -11.430  2.00000
   331   -11.430  2.00000
   332   -11.430  2.00000
   333   -11.429  2.00000
   334   -11.429  2.00000
   335   -11.429  2.00000
   336   -11.429  2.00000
   337   -11.429  2.00000
   338   -11.429  2.00000
   339   -11.398  2.00000
   340   -11.398  2.00000
   341   -11.398  2.00000
   342   -11.398  2.00000
   343   -11.398  2.00000
   344   -11.398  2.00000
   345   -11.059  2.00000
   346   -11.051  2.00000
   347   -11.051  2.00000
   348   -11.051  2.00000
   349   -11.049  2.00000
   350   -11.049  2.00000
   351   -11.049  2.00000
   352   -11.049  2.00000
   353   -11.049  2.00000
   354   -11.049  2.00000
   355   -11.047  2.00000
   356   -11.047  2.00000
   357   -11.047  2.00000
   358   -11.044  2.00000
   359   -11.044  2.00000
   360   -11.044  2.00000
   361   -11.031  2.00000
   362   -11.031  2.00000
   363   -11.031  2.00000
   364   -11.020  2.00000
   365   -11.020  2.00000
   366   -11.020  2.00000
   367   -11.020  2.00000
   368   -11.020  2.00000
   369   -10.731  2.00000
   370   -10.731  2.00000
   371   -10.731  2.00000
   372   -10.721  2.00000
   373   -10.721  2.00000
   374   -10.721  2.00000
   375   -10.713  2.00000
   376   -10.713  2.00000
   377   -10.713  2.00000
   378   -10.713  2.00000
   379   -10.713  2.00000
   380   -10.713  2.00000
   381   -10.705  2.00000
   382   -10.705  2.00000
   383   -10.705  2.00000
   384   -10.705  2.00000
   385   -10.705  2.00000
   386   -10.705  2.00000
   387   -10.692  2.00000
   388   -10.692  2.00000
   389   -10.692  2.00000
   390   -10.685  2.00000
   391   -10.685  2.00000
   392   -10.685  2.00000
   393   -10.682  2.00000
   394   -10.682  2.00000
   395   -10.682  2.00000
   396   -10.661  2.00000
   397   -10.661  2.00000
   398   -10.661  2.00000
   399   -10.661  2.00000
   400   -10.661  2.00000
   401   -10.661  2.00000
   402   -10.660  2.00000
   403   -10.660  2.00000
   404   -10.660  2.00000
   405   -10.632  2.00000
   406   -10.632  2.00000
   407   -10.632  2.00000
   408   -10.632  2.00000
   409   -10.632  2.00000
   410   -10.632  2.00000
   411   -10.630  2.00000
   412   -10.630  2.00000
   413   -10.630  2.00000
   414   -10.578  2.00000
   415   -10.578  2.00000
   416   -10.578  2.00000
   417   -10.538  2.00000
   418   -10.530  2.00000
   419   -10.530  2.00000
   420   -10.530  2.00000
   421   -10.530  2.00000
   422   -10.530  2.00000
   423   -10.530  2.00000
   424   -10.529  2.00000
   425   -10.529  2.00000
   426   -10.529  2.00000
   427   -10.520  2.00000
   428   -10.520  2.00000
   429   -10.520  2.00000
   430   -10.511  2.00000
   431   -10.511  2.00000
   432   -10.511  2.00000
   433   -10.511  2.00000
   434   -10.511  2.00000
   435   -10.479  2.00000
   436   -10.479  2.00000
   437   -10.479  2.00000
   438   -10.479  2.00000
   439   -10.479  2.00000
   440   -10.479  2.00000
   441   -10.450  2.00000
   442   -10.450  2.00000
   443   -10.450  2.00000
   444   -10.450  2.00000
   445   -10.450  2.00000
   446   -10.450  2.00000
   447   -10.440  2.00000
   448   -10.440  2.00000
   449   -10.440  2.00000
   450   -10.394  2.00000
   451   -10.394  2.00000
   452   -10.394  2.00000
   453   -10.394  2.00000
   454   -10.394  2.00000
   455   -10.394  2.00000
   456   -10.391  2.00000
   457   -10.391  2.00000
   458   -10.391  2.00000
   459   -10.391  2.00000
   460   -10.391  2.00000
   461   -10.391  2.00000
   462   -10.383  2.00000
   463   -10.383  2.00000
   464   -10.383  2.00000
   465   -10.255  2.00000
   466   -10.255  2.00000
   467   -10.255  2.00000
   468   -10.255  2.00000
   469   -10.255  2.00000
   470   -10.255  2.00000
   471   -10.224  2.00000
   472   -10.224  2.00000
   473   -10.224  2.00000
   474   -10.224  2.00000
   475   -10.224  2.00000
   476   -10.224  2.00000
   477   -10.221  2.00000
   478   -10.221  2.00000
   479   -10.221  2.00000
   480   -10.221  2.00000
   481   -10.221  2.00000
   482   -10.221  2.00000
   483   -10.197  2.00000
   484   -10.197  2.00000
   485   -10.197  2.00000
   486   -10.195  2.00000
   487   -10.195  2.00000
   488   -10.195  2.00000
   489   -10.192  2.00000
   490   -10.192  2.00000
   491   -10.192  2.00000
   492   -10.192  2.00000
   493   -10.192  2.00000
   494   -10.163  2.00000
   495   -10.163  2.00000
   496   -10.163  2.00000
   497   -10.119  2.00000
   498   -10.119  2.00000
   499   -10.119  2.00000
   500   -10.007  2.00000
   501    -9.977  2.00000
   502    -9.977  2.00000
   503    -9.977  2.00000
   504    -9.965  2.00000
   505    -9.965  2.00000
   506    -9.965  2.00000
   507    -9.965  2.00000
   508    -9.965  2.00000
   509    -9.965  2.00000
   510    -9.959  2.00000
   511    -9.959  2.00000
   512    -9.959  2.00000
   513    -9.959  2.00000
   514    -9.959  2.00000
   515    -9.959  2.00000
   516    -9.944  2.00000
   517    -9.944  2.00000
   518    -9.944  2.00000
   519    -9.944  2.00000
   520    -9.944  2.00000
   521    -9.921  2.00000
   522    -9.921  2.00000
   523    -9.921  2.00000
   524    -9.921  2.00000
   525    -9.921  2.00000
   526    -9.921  2.00000
   527    -9.826  2.00000
   528    -9.826  2.00000
   529    -9.826  2.00000
   530    -9.825  2.00000
   531    -9.825  2.00000
   532    -9.825  2.00000
   533    -9.824  2.00000
   534    -9.824  2.00000
   535    -9.824  2.00000
   536    -9.824  2.00000
   537    -9.824  2.00000
   538    -9.824  2.00000
   539    -9.820  2.00000
   540    -9.820  2.00000
   541    -9.820  2.00000
   542    -9.799  2.00000
   543    -9.799  2.00000
   544    -9.799  2.00000
   545    -9.778  2.00000
   546    -9.778  2.00000
   547    -9.778  2.00000
   548    -9.709  2.00000
   549    -9.709  2.00000
   550    -9.709  2.00000
   551    -9.709  2.00000
   552    -9.709  2.00000
   553    -9.709  2.00000
   554    -9.708  2.00000
   555    -9.708  2.00000
   556    -9.708  2.00000
   557    -9.707  2.00000
   558    -9.707  2.00000
   559    -9.707  2.00000
   560    -9.704  2.00000
   561    -9.704  2.00000
   562    -9.704  2.00000
   563    -9.704  2.00000
   564    -9.704  2.00000
   565    -9.704  2.00000
   566    -9.702  2.00000
   567    -9.702  2.00000
   568    -9.702  2.00000
   569    -9.702  2.00000
   570    -9.702  2.00000
   571    -9.702  2.00000
   572    -9.679  2.00000
   573    -9.679  2.00000
   574    -9.679  2.00000
   575    -9.668  2.00000
   576    -9.668  2.00000
   577    -9.668  2.00000
   578    -9.668  2.00000
   579    -9.668  2.00000
   580    -9.668  2.00000
   581    -9.659  2.00000
   582    -9.659  2.00000
   583    -9.659  2.00000
   584    -9.659  2.00000
   585    -9.659  2.00000
   586    -9.641  2.00000
   587    -9.641  2.00000
   588    -9.641  2.00000
   589    -9.637  2.00000
   590    -9.637  2.00000
   591    -9.637  2.00000
   592    -9.629  2.00000
   593    -9.629  2.00000
   594    -9.629  2.00000
   595    -9.629  2.00000
   596    -9.629  2.00000
   597    -9.604  2.00000
   598    -9.604  2.00000
   599    -9.604  2.00000
   600    -9.573  2.00000
   601    -9.442  2.00000
   602    -9.442  2.00000
   603    -9.442  2.00000
   604    -9.436  2.00000
   605    -9.436  2.00000
   606    -9.436  2.00000
   607    -9.436  2.00000
   608    -9.436  2.00000
   609    -9.436  2.00000
   610    -9.427  2.00000
   611    -9.427  2.00000
   612    -9.427  2.00000
   613    -9.424  2.00000
   614    -9.424  2.00000
   615    -9.424  2.00000
   616    -9.422  2.00000
   617    -9.422  2.00000
   618    -9.422  2.00000
   619    -9.422  2.00000
   620    -9.422  2.00000
   621    -9.422  2.00000
   622    -9.409  2.00000
   623    -9.409  2.00000
   624    -9.409  2.00000
   625    -9.254  2.00000
   626    -9.254  2.00000
   627    -9.254  2.00000
   628    -9.218  2.00000
   629    -9.218  2.00000
   630    -9.218  2.00000
   631    -9.218  2.00000
   632    -9.218  2.00000
   633    -9.218  2.00000
   634    -9.159  2.00000
   635    -9.159  2.00000
   636    -9.159  2.00000
   637    -9.159  2.00000
   638    -9.159  2.00000
   639    -9.159  2.00000
   640    -9.124  2.00000
   641    -9.124  2.00000
   642    -9.124  2.00000
   643    -9.124  2.00000
   644    -9.124  2.00000
   645    -9.124  2.00000
   646    -9.097  2.00000
   647    -9.097  2.00000
   648    -9.097  2.00000
   649    -8.989  2.00000
   650    -8.989  2.00000
   651    -8.989  2.00000
   652    -8.922  2.00000
   653    -8.922  2.00000
   654    -8.922  2.00000
   655    -8.922  2.00000
   656    -8.922  2.00000
   657    -8.922  2.00000
   658    -8.913  2.00000
   659    -8.913  2.00000
   660    -8.913  2.00000
   661    -8.913  2.00000
   662    -8.913  2.00000
   663    -8.891  2.00000
   664    -8.891  2.00000
   665    -8.891  2.00000
   666    -8.891  2.00000
   667    -8.891  2.00000
   668    -8.891  2.00000
   669    -8.875  2.00000
   670    -8.875  2.00000
   671    -8.875  2.00000
   672    -8.864  2.00000
   673    -8.864  2.00000
   674    -8.864  2.00000
   675    -8.828  2.00000
   676    -8.828  2.00000
   677    -8.828  2.00000
   678    -8.828  2.00000
   679    -8.828  2.00000
   680    -8.828  2.00000
   681    -8.828  2.00000
   682    -8.828  2.00000
   683    -8.828  2.00000
   684    -8.828  2.00000
   685    -8.828  2.00000
   686    -8.828  2.00000
   687    -8.824  2.00000
   688    -8.824  2.00000
   689    -8.824  2.00000
   690    -8.789  2.00000
   691    -8.764  2.00000
   692    -8.764  2.00000
   693    -8.764  2.00000
   694    -8.764  2.00000
   695    -8.764  2.00000
   696    -8.764  2.00000
   697    -8.387  2.00000
   698    -8.387  2.00000
   699    -8.387  2.00000
   700    -8.352  2.00000
   701    -8.352  2.00000
   702    -8.352  2.00000
   703    -8.352  2.00000
   704    -8.352  2.00000
   705    -8.352  2.00000
   706    -8.313  2.00000
   707    -8.313  2.00000
   708    -8.313  2.00000
   709    -8.304  2.00000
   710    -8.304  2.00000
   711    -8.304  2.00000
   712    -8.265  2.00000
   713    -8.265  2.00000
   714    -8.265  2.00000
   715    -8.265  2.00000
   716    -8.265  2.00000
   717    -8.265  2.00000
   718    -8.234  2.00000
   719    -8.234  2.00000
   720    -8.234  2.00000
   721    -8.222  2.00000
   722    -8.222  2.00000
   723    -8.222  2.00000
   724    -8.222  2.00000
   725    -8.222  2.00000
   726    -8.222  2.00000
   727    -8.219  2.00000
   728    -8.219  2.00000
   729    -8.219  2.00000
   730    -8.219  2.00000
   731    -8.219  2.00000
   732    -8.219  2.00000
   733    -8.174  2.00000
   734    -8.174  2.00000
   735    -8.174  2.00000
   736    -8.161  2.00000
   737    -8.161  2.00000
   738    -8.161  2.00000
   739    -8.161  2.00000
   740    -8.161  2.00000
   741    -8.161  2.00000
   742    -8.161  2.00000
   743    -8.161  2.00000
   744    -8.161  2.00000
   745    -7.573  2.00000
   746    -7.573  2.00000
   747    -7.573  2.00000
   748    -7.569  2.00000
   749    -7.569  2.00000
   750    -7.567  2.00000
   751    -7.567  2.00000
   752    -7.567  2.00000
   753    -7.550  2.00000
   754    -7.550  2.00000
   755    -7.550  2.00000
   756    -7.536  2.00000
   757    -7.536  2.00000
   758    -7.531  2.00000
   759    -7.531  2.00000
   760    -7.531  2.00000
   761    -7.482  2.00000
   762    -7.482  2.00000
   763    -7.482  2.00000
   764    -7.478  2.00000
   765    -7.478  2.00000
   766    -7.478  2.00000
   767    -7.478  2.00000
   768    -7.478  2.00000
   769    -7.478  2.00000
   770    -7.475  2.00000
   771    -7.474  2.00000
   772    -7.474  2.00000
   773    -7.474  2.00000
   774    -7.473  2.00000
   775    -7.473  2.00000
   776    -7.473  2.00000
   777    -7.469  2.00000
   778    -7.469  2.00000
   779    -7.469  2.00000
   780    -7.469  2.00000
   781    -7.469  2.00000
   782    -7.469  2.00000
   783    -7.464  2.00000
   784    -7.464  2.00000
   785    -7.464  2.00000
   786    -7.440  2.00000
   787    -7.440  2.00000
   788    -7.440  2.00000
   789    -7.413  2.00000
   790    -7.413  2.00000
   791    -7.413  2.00000
   792    -7.387  2.00000
   793    -7.380  2.00000
   794    -7.374  2.00000
   795    -7.374  2.00000
   796    -7.374  2.00000
   797    -7.367  2.00000
   798    -7.367  2.00000
   799    -7.367  2.00000
   800    -7.360  2.00000
   801    -7.285  2.00000
   802    -7.285  2.00000
   803    -7.285  2.00000
   804    -7.281  2.00000
   805    -7.281  2.00000
   806    -7.281  2.00000
   807    -7.261  2.00000
   808    -7.261  2.00000
   809    -7.261  2.00000
   810    -7.261  2.00000
   811    -7.261  2.00000
   812    -7.261  2.00000
   813    -7.259  2.00000
   814    -7.259  2.00000
   815    -7.259  2.00000
   816    -7.259  2.00000
   817    -7.259  2.00000
   818    -7.259  2.00000
   819    -7.242  2.00000
   820    -7.242  2.00000
   821    -7.242  2.00000
   822    -7.236  2.00000
   823    -7.236  2.00000
   824    -7.236  2.00000
   825    -7.218  2.00000
   826    -7.218  2.00000
   827    -7.218  2.00000
   828    -7.217  2.00000
   829    -7.217  2.00000
   830    -7.216  2.00000
   831    -7.216  2.00000
   832    -7.216  2.00000
   833    -7.216  2.00000
   834    -7.216  2.00000
   835    -7.216  2.00000
   836    -7.216  2.00000
   837    -7.216  2.00000
   838    -7.216  2.00000
   839    -7.213  2.00000
   840    -7.213  2.00000
   841    -7.213  2.00000
   842    -7.212  2.00000
   843    -7.212  2.00000
   844    -7.212  2.00000
   845    -7.208  2.00000
   846    -7.208  2.00000
   847    -7.208  2.00000
   848    -7.203  2.00000
   849    -6.900  2.00000
   850    -6.900  2.00000
   851    -6.900  2.00000
   852    -6.895  2.00000
   853    -6.895  2.00000
   854    -6.895  2.00000
   855    -6.895  2.00000
   856    -6.895  2.00000
   857    -6.895  2.00000
   858    -6.879  2.00000
   859    -6.879  2.00000
   860    -6.879  2.00000
   861    -6.878  2.00000
   862    -6.878  2.00000
   863    -6.878  2.00000
   864    -6.878  2.00000
   865    -6.878  2.00000
   866    -6.878  2.00000
   867    -6.870  2.00000
   868    -6.870  2.00000
   869    -6.870  2.00000
   870    -6.853  2.00000
   871    -6.853  2.00000
   872    -6.853  2.00000
   873    -6.837  2.00000
   874    -6.837  2.00000
   875    -6.837  2.00000
   876    -6.835  2.00000
   877    -6.835  2.00000
   878    -6.835  2.00000
   879    -6.817  2.00000
   880    -6.817  2.00000
   881    -6.817  2.00000
   882    -6.817  2.00000
   883    -6.817  2.00000
   884    -6.817  2.00000
   885    -6.816  2.00000
   886    -6.816  2.00000
   887    -6.816  2.00000
   888    -6.815  2.00000
   889    -6.815  2.00000
   890    -6.815  2.00000
   891    -6.813  2.00000
   892    -6.813  2.00000
   893    -6.813  2.00000
   894    -6.813  2.00000
   895    -6.813  2.00000
   896    -6.813  2.00000
   897    -6.472  2.00000
   898    -6.472  2.00000
   899    -6.471  2.00000
   900    -6.471  2.00000
   901    -6.471  2.00000
   902    -6.456  2.00000
   903    -6.456  2.00000
   904    -6.456  2.00000
   905    -6.443  2.00000
   906    -6.443  2.00000
   907    -6.443  2.00000
   908    -6.429  2.00000
   909    -6.429  2.00000
   910    -6.429  2.00000
   911    -6.428  2.00000
   912    -6.428  2.00000
   913    -6.178  2.00000
   914    -6.178  2.00000
   915    -6.178  2.00000
   916    -6.177  2.00000
   917    -6.177  2.00000
   918    -6.177  2.00000
   919    -6.177  2.00000
   920    -6.177  2.00000
   921    -6.177  2.00000
   922    -6.176  2.00000
   923    -6.176  2.00000
   924    -6.176  2.00000
   925    -6.166  2.00000
   926    -6.166  2.00000
   927    -6.166  2.00000
   928    -6.164  2.00000
   929    -6.164  2.00000
   930    -6.164  2.00000
   931    -6.164  2.00000
   932    -6.164  2.00000
   933    -6.164  2.00000
   934    -6.163  2.00000
   935    -6.163  2.00000
   936    -6.163  2.00000
   937    -3.064  0.00000
   938    -3.064  0.00000
   939    -3.064  0.00000
   940    -3.064  0.00000
   941    -3.064  0.00000
   942    -3.064  0.00000
   943    -3.055  0.00000
   944    -3.055  0.00000
   945    -3.055  0.00000
   946    -3.055  0.00000
   947    -3.055  0.00000
   948    -3.055  0.00000
   949    -3.055  0.00000
   950    -3.055  0.00000
   951    -3.055  0.00000
   952    -3.055  0.00000
   953    -3.055  0.00000
   954    -3.055  0.00000
   955    -3.046  0.00000
   956    -3.046  0.00000
   957    -3.046  0.00000
   958    -3.046  0.00000
   959    -3.046  0.00000
   960    -3.046  0.00000
   961    -1.782  0.00000
   962    -1.782  0.00000
   963    -1.782  0.00000
   964    -1.782  0.00000
   965    -1.782  0.00000
   966    -1.782  0.00000
   967    -1.782  0.00000
   968    -1.782  0.00000
   969    -1.782  0.00000
   970    -1.782  0.00000
   971    -1.782  0.00000
   972    -1.782  0.00000
   973    -1.782  0.00000
   974    -1.782  0.00000
   975    -1.782  0.00000
   976    -1.782  0.00000
   977    -1.782  0.00000
   978    -1.782  0.00000
   979    -1.782  0.00000
   980    -1.782  0.00000
   981    -1.782  0.00000
   982    -1.782  0.00000
   983    -1.782  0.00000
   984    -1.782  0.00000
   985    -1.219  0.00000
   986    -1.219  0.00000
   987    -1.219  0.00000
   988    -1.219  0.00000
   989    -1.219  0.00000
   990    -1.219  0.00000
   991    -1.197  0.00000
   992    -1.197  0.00000
   993    -1.197  0.00000
   994    -1.197  0.00000
   995    -1.197  0.00000
   996    -1.197  0.00000
   997    -1.197  0.00000
   998    -1.197  0.00000
   999    -1.197  0.00000
  1000    -1.197  0.00000
  1001    -1.197  0.00000
  1002    -1.197  0.00000
  1003    -1.175  0.00000
  1004    -1.175  0.00000
  1005    -1.175  0.00000
  1006    -1.175  0.00000
  1007    -1.175  0.00000
  1008    -1.175  0.00000
  1009     0.698  0.00000
  1010     0.698  0.00000
  1011     0.698  0.00000
  1012     0.698  0.00000
  1013     0.698  0.00000
  1014     0.698  0.00000
  1015     0.717  0.00000
  1016     0.717  0.00000
  1017     0.717  0.00000
  1018     0.717  0.00000
  1019     0.717  0.00000
  1020     0.717  0.00000
  1021     0.717  0.00000
  1022     0.717  0.00000
  1023     0.717  0.00000
  1024     0.717  0.00000
  1025     0.717  0.00000
  1026     0.717  0.00000
  1027     0.735  0.00000
  1028     0.735  0.00000
  1029     0.735  0.00000
  1030     0.735  0.00000
  1031     0.735  0.00000
  1032     0.735  0.00000
  1033     2.538  0.00000
  1034     2.539  0.00000
  1035     2.539  0.00000
  1036     2.539  0.00000
  1037     2.540  0.00000
  1038     2.540  0.00000
  1039     2.540  0.00000
  1040     2.541  0.00000
  1041     2.929  0.00000
  1042     2.929  0.00000
  1043     2.929  0.00000
  1044     2.929  0.00000
  1045     2.929  0.00000
  1046     2.929  0.00000
  1047     2.935  0.00000
  1048     2.935  0.00000
  1049     2.935  0.00000
  1050     2.935  0.00000
  1051     2.935  0.00000
  1052     2.935  0.00000
  1053     2.935  0.00000
  1054     2.935  0.00000
  1055     2.935  0.00000
  1056     2.935  0.00000
  1057     2.935  0.00000
  1058     2.935  0.00000
  1059     2.940  0.00000
  1060     2.940  0.00000
  1061     2.940  0.00000
  1062     2.940  0.00000
  1063     2.940  0.00000
  1064     2.940  0.00000
  1065     3.620  0.00000
  1066     3.620  0.00000
  1067     3.620  0.00000
  1068     3.621  0.00000
  1069     3.621  0.00000
  1070     3.621  0.00000
  1071     3.621  0.00000
  1072     3.621  0.00000
  1073     3.621  0.00000
  1074     3.621  0.00000
  1075     3.621  0.00000
  1076     3.621  0.00000
  1077     3.622  0.00000
  1078     3.622  0.00000
  1079     3.622  0.00000
  1080     3.622  0.00000
  1081     3.622  0.00000
  1082     3.622  0.00000
  1083     3.622  0.00000
  1084     3.622  0.00000
  1085     3.622  0.00000
  1086     3.623  0.00000
  1087     3.623  0.00000
  1088     3.623  0.00000
  1089     8.293  0.00000
  1090     8.293  0.00000
  1091     8.293  0.00000
  1092     8.293  0.00000
  1093     8.293  0.00000
  1094     8.294  0.00000
  1095     8.294  0.00000
  1096     8.294  0.00000
  1097     8.296  0.00000
  1098     8.296  0.00000
  1099     8.296  0.00000
  1100     8.298  0.00000
  1101     8.298  0.00000
  1102     8.298  0.00000
  1103     8.298  0.00000
  1104     8.298  0.00000
  1105     8.416  0.00000
  1106     8.416  0.00000
  1107     8.416  0.00000
  1108     8.416  0.00000
  1109     8.416  0.00000
  1110     8.416  0.00000
  1111     8.416  0.00000
  1112     8.416  0.00000
  1113     8.416  0.00000
  1114     8.416  0.00000
  1115     8.416  0.00000
  1116     8.416  0.00000
  1117     8.417  0.00000
  1118     8.417  0.00000
  1119     8.417  0.00000
  1120     8.417  0.00000
  1121     8.417  0.00000
  1122     8.417  0.00000
  1123     8.417  0.00000
  1124     8.417  0.00000
  1125     8.417  0.00000
  1126     8.417  0.00000
  1127     8.417  0.00000
  1128     8.417  0.00000
  1129     9.811  0.00000
  1130     9.811  0.00000
  1131     9.811  0.00000
  1132     9.814  0.00000
  1133     9.814  0.00000
  1134     9.814  0.00000
  1135     9.814  0.00000
  1136     9.814  0.00000
  1137     9.814  0.00000
  1138     9.818  0.00000
  1139     9.818  0.00000
  1140     9.818  0.00000
  1141     9.846  0.00000
  1142     9.846  0.00000
  1143     9.846  0.00000
  1144     9.850  0.00000
  1145     9.850  0.00000
  1146     9.850  0.00000
  1147     9.850  0.00000
  1148     9.850  0.00000
  1149     9.850  0.00000
  1150     9.854  0.00000
  1151     9.854  0.00000
  1152     9.854  0.00000
  1153    10.494  0.00000
  1154    10.528  0.00000
  1155    10.528  0.00000
  1156    10.528  0.00000
  1157    10.563  0.00000
  1158    10.563  0.00000
  1159    10.563  0.00000
  1160    10.600  0.00000
  1161    11.162  0.00000
  1162    11.162  0.00000
  1163    11.162  0.00000
  1164    11.162  0.00000
  1165    11.162  0.00000
  1166    11.162  0.00000
  1167    11.163  0.00000
  1168    11.163  0.00000
  1169    11.163  0.00000
  1170    11.163  0.00000
  1171    11.163  0.00000
  1172    11.163  0.00000
  1173    11.163  0.00000
  1174    11.163  0.00000
  1175    11.163  0.00000
  1176    11.163  0.00000
  1177    11.163  0.00000
  1178    11.163  0.00000
  1179    11.164  0.00000
  1180    11.164  0.00000
  1181    11.164  0.00000
  1182    11.164  0.00000
  1183    11.164  0.00000
  1184    11.164  0.00000
  1185    13.015  0.00000
  1186    13.015  0.00000
  1187    13.015  0.00000
  1188    13.015  0.00000
  1189    13.015  0.00000
  1190    13.135  0.00000
  1191    13.135  0.00000
  1192    13.135  0.00000
  1193    13.141  0.00000
  1194    13.141  0.00000
  1195    13.141  0.00000
  1196    13.142  0.00000
  1197    13.142  0.00000
  1198    13.142  0.00000
  1199    13.142  0.00000
  1200    13.142  0.00000
  1201    13.142  0.00000
  1202    13.144  0.00000
  1203    13.144  0.00000
  1204    13.144  0.00000
  1205    13.268  0.00000
  1206    13.268  0.00000
  1207    13.268  0.00000
  1208    13.428  0.00000
  1209    14.390  0.00000
  1210    14.390  0.00000
  1211    14.390  0.00000
  1212    14.390  0.00000
  1213    14.390  0.00000
  1214    14.499  0.00000
  1215    14.499  0.00000
  1216    14.499  0.00000
  1217    14.503  0.00000
  1218    14.503  0.00000
  1219    14.503  0.00000
  1220    14.503  0.00000
  1221    14.503  0.00000
  1222    14.503  0.00000
  1223    14.507  0.00000
  1224    14.507  0.00000
  1225    14.507  0.00000
  1226    14.535  0.00000
  1227    14.535  0.00000
  1228    14.535  0.00000
  1229    14.653  0.00000
  1230    14.653  0.00000
  1231    14.653  0.00000
  1232    14.755  0.00000
  1233    15.273  0.00000
  1234    15.273  0.00000
  1235    15.273  0.00000
  1236    15.273  0.00000
  1237    15.273  0.00000
  1238    15.273  0.00000
  1239    15.300  0.00000
  1240    15.300  0.00000
  1241    15.300  0.00000
  1242    15.300  0.00000
  1243    15.300  0.00000
  1244    15.300  0.00000
  1245    15.304  0.00000
  1246    15.304  0.00000
  1247    15.304  0.00000
  1248    15.304  0.00000
  1249    15.304  0.00000
  1250    15.304  0.00000
  1251    15.328  0.00000
  1252    15.328  0.00000
  1253    15.328  0.00000
  1254    15.335  0.00000
  1255    15.335  0.00000
  1256    15.335  0.00000
  1257    17.671  0.00000
  1258    17.671  0.00000
  1259    17.671  0.00000
  1260    17.671  0.00000
  1261    17.671  0.00000
  1262    17.677  0.00000
  1263    17.677  0.00000
  1264    17.677  0.00000
  1265    17.678  0.00000
  1266    17.678  0.00000
  1267    17.678  0.00000
  1268    17.678  0.00000
  1269    17.678  0.00000
  1270    17.678  0.00000
  1271    17.679  0.00000
  1272    17.679  0.00000
  1273    17.679  0.00000
  1274    17.685  0.00000
  1275    17.685  0.00000
  1276    17.685  0.00000
  1277    17.699  0.00000
  1278    17.699  0.00000
  1279    17.699  0.00000
  1280    17.719  0.00000
  1281    17.722  0.00000
  1282    17.722  0.00000
  1283    17.722  0.00000
  1284    17.722  0.00000
  1285    17.722  0.00000
  1286    17.722  0.00000
  1287    17.722  0.00000
  1288    17.722  0.00000
  1289    17.722  0.00000
  1290    17.723  0.00000
  1291    17.723  0.00000
  1292    17.723  0.00000
  1293    17.728  0.00000
  1294    17.728  0.00000
  1295    17.728  0.00000
  1296    17.728  0.00000
  1297    17.728  0.00000
  1298    17.736  0.00000
  1299    17.736  0.00000
  1300    17.736  0.00000
  1301    17.738  0.00000
  1302    17.738  0.00000
  1303    17.738  0.00000
  1304    17.739  0.00000
  1305    18.806  0.00000
  1306    18.806  0.00000
  1307    18.806  0.00000
  1308    18.806  0.00000
  1309    18.806  0.00000
  1310    18.806  0.00000
  1311    18.854  0.00000
  1312    18.854  0.00000
  1313    18.854  0.00000
  1314    18.854  0.00000
  1315    18.854  0.00000
  1316    18.854  0.00000
  1317    18.854  0.00000
  1318    18.854  0.00000
  1319    18.854  0.00000
  1320    18.854  0.00000
  1321    18.854  0.00000
  1322    18.854  0.00000
  1323    18.901  0.00000
  1324    18.901  0.00000
  1325    18.901  0.00000
  1326    18.902  0.00000
  1327    18.902  0.00000
  1328    18.902  0.00000
  1329    20.696  0.00000
  1330    20.696  0.00000
  1331    20.696  0.00000
  1332    20.696  0.00000
  1333    20.696  0.00000
  1334    20.696  0.00000
  1335    20.696  0.00000
  1336    20.696  0.00000
  1337    20.696  0.00000
  1338    20.696  0.00000
  1339    20.696  0.00000
  1340    20.696  0.00000
  1341    20.696  0.00000
  1342    20.696  0.00000
  1343    20.696  0.00000
  1344    20.696  0.00000
  1345    20.696  0.00000
  1346    20.696  0.00000
  1347    20.696  0.00000
  1348    20.696  0.00000
  1349    20.696  0.00000
  1350    20.696  0.00000
  1351    20.696  0.00000
  1352    20.696  0.00000
  1353    21.314  0.00000
  1354    21.314  0.00000
  1355    21.314  0.00000
  1356    21.314  0.00000
  1357    21.314  0.00000
  1358    21.321  0.00000
  1359    21.321  0.00000
  1360    21.321  0.00000
  1361    21.322  0.00000
  1362    21.322  0.00000
  1363    21.322  0.00000
  1364    21.322  0.00000
  1365    21.322  0.00000
  1366    21.322  0.00000
  1367    21.322  0.00000
  1368    21.322  0.00000
  1369    21.322  0.00000
  1370    21.322  0.00000
  1371    21.322  0.00000
  1372    21.322  0.00000
  1373    21.330  0.00000
  1374    21.330  0.00000
  1375    21.330  0.00000
  1376    21.339  0.00000
  1377    23.489  0.00000
  1378    23.489  0.00000
  1379    23.489  0.00000
  1380    23.489  0.00000
  1381    23.489  0.00000
  1382    23.489  0.00000
  1383    23.506  0.00000
  1384    23.506  0.00000
  1385    23.506  0.00000
  1386    23.506  0.00000
  1387    23.506  0.00000
  1388    23.506  0.00000
  1389    23.506  0.00000
  1390    23.506  0.00000
  1391    23.506  0.00000
  1392    23.506  0.00000
  1393    23.506  0.00000
  1394    23.506  0.00000
  1395    23.536  0.00000
  1396    23.536  0.00000
  1397    23.536  0.00000
  1398    23.537  0.00000
  1399    23.537  0.00000
  1400    23.537  0.00000
  1401    23.654  0.00000
  1402    23.654  0.00000
  1403    23.654  0.00000
  1404    23.654  0.00000
  1405    23.654  0.00000
  1406    23.654  0.00000
  1407    23.717  0.00000
  1408    23.717  0.00000
  1409    23.717  0.00000
  1410    23.717  0.00000
  1411    23.717  0.00000
  1412    23.717  0.00000
  1413    23.719  0.00000
  1414    23.719  0.00000
  1415    23.719  0.00000
  1416    23.719  0.00000
  1417    23.719  0.00000
  1418    23.719  0.00000
  1419    23.768  0.00000
  1420    23.768  0.00000
  1421    23.768  0.00000
  1422    23.770  0.00000
  1423    23.770  0.00000
  1424    23.770  0.00000
  1425    24.247  0.00000
  1426    24.247  0.00000
  1427    24.247  0.00000
  1428    24.247  0.00000
  1429    24.247  0.00000
  1430    24.252  0.00000
  1431    24.252  0.00000
  1432    24.252  0.00000
  1433    24.253  0.00000
  1434    24.253  0.00000
  1435    24.253  0.00000
  1436    24.253  0.00000
  1437    24.253  0.00000
  1438    24.253  0.00000
  1439    24.253  0.00000
  1440    24.253  0.00000
  1441    24.253  0.00000
  1442    24.254  0.00000
  1443    24.254  0.00000
  1444    24.254  0.00000
  1445    24.256  0.00000
  1446    24.256  0.00000
  1447    24.256  0.00000
  1448    24.261  0.00000
  1449    26.813  0.00000
  1450    26.813  0.00000
  1451    26.813  0.00000
  1452    26.813  0.00000
  1453    26.813  0.00000
  1454    26.814  0.00000
  1455    26.814  0.00000
  1456    26.814  0.00000
  1457    26.814  0.00000
  1458    26.814  0.00000
  1459    26.814  0.00000
  1460    26.814  0.00000
  1461    26.814  0.00000
  1462    26.814  0.00000
  1463    26.814  0.00000
  1464    26.814  0.00000
  1465    26.814  0.00000
  1466    26.814  0.00000
  1467    26.814  0.00000
  1468    26.814  0.00000
  1469    26.816  0.00000
  1470    26.816  0.00000
  1471    26.816  0.00000
  1472    26.817  0.00000
  1473    28.659  0.00000
  1474    28.659  0.00000
  1475    28.659  0.00000
  1476    28.659  0.00000
  1477    28.659  0.00000
  1478    28.659  0.00000
  1479    28.671  0.00000
  1480    28.671  0.00000
  1481    28.671  0.00000
  1482    28.671  0.00000
  1483    28.671  0.00000
  1484    28.671  0.00000
  1485    28.671  0.00000
  1486    28.671  0.00000
  1487    28.671  0.00000
  1488    28.671  0.00000
  1489    28.671  0.00000
  1490    28.671  0.00000
  1491    28.682  0.00000
  1492    28.682  0.00000
  1493    28.682  0.00000
  1494    28.682  0.00000
  1495    28.682  0.00000
  1496    28.682  0.00000
  1497    29.315  0.00000
  1498    29.315  0.00000
  1499    29.315  0.00000
  1500    29.315  0.00000
  1501    29.315  0.00000
  1502    29.315  0.00000
  1503    29.326  0.00000
  1504    29.326  0.00000
  1505    29.326  0.00000
  1506    29.326  0.00000
  1507    29.326  0.00000
  1508    29.326  0.00000
  1509    29.326  0.00000
  1510    29.326  0.00000
  1511    29.326  0.00000
  1512    29.326  0.00000
  1513    29.326  0.00000
  1514    29.326  0.00000
  1515    29.338  0.00000
  1516    29.338  0.00000
  1517    29.338  0.00000
  1518    29.338  0.00000
  1519    29.338  0.00000
  1520    29.338  0.00000
  1521    29.742  0.00000
  1522    29.742  0.00000
  1523    29.742  0.00000
  1524    29.742  0.00000
  1525    29.742  0.00000
  1526    29.742  0.00000
  1527    29.753  0.00000
  1528    29.753  0.00000
  1529    29.753  0.00000
  1530    29.753  0.00000
  1531    29.753  0.00000
  1532    29.753  0.00000
  1533    29.753  0.00000
  1534    29.753  0.00000
  1535    29.753  0.00000
  1536    29.753  0.00000
  1537    29.753  0.00000
  1538    29.753  0.00000
  1539    29.764  0.00000
  1540    29.764  0.00000
  1541    29.764  0.00000
  1542    29.764  0.00000
  1543    29.764  0.00000
  1544    29.764  0.00000
  1545    33.368  0.00000
  1546    33.368  0.00000
  1547    33.368  0.00000
  1548    33.368  0.00000
  1549    33.368  0.00000
  1550    33.369  0.00000
  1551    33.369  0.00000
  1552    33.369  0.00000
  1553    33.369  0.00000
  1554    33.369  0.00000
  1555    33.369  0.00000
  1556    33.369  0.00000
  1557    33.369  0.00000
  1558    33.369  0.00000
  1559    33.369  0.00000
  1560    33.369  0.00000
  1561    33.369  0.00000
  1562    33.369  0.00000
  1563    33.369  0.00000
  1564    33.369  0.00000
  1565    33.370  0.00000
  1566    33.370  0.00000
  1567    33.370  0.00000
  1568    33.371  0.00000

