 KPT            1  SPIN            1  KWEIGHT    1.0000000000000000     
     1   -25.860  2.00000
     2   -25.860  2.00000
     3   -25.860  2.00000
     4   -25.860  2.00000
     5   -25.860  2.00000
     6   -25.860  2.00000
     7   -25.206  2.00000
     8   -25.206  2.00000
     9   -25.206  2.00000
    10   -25.206  2.00000
    11   -25.206  2.00000
    12   -25.205  2.00000
    13   -25.154  2.00000
    14   -25.154  2.00000
    15   -25.154  2.00000
    16   -25.154  2.00000
    17   -25.154  2.00000
    18   -25.154  2.00000
    19   -24.549  2.00000
    20   -24.549  2.00000
    21   -24.547  2.00000
    22   -24.547  2.00000
    23   -24.547  2.00000
    24   -24.547  2.00000
    25   -24.051  2.00000
    26   -24.051  2.00000
    27   -24.051  2.00000
    28   -24.051  2.00000
    29   -24.051  2.00000
    30   -24.051  2.00000
    31   -23.541  2.00000
    32   -23.541  2.00000
    33   -23.541  2.00000
    34   -23.541  2.00000
    35   -23.541  2.00000
    36   -23.541  2.00000
    37   -23.532  2.00000
    38   -23.532  2.00000
    39   -23.532  2.00000
    40   -23.532  2.00000
    41   -23.532  2.00000
    42   -23.532  2.00000
    43   -23.518  2.00000
    44   -23.518  2.00000
    45   -23.518  2.00000
    46   -23.517  2.00000
    47   -23.517  2.00000
    48   -23.517  2.00000
    49   -23.481  2.00000
    50   -23.481  2.00000
    51   -23.481  2.00000
    52   -23.481  2.00000
    53   -23.481  2.00000
    54   -23.481  2.00000
    55   -23.469  2.00000
    56   -23.469  2.00000
    57   -23.469  2.00000
    58   -23.469  2.00000
    59   -23.468  2.00000
    60   -23.468  2.00000
    61   -23.456  2.00000
    62   -23.456  2.00000
    63   -23.456  2.00000
    64   -23.454  2.00000
    65   -23.454  2.00000
    66   -23.454  2.00000
    67   -23.139  2.00000
    68   -23.139  2.00000
    69   -23.139  2.00000
    70   -23.139  2.00000
    71   -23.139  2.00000
    72   -23.139  2.00000
    73   -22.394  2.00000
    74   -22.394  2.00000
    75   -22.394  2.00000
    76   -22.394  2.00000
    77   -22.393  2.00000
    78   -22.393  2.00000
    79   -22.020  2.00000
    80   -22.020  2.00000
    81   -22.020  2.00000
    82   -22.020  2.00000
    83   -22.020  2.00000
    84   -22.020  2.00000
    85   -21.987  2.00000
    86   -21.987  2.00000
    87   -21.987  2.00000
    88   -21.987  2.00000
    89   -21.987  2.00000
    90   -21.987  2.00000
    91   -21.978  2.00000
    92   -21.978  2.00000
    93   -21.978  2.00000
    94   -21.978  2.00000
    95   -21.978  2.00000
    96   -21.978  2.00000
    97   -21.968  2.00000
    98   -21.968  2.00000
    99   -21.945  2.00000
   100   -21.945  2.00000
   101   -21.945  2.00000
   102   -21.945  2.00000
   103   -21.944  2.00000
   104   -21.944  2.00000
   105   -21.944  2.00000
   106   -21.944  2.00000
   107   -21.944  2.00000
   108   -21.944  2.00000
   109   -21.420  2.00000
   110   -21.420  2.00000
   111   -21.420  2.00000
   112   -21.420  2.00000
   113   -21.420  2.00000
   114   -21.420  2.00000
   115   -20.756  2.00000
   116   -20.756  2.00000
   117   -20.756  2.00000
   118   -20.756  2.00000
   119   -20.756  2.00000
   120   -20.756  2.00000
   121   -19.569  2.00000
   122   -19.569  2.00000
   123   -19.569  2.00000
   124   -19.569  2.00000
   125   -19.569  2.00000
   126   -19.569  2.00000
   127   -19.240  2.00000
   128   -19.240  2.00000
   129   -19.181  2.00000
   130   -19.181  2.00000
   131   -19.180  2.00000
   132   -19.180  2.00000
   133   -18.869  2.00000
   134   -18.869  2.00000
   135   -18.760  2.00000
   136   -18.760  2.00000
   137   -18.760  2.00000
   138   -18.760  2.00000
   139   -18.760  2.00000
   140   -18.760  2.00000
   141   -18.377  2.00000
   142   -18.377  2.00000
   143   -18.377  2.00000
   144   -18.377  2.00000
   145   -18.377  2.00000
   146   -18.377  2.00000
   147   -18.298  2.00000
   148   -18.298  2.00000
   149   -18.298  2.00000
   150   -18.298  2.00000
   151   -17.784  2.00000
   152   -17.784  2.00000
   153   -17.764  2.00000
   154   -17.764  2.00000
   155   -17.764  2.00000
   156   -17.762  2.00000
   157   -17.762  2.00000
   158   -17.762  2.00000
   159   -17.677  2.00000
   160   -17.677  2.00000
   161   -17.676  2.00000
   162   -17.676  2.00000
   163   -17.676  2.00000
   164   -17.676  2.00000
   165   -17.642  2.00000
   166   -17.642  2.00000
   167   -17.642  2.00000
   168   -17.642  2.00000
   169   -17.642  2.00000
   170   -17.642  2.00000
   171   -17.617  2.00000
   172   -17.617  2.00000
   173   -17.617  2.00000
   174   -17.617  2.00000
   175   -17.617  2.00000
   176   -17.617  2.00000
   177   -17.249  2.00000
   178   -17.249  2.00000
   179   -17.249  2.00000
   180   -17.249  2.00000
   181   -17.249  2.00000
   182   -17.249  2.00000
   183   -17.196  2.00000
   184   -17.195  2.00000
   185   -17.195  2.00000
   186   -17.194  2.00000
   187   -17.194  2.00000
   188   -17.194  2.00000
   189   -16.721  2.00000
   190   -16.721  2.00000
   191   -16.721  2.00000
   192   -16.720  2.00000
   193   -16.720  2.00000
   194   -16.720  2.00000
   195   -16.714  2.00000
   196   -16.714  2.00000
   197   -16.714  2.00000
   198   -16.714  2.00000
   199   -16.533  2.00000
   200   -16.532  2.00000
   201   -16.532  2.00000
   202   -16.530  2.00000
   203   -16.530  2.00000
   204   -16.529  2.00000
   205   -16.306  2.00000
   206   -16.306  2.00000
   207   -16.260  2.00000
   208   -16.260  2.00000
   209   -16.260  2.00000
   210   -16.259  2.00000
   211   -16.259  2.00000
   212   -16.259  2.00000
   213   -16.198  2.00000
   214   -16.198  2.00000
   215   -16.198  2.00000
   216   -16.198  2.00000
   217   -16.197  2.00000
   218   -16.197  2.00000
   219   -16.102  2.00000
   220   -16.102  2.00000
   221   -16.102  2.00000
   222   -16.102  2.00000
   223   -16.007  2.00000
   224   -16.006  2.00000
   225   -16.006  2.00000
   226   -16.006  2.00000
   227   -16.006  2.00000
   228   -16.006  2.00000
   229   -15.870  2.00000
   230   -15.870  2.00000
   231   -15.869  2.00000
   232   -15.869  2.00000
   233   -15.869  2.00000
   234   -15.869  2.00000
   235   -15.806  2.00000
   236   -15.806  2.00000
   237   -15.806  2.00000
   238   -15.797  2.00000
   239   -15.797  2.00000
   240   -15.797  2.00000
   241   -15.591  2.00000
   242   -15.591  2.00000
   243   -15.591  2.00000
   244   -15.591  2.00000
   245   -15.591  2.00000
   246   -15.591  2.00000
   247   -15.442  2.00000
   248   -15.442  2.00000
   249   -15.442  2.00000
   250   -15.442  2.00000
   251   -15.442  2.00000
   252   -15.442  2.00000
   253   -15.319  2.00000
   254   -15.319  2.00000
   255   -15.319  2.00000
   256   -15.318  2.00000
   257   -15.318  2.00000
   258   -15.316  2.00000
   259   -15.311  2.00000
   260   -15.311  2.00000
   261   -15.311  2.00000
   262   -15.311  2.00000
   263   -15.292  2.00000
   264   -15.292  2.00000
   265   -15.257  2.00000
   266   -15.257  2.00000
   267   -15.257  2.00000
   268   -15.257  2.00000
   269   -15.257  2.00000
   270   -15.257  2.00000
   271   -15.153  2.00000
   272   -15.152  2.00000
   273   -15.152  2.00000
   274   -15.148  2.00000
   275   -15.148  2.00000
   276   -15.147  2.00000
   277   -15.123  2.00000
   278   -15.122  2.00000
   279   -15.122  2.00000
   280   -15.121  2.00000
   281   -15.121  2.00000
   282   -15.121  2.00000
   283   -15.038  2.00000
   284   -15.038  2.00000
   285   -15.038  2.00000
   286   -15.038  2.00000
   287   -15.037  2.00000
   288   -15.037  2.00000
   289   -15.011  2.00000
   290   -15.011  2.00000
   291   -14.964  2.00000
   292   -14.964  2.00000
   293   -14.964  2.00000
   294   -14.964  2.00000
   295   -14.766  2.00000
   296   -14.764  2.00000
   297   -14.764  2.00000
   298   -14.758  2.00000
   299   -14.758  2.00000
   300   -14.755  2.00000
   301   -14.553  2.00000
   302   -14.553  2.00000
   303   -14.553  2.00000
   304   -14.553  2.00000
   305   -14.539  2.00000
   306   -14.539  2.00000
   307   -14.513  2.00000
   308   -14.513  2.00000
   309   -14.506  2.00000
   310   -14.506  2.00000
   311   -14.506  2.00000
   312   -14.506  2.00000
   313   -14.092  2.00000
   314   -14.092  2.00000
   315   -14.092  2.00000
   316   -14.092  2.00000
   317   -14.086  2.00000
   318   -14.086  2.00000
   319   -14.086  2.00000
   320   -14.086  2.00000
   321   -14.086  2.00000
   322   -14.086  2.00000
   323   -14.073  2.00000
   324   -14.073  2.00000
   325   -13.747  2.00000
   326   -13.747  2.00000
   327   -13.747  2.00000
   328   -13.747  2.00000
   329   -13.747  2.00000
   330   -13.747  2.00000
   331   -13.651  2.00000
   332   -13.651  2.00000
   333   -13.651  2.00000
   334   -13.651  2.00000
   335   -13.636  2.00000
   336   -13.636  2.00000
   337   -13.514  2.00000
   338   -13.514  2.00000
   339   -13.514  2.00000
   340   -13.514  2.00000
   341   -13.514  2.00000
   342   -13.513  2.00000
   343   -13.467  2.00000
   344   -13.467  2.00000
   345   -13.466  2.00000
   346   -13.464  2.00000
   347   -13.464  2.00000
   348   -13.464  2.00000
   349   -13.276  2.00000
   350   -13.276  2.00000
   351   -13.271  2.00000
   352   -13.225  2.00000
   353   -13.224  2.00000
   354   -13.224  2.00000
   355   -13.175  2.00000
   356   -13.175  2.00000
   357   -13.168  2.00000
   358   -13.168  2.00000
   359   -13.096  2.00000
   360   -13.096  2.00000
   361   -13.094  2.00000
   362   -13.092  2.00000
   363   -13.091  2.00000
   364   -13.091  2.00000
   365   -12.891  2.00000
   366   -12.880  2.00000
   367   -12.880  2.00000
   368   -12.866  2.00000
   369   -12.862  2.00000
   370   -12.862  2.00000
   371   -12.814  2.00000
   372   -12.810  2.00000
   373   -12.755  2.00000
   374   -12.755  2.00000
   375   -12.755  2.00000
   376   -12.755  2.00000
   377   -12.750  2.00000
   378   -12.750  2.00000
   379   -12.600  2.00000
   380   -12.592  2.00000
   381   -12.592  2.00000
   382   -12.578  2.00000
   383   -12.578  2.00000
   384   -12.568  2.00000
   385   -12.538  2.00000
   386   -12.538  2.00000
   387   -12.538  2.00000
   388   -12.538  2.00000
   389   -12.196  2.00000
   390   -12.195  2.00000
   391   -12.195  2.00000
   392   -12.191  2.00000
   393   -12.191  2.00000
   394   -12.191  2.00000
   395   -12.170  2.00000
   396   -12.162  2.00000
   397   -12.162  2.00000
   398   -12.158  2.00000
   399   -12.158  2.00000
   400   -12.153  2.00000
   401   -12.112  2.00000
   402   -12.105  2.00000
   403   -12.105  2.00000
   404   -12.103  2.00000
   405   -12.097  2.00000
   406   -12.023  2.00000
   407   -12.023  2.00000
   408   -12.021  2.00000
   409   -12.019  2.00000
   410   -12.018  2.00000
   411   -12.018  2.00000
   412   -12.018  2.00000
   413   -12.015  2.00000
   414   -12.015  2.00000
   415   -11.965  2.00000
   416   -11.965  2.00000
   417   -11.961  2.00000
   418   -11.961  2.00000
   419   -11.960  2.00000
   420   -11.959  2.00000
   421   -11.957  2.00000
   422   -11.957  2.00000
   423   -11.948  2.00000
   424   -11.945  2.00000
   425   -11.945  2.00000
   426   -11.945  2.00000
   427   -11.912  2.00000
   428   -11.912  2.00000
   429   -11.912  2.00000
   430   -11.912  2.00000
   431   -11.757  2.00000
   432   -11.755  2.00000
   433   -11.750  2.00000
   434   -11.750  2.00000
   435   -11.749  2.00000
   436   -11.749  2.00000
   437   -11.721  2.00000
   438   -11.716  2.00000
   439   -11.716  2.00000
   440   -11.712  2.00000
   441   -11.712  2.00000
   442   -11.708  2.00000
   443   -11.662  2.00000
   444   -11.645  2.00000
   445   -11.645  2.00000
   446   -11.635  2.00000
   447   -11.635  2.00000
   448   -11.622  2.00000
   449   -11.513  2.00000
   450   -11.512  2.00000
   451   -11.478  2.00000
   452   -11.478  2.00000
   453   -11.476  2.00000
   454   -11.476  2.00000
   455   -11.440  2.00000
   456   -11.434  2.00000
   457   -11.409  2.00000
   458   -11.409  2.00000
   459   -11.395  2.00000
   460   -11.395  2.00000
   461   -11.366  2.00000
   462   -11.363  2.00000
   463   -11.240  2.00000
   464   -11.240  2.00000
   465   -11.239  2.00000
   466   -11.239  2.00000
   467   -11.218  2.00000
   468   -11.218  2.00000
   469   -11.208  2.00000
   470   -11.207  2.00000
   471   -11.203  2.00000
   472   -11.203  2.00000
   473   -11.201  2.00000
   474   -11.196  2.00000
   475   -11.196  2.00000
   476   -11.189  2.00000
   477   -11.189  2.00000
   478   -11.182  2.00000
   479   -11.182  2.00000
   480   -11.181  2.00000
   481   -11.181  2.00000
   482   -11.159  2.00000
   483   -11.159  2.00000
   484   -11.159  2.00000
   485   -11.119  2.00000
   486   -11.118  2.00000
   487   -10.978  2.00000
   488   -10.976  2.00000
   489   -10.976  2.00000
   490   -10.971  2.00000
   491   -10.971  2.00000
   492   -10.969  2.00000
   493   -10.796  2.00000
   494   -10.795  2.00000
   495   -10.795  2.00000
   496   -10.794  2.00000
   497   -10.794  2.00000
   498   -10.793  2.00000
   499   -10.705  2.00000
   500   -10.705  2.00000
   501   -10.665  2.00000
   502   -10.665  2.00000
   503   -10.665  2.00000
   504   -10.665  2.00000
   505   -10.665  2.00000
   506   -10.665  2.00000
   507   -10.473  2.00000
   508   -10.473  2.00000
   509   -10.466  2.00000
   510   -10.466  2.00000
   511   -10.465  2.00000
   512   -10.465  2.00000
   513   -10.366  2.00000
   514   -10.366  2.00000
   515   -10.366  2.00000
   516   -10.337  2.00000
   517   -10.337  2.00000
   518   -10.337  2.00000
   519   -10.309  2.00000
   520   -10.309  2.00000
   521   -10.309  2.00000
   522   -10.303  2.00000
   523   -10.303  2.00000
   524   -10.303  2.00000
   525   -10.285  2.00000
   526   -10.285  2.00000
   527   -10.285  2.00000
   528   -10.280  2.00000
   529   -10.280  2.00000
   530   -10.280  2.00000
   531   -10.214  2.00000
   532   -10.213  2.00000
   533   -10.213  2.00000
   534   -10.198  2.00000
   535   -10.198  2.00000
   536   -10.198  2.00000
   537   -10.179  2.00000
   538   -10.179  2.00000
   539   -10.178  2.00000
   540   -10.177  2.00000
   541   -10.177  2.00000
   542   -10.177  2.00000
   543   -10.099  2.00000
   544   -10.099  2.00000
   545   -10.098  2.00000
   546   -10.085  2.00000
   547   -10.085  2.00000
   548   -10.085  2.00000
   549   -10.036  2.00000
   550   -10.036  2.00000
   551   -10.036  2.00000
   552   -10.036  2.00000
   553   -10.036  2.00000
   554   -10.036  2.00000
   555    -9.918  2.00000
   556    -9.918  2.00000
   557    -9.918  2.00000
   558    -9.917  2.00000
   559    -9.917  2.00000
   560    -9.917  2.00000
   561    -9.877  2.00000
   562    -9.877  2.00000
   563    -9.877  2.00000
   564    -9.876  2.00000
   565    -9.876  2.00000
   566    -9.876  2.00000
   567    -9.683  2.00000
   568    -9.683  2.00000
   569    -9.683  2.00000
   570    -9.673  2.00000
   571    -9.673  2.00000
   572    -9.673  2.00000
   573    -9.668  2.00000
   574    -9.668  2.00000
   575    -9.668  2.00000
   576    -9.661  2.00000
   577    -9.661  2.00000
   578    -9.661  2.00000
   579    -9.654  2.00000
   580    -9.654  2.00000
   581    -9.653  2.00000
   582    -9.648  2.00000
   583    -9.648  2.00000
   584    -9.648  2.00000
   585    -9.618  2.00000
   586    -9.618  2.00000
   587    -9.617  2.00000
   588    -9.617  2.00000
   589    -9.572  2.00000
   590    -9.571  2.00000
   591    -9.571  2.00000
   592    -9.569  2.00000
   593    -9.569  2.00000
   594    -9.569  2.00000
   595    -9.517  2.00000
   596    -9.510  2.00000
   597    -9.503  2.00000
   598    -9.503  2.00000
   599    -9.496  2.00000
   600    -9.496  2.00000
   601    -9.484  2.00000
   602    -9.484  2.00000
   603    -9.438  2.00000
   604    -9.438  2.00000
   605    -9.392  2.00000
   606    -9.392  2.00000
   607    -9.391  2.00000
   608    -9.391  2.00000
   609    -9.391  2.00000
   610    -9.390  2.00000
   611    -9.334  2.00000
   612    -9.334  2.00000
   613    -9.331  2.00000
   614    -9.330  2.00000
   615    -9.330  2.00000
   616    -9.328  2.00000
   617    -9.300  2.00000
   618    -9.300  2.00000
   619    -9.298  2.00000
   620    -9.290  2.00000
   621    -9.290  2.00000
   622    -9.288  2.00000
   623    -9.288  2.00000
   624    -9.280  2.00000
   625    -9.280  2.00000
   626    -9.280  2.00000
   627    -9.276  2.00000
   628    -9.276  2.00000
   629    -9.276  2.00000
   630    -9.276  2.00000
   631    -9.273  2.00000
   632    -9.270  2.00000
   633    -9.270  2.00000
   634    -9.270  2.00000
   635    -9.266  2.00000
   636    -9.266  2.00000
   637    -9.264  2.00000
   638    -9.263  2.00000
   639    -9.191  2.00000
   640    -9.187  2.00000
   641    -9.187  2.00000
   642    -9.184  2.00000
   643    -9.172  2.00000
   644    -9.172  2.00000
   645    -9.170  2.00000
   646    -9.160  2.00000
   647    -9.160  2.00000
   648    -9.142  2.00000
   649    -9.139  2.00000
   650    -9.139  2.00000
   651    -9.108  2.00000
   652    -9.107  2.00000
   653    -9.107  2.00000
   654    -9.107  2.00000
   655    -9.106  2.00000
   656    -9.106  2.00000
   657    -9.087  2.00000
   658    -9.087  2.00000
   659    -9.084  2.00000
   660    -9.083  2.00000
   661    -9.079  2.00000
   662    -9.079  2.00000
   663    -8.937  2.00000
   664    -8.937  2.00000
   665    -8.937  2.00000
   666    -8.937  2.00000
   667    -8.931  2.00000
   668    -8.930  2.00000
   669    -8.908  2.00000
   670    -8.907  2.00000
   671    -8.907  2.00000
   672    -8.905  2.00000
   673    -8.905  2.00000
   674    -8.902  2.00000
   675    -8.898  2.00000
   676    -8.897  2.00000
   677    -8.897  2.00000
   678    -8.883  2.00000
   679    -8.881  2.00000
   680    -8.881  2.00000
   681    -8.873  2.00000
   682    -8.873  2.00000
   683    -8.852  2.00000
   684    -8.845  2.00000
   685    -8.845  2.00000
   686    -8.845  2.00000
   687    -8.843  2.00000
   688    -8.843  2.00000
   689    -8.839  2.00000
   690    -8.839  2.00000
   691    -8.839  2.00000
   692    -8.807  2.00000
   693    -8.796  2.00000
   694    -8.796  2.00000
   695    -8.796  2.00000
   696    -8.787  2.00000
   697    -8.787  2.00000
   698    -8.787  2.00000
   699    -8.785  2.00000
   700    -8.785  2.00000
   701    -8.785  2.00000
   702    -8.777  2.00000
   703    -8.777  2.00000
   704    -8.762  2.00000
   705    -8.756  2.00000
   706    -8.756  2.00000
   707    -8.749  2.00000
   708    -8.749  2.00000
   709    -8.718  2.00000
   710    -8.709  2.00000
   711    -8.709  2.00000
   712    -8.705  2.00000
   713    -8.704  2.00000
   714    -8.704  2.00000
   715    -8.679  2.00000
   716    -8.679  2.00000
   717    -8.679  2.00000
   718    -8.666  2.00000
   719    -8.657  2.00000
   720    -8.657  2.00000
   721    -8.636  2.00000
   722    -8.624  2.00000
   723    -8.600  2.00000
   724    -8.600  2.00000
   725    -8.598  2.00000
   726    -8.587  2.00000
   727    -8.587  2.00000
   728    -8.587  2.00000
   729    -8.534  2.00000
   730    -8.534  2.00000
   731    -8.533  2.00000
   732    -8.529  2.00000
   733    -8.529  2.00000
   734    -8.529  2.00000
   735    -8.525  2.00000
   736    -8.525  2.00000
   737    -8.524  2.00000
   738    -8.498  2.00000
   739    -8.498  2.00000
   740    -8.496  2.00000
   741    -8.461  2.00000
   742    -8.460  2.00000
   743    -8.460  2.00000
   744    -8.441  2.00000
   745    -8.437  2.00000
   746    -8.437  2.00000
   747    -8.434  2.00000
   748    -8.434  2.00000
   749    -8.433  2.00000
   750    -8.430  2.00000
   751    -8.430  2.00000
   752    -8.429  2.00000
   753    -8.411  2.00000
   754    -8.410  2.00000
   755    -8.410  2.00000
   756    -8.409  2.00000
   757    -8.409  2.00000
   758    -8.408  2.00000
   759    -8.396  2.00000
   760    -8.396  2.00000
   761    -8.396  2.00000
   762    -8.381  2.00000
   763    -8.381  2.00000
   764    -8.381  2.00000
   765    -8.380  2.00000
   766    -8.380  2.00000
   767    -8.378  2.00000
   768    -8.373  2.00000
   769    -8.372  2.00000
   770    -8.372  2.00000
   771    -8.334  2.00000
   772    -8.334  2.00000
   773    -8.334  2.00000
   774    -8.310  2.00000
   775    -8.310  2.00000
   776    -8.304  2.00000
   777    -8.211  2.00000
   778    -8.211  2.00000
   779    -8.209  2.00000
   780    -8.206  2.00000
   781    -8.205  2.00000
   782    -8.205  2.00000
   783    -8.194  2.00000
   784    -8.194  2.00000
   785    -8.183  2.00000
   786    -8.183  2.00000
   787    -8.181  2.00000
   788    -8.178  2.00000
   789    -8.176  2.00000
   790    -8.176  2.00000
   791    -8.062  2.00000
   792    -8.053  2.00000
   793    -8.053  2.00000
   794    -8.053  2.00000
   795    -8.053  2.00000
   796    -8.045  2.00000
   797    -7.909  2.00000
   798    -7.909  2.00000
   799    -7.908  2.00000
   800    -7.908  2.00000
   801    -7.899  2.00000
   802    -7.899  2.00000
   803    -7.899  2.00000
   804    -7.893  2.00000
   805    -7.893  2.00000
   806    -7.893  2.00000
   807    -7.890  2.00000
   808    -7.890  2.00000
   809    -7.890  2.00000
   810    -7.871  2.00000
   811    -7.871  2.00000
   812    -7.869  2.00000
   813    -7.841  2.00000
   814    -7.840  2.00000
   815    -7.840  2.00000
   816    -7.840  2.00000
   817    -7.836  2.00000
   818    -7.836  2.00000
   819    -7.783  2.00000
   820    -7.783  2.00000
   821    -7.781  2.00000
   822    -7.755  2.00000
   823    -7.755  2.00000
   824    -7.755  2.00000
   825    -7.754  2.00000
   826    -7.754  2.00000
   827    -7.753  2.00000
   828    -7.750  2.00000
   829    -7.750  2.00000
   830    -7.748  2.00000
   831    -7.716  2.00000
   832    -7.716  2.00000
   833    -7.715  2.00000
   834    -7.712  2.00000
   835    -7.712  2.00000
   836    -7.712  2.00000
   837    -7.701  2.00000
   838    -7.701  2.00000
   839    -7.701  2.00000
   840    -7.686  2.00000
   841    -7.686  2.00000
   842    -7.686  2.00000
   843    -7.686  2.00000
   844    -7.686  2.00000
   845    -7.686  2.00000
   846    -7.643  2.00000
   847    -7.643  2.00000
   848    -7.642  2.00000
   849    -7.567  2.00000
   850    -7.567  2.00000
   851    -7.566  2.00000
   852    -7.564  2.00000
   853    -7.564  2.00000
   854    -7.562  2.00000
   855    -7.551  2.00000
   856    -7.551  2.00000
   857    -7.551  2.00000
   858    -7.490  2.00000
   859    -7.489  2.00000
   860    -7.489  2.00000
   861    -7.430  2.00000
   862    -7.430  2.00000
   863    -7.430  2.00000
   864    -7.430  2.00000
   865    -7.416  2.00000
   866    -7.416  2.00000
   867    -7.400  2.00000
   868    -7.400  2.00000
   869    -7.394  2.00000
   870    -7.394  2.00000
   871    -7.394  2.00000
   872    -7.394  2.00000
   873    -7.391  2.00000
   874    -7.391  2.00000
   875    -7.391  2.00000
   876    -7.391  2.00000
   877    -7.324  2.00000
   878    -7.324  2.00000
   879    -7.323  2.00000
   880    -7.322  2.00000
   881    -7.289  2.00000
   882    -7.279  2.00000
   883    -7.279  2.00000
   884    -7.243  2.00000
   885    -7.225  2.00000
   886    -7.225  2.00000
   887    -7.222  2.00000
   888    -7.222  2.00000
   889    -7.219  2.00000
   890    -7.212  2.00000
   891    -7.204  2.00000
   892    -7.204  2.00000
   893    -7.197  2.00000
   894    -7.181  2.00000
   895    -7.181  2.00000
   896    -7.181  2.00000
   897    -7.162  2.00000
   898    -7.162  2.00000
   899    -7.146  2.00000
   900    -7.145  2.00000
   901    -7.145  2.00000
   902    -7.142  2.00000
   903    -7.142  2.00000
   904    -7.141  2.00000
   905    -7.126  2.00000
   906    -7.075  2.00000
   907    -7.075  2.00000
   908    -7.072  2.00000
   909    -7.046  2.00000
   910    -7.046  2.00000
   911    -7.045  2.00000
   912    -7.023  2.00000
   913    -7.023  2.00000
   914    -7.023  2.00000
   915    -6.740  2.00000
   916    -6.739  2.00000
   917    -6.739  2.00000
   918    -6.738  2.00000
   919    -6.738  2.00000
   920    -6.738  2.00000
   921    -6.529  2.00000
   922    -6.529  2.00000
   923    -6.529  2.00000
   924    -6.487  2.00000
   925    -6.487  2.00000
   926    -6.487  2.00000
   927    -6.466  2.00000
   928    -6.466  2.00000
   929    -6.466  2.00000
   930    -6.450  2.00000
   931    -6.450  2.00000
   932    -6.449  2.00000
   933    -6.413  2.00000
   934    -6.413  2.00000
   935    -6.413  2.00000
   936    -6.385  2.00000
   937    -6.385  2.00000
   938    -6.385  2.00000
   939    -6.290  2.00000
   940    -6.290  2.00000
   941    -6.290  2.00000
   942    -6.288  2.00000
   943    -6.288  2.00000
   944    -6.288  2.00000
   945    -6.214  2.00000
   946    -6.214  2.00000
   947    -6.214  2.00000
   948    -6.214  2.00000
   949    -6.214  2.00000
   950    -6.213  2.00000
   951    -6.209  2.00000
   952    -6.209  2.00000
   953    -6.209  2.00000
   954    -6.204  2.00000
   955    -6.204  2.00000
   956    -6.204  2.00000
   957    -6.065  2.00000
   958    -6.064  2.00000
   959    -6.064  2.00000
   960    -6.057  2.00000
   961    -6.057  2.00000
   962    -6.057  2.00000
   963    -6.041  2.00000
   964    -6.041  2.00000
   965    -6.040  2.00000
   966    -6.019  2.00000
   967    -6.018  2.00000
   968    -6.018  2.00000
   969    -5.991  2.00000
   970    -5.991  2.00000
   971    -5.991  2.00000
   972    -5.991  2.00000
   973    -5.982  2.00000
   974    -5.982  2.00000
   975    -5.982  2.00000
   976    -5.976  2.00000
   977    -5.976  2.00000
   978    -5.976  2.00000
   979    -5.930  2.00000
   980    -5.929  2.00000
   981    -5.929  2.00000
   982    -5.923  2.00000
   983    -5.923  2.00000
   984    -5.922  2.00000
   985    -5.886  2.00000
   986    -5.886  2.00000
   987    -5.886  2.00000
   988    -5.879  2.00000
   989    -5.879  2.00000
   990    -5.879  2.00000
   991    -5.850  2.00000
   992    -5.849  2.00000
   993    -5.849  2.00000
   994    -5.849  2.00000
   995    -5.849  2.00000
   996    -5.849  2.00000
   997    -5.848  2.00000
   998    -5.848  2.00000
   999    -5.848  2.00000
  1000    -5.848  2.00000
  1001    -5.848  2.00000
  1002    -5.848  2.00000
  1003    -5.536  2.00000
  1004    -5.536  2.00000
  1005    -5.536  2.00000
  1006    -5.500  2.00000
  1007    -5.500  2.00000
  1008    -5.500  2.00000
  1009    -5.461  2.00000
  1010    -5.461  2.00000
  1011    -5.461  2.00000
  1012    -5.454  2.00000
  1013    -5.453  2.00000
  1014    -5.453  2.00000
  1015    -5.450  2.00000
  1016    -5.450  2.00000
  1017    -5.450  2.00000
  1018    -5.431  2.00000
  1019    -5.431  2.00000
  1020    -5.431  2.00000
  1021    -5.392  2.00000
  1022    -5.392  2.00000
  1023    -5.392  2.00000
  1024    -5.374  2.00000
  1025    -5.374  2.00000
  1026    -5.374  2.00000
  1027    -5.368  2.00000
  1028    -5.368  2.00000
  1029    -5.368  2.00000
  1030    -5.366  2.00000
  1031    -5.366  2.00000
  1032    -5.366  2.00000
  1033    -5.350  2.00000
  1034    -5.349  2.00000
  1035    -5.349  2.00000
  1036    -5.289  2.00000
  1037    -5.289  2.00000
  1038    -5.288  2.00000
  1039    -5.225  2.00000
  1040    -5.225  2.00000
  1041    -5.225  2.00000
  1042    -5.223  2.00000
  1043    -5.223  2.00000
  1044    -5.223  2.00000
  1045    -5.173  2.00000
  1046    -5.173  2.00000
  1047    -5.173  2.00000
  1048    -5.173  2.00000
  1049    -5.173  2.00000
  1050    -5.173  2.00000
  1051    -5.172  2.00000
  1052    -5.172  2.00000
  1053    -5.172  2.00000
  1054    -5.169  2.00000
  1055    -5.169  2.00000
  1056    -5.169  2.00000
  1057    -5.038  2.00000
  1058    -5.038  2.00000
  1059    -5.038  2.00000
  1060    -4.952  2.00000
  1061    -4.952  2.00000
  1062    -4.952  2.00000
  1063    -4.846  2.00000
  1064    -4.846  2.00000
  1065    -4.845  2.00000
  1066    -4.831  2.00000
  1067    -4.831  2.00000
  1068    -4.831  2.00000
  1069    -4.795  2.00000
  1070    -4.795  2.00000
  1071    -4.795  2.00000
  1072    -4.790  2.00000
  1073    -4.790  2.00000
  1074    -4.790  2.00000
  1075    -4.773  2.00000
  1076    -4.773  2.00000
  1077    -4.773  2.00000
  1078    -4.764  2.00000
  1079    -4.764  2.00000
  1080    -4.763  2.00000
  1081    -4.745  2.00000
  1082    -4.745  2.00000
  1083    -4.745  2.00000
  1084    -4.734  2.00000
  1085    -4.734  2.00000
  1086    -4.734  2.00000
  1087    -0.991  1.98183
  1088    -0.991  1.98181
  1089    -0.991  1.98178
  1090    -0.991  1.98175
  1091    -0.913  1.69151
  1092    -0.913  1.68479
  1093    -0.912  1.67445
  1094    -0.912  1.67444
  1095    -0.911  1.67015
  1096    -0.911  1.67014
  1097    -0.855  0.71906
  1098    -0.854  0.71582
  1099    -0.854  0.71582
  1100    -0.834  0.40163
  1101    -0.833  0.39590
  1102    -0.833  0.39589
  1103    -0.833  0.38841
  1104    -0.832  0.37640
  1105    -0.832  0.37640
  1106    -0.831  0.37290
  1107    -0.831  0.37289
  1108    -0.831  0.36823
  1109    -0.813  0.19904
  1110    -0.811  0.18828
  1111    -0.701  0.00300
  1112    -0.701  0.00299
  1113    -0.701  0.00299
  1114    -0.701  0.00291
  1115    -0.701  0.00290
  1116    -0.701  0.00290
  1117    -0.666  0.00075
  1118    -0.666  0.00075
  1119    -0.665  0.00075
  1120    -0.665  0.00074
  1121    -0.235  0.00000
  1122    -0.235  0.00000
  1123    -0.235  0.00000
  1124    -0.234  0.00000
  1125    -0.234  0.00000
  1126    -0.234  0.00000
  1127    -0.151  0.00000
  1128    -0.151  0.00000
  1129    -0.101  0.00000
  1130    -0.100  0.00000
  1131    -0.100  0.00000
  1132    -0.100  0.00000
  1133    -0.100  0.00000
  1134    -0.100  0.00000
  1135     0.011  0.00000
  1136     0.011  0.00000
  1137     0.011  0.00000
  1138     0.011  0.00000
  1139     0.233  0.00000
  1140     0.233  0.00000
  1141     0.233  0.00000
  1142     0.233  0.00000
  1143     0.233  0.00000
  1144     0.233  0.00000
  1145     0.351  0.00000
  1146     0.351  0.00000
  1147     0.351  0.00000
  1148     0.352  0.00000
  1149     0.352  0.00000
  1150     0.352  0.00000
  1151     0.362  0.00000
  1152     0.362  0.00000
  1153     0.362  0.00000
  1154     0.362  0.00000
  1155     0.362  0.00000
  1156     0.362  0.00000
  1157     0.625  0.00000
  1158     0.625  0.00000
  1159     0.626  0.00000
  1160     0.626  0.00000
  1161     0.626  0.00000
  1162     0.626  0.00000
  1163     1.129  0.00000
  1164     1.129  0.00000
  1165     1.129  0.00000
  1166     1.175  0.00000
  1167     1.175  0.00000
  1168     1.175  0.00000
  1169     1.661  0.00000
  1170     1.661  0.00000
  1171     1.661  0.00000
  1172     1.661  0.00000
  1173     1.661  0.00000
  1174     1.661  0.00000
  1175     2.052  0.00000
  1176     2.052  0.00000
  1177     2.059  0.00000
  1178     2.059  0.00000
  1179     2.059  0.00000
  1180     2.060  0.00000
  1181     2.060  0.00000
  1182     2.060  0.00000
  1183     2.101  0.00000
  1184     2.101  0.00000
  1185     2.101  0.00000
  1186     2.101  0.00000
  1187     2.760  0.00000
  1188     2.760  0.00000
  1189     2.760  0.00000
  1190     2.761  0.00000
  1191     2.761  0.00000
  1192     2.761  0.00000
  1193     3.006  0.00000
  1194     3.006  0.00000
  1195     3.006  0.00000
  1196     3.049  0.00000
  1197     3.049  0.00000
  1198     3.049  0.00000
  1199     3.142  0.00000
  1200     3.142  0.00000
  1201     3.373  0.00000
  1202     3.375  0.00000
  1203     3.375  0.00000
  1204     3.380  0.00000
  1205     3.380  0.00000
  1206     3.381  0.00000
  1207     4.100  0.00000
  1208     4.104  0.00000
  1209     4.104  0.00000
  1210     4.111  0.00000
  1211     4.111  0.00000
  1212     4.115  0.00000
  1213     4.296  0.00000
  1214     4.296  0.00000
  1215     4.300  0.00000
  1216     4.300  0.00000
  1217     4.301  0.00000
  1218     4.301  0.00000
  1219     4.454  0.00000
  1220     4.455  0.00000
  1221     4.455  0.00000
  1222     4.455  0.00000
  1223     4.455  0.00000
  1224     4.455  0.00000
  1225     4.491  0.00000
  1226     4.491  0.00000
  1227     4.491  0.00000
  1228     4.492  0.00000
  1229     4.492  0.00000
  1230     4.493  0.00000
  1231     5.064  0.00000
  1232     5.069  0.00000
  1233     5.069  0.00000
  1234     5.076  0.00000
  1235     5.077  0.00000
  1236     5.077  0.00000
  1237     5.247  0.00000
  1238     5.248  0.00000
  1239     5.248  0.00000
  1240     5.250  0.00000
  1241     5.250  0.00000
  1242     5.250  0.00000
  1243     5.254  0.00000
  1244     5.254  0.00000
  1245     5.254  0.00000
  1246     5.264  0.00000
  1247     5.264  0.00000
  1248     5.264  0.00000
  1249     5.391  0.00000
  1250     5.393  0.00000
  1251     5.529  0.00000
  1252     5.529  0.00000
  1253     5.529  0.00000
  1254     5.530  0.00000
  1255     5.531  0.00000
  1256     5.537  0.00000
  1257     5.551  0.00000
  1258     5.551  0.00000
  1259     5.554  0.00000
  1260     5.554  0.00000
  1261     7.170  0.00000
  1262     7.170  0.00000
  1263     7.170  0.00000
  1264     7.170  0.00000
  1265     7.170  0.00000
  1266     7.170  0.00000
  1267     8.703  0.00000
  1268     8.703  0.00000
  1269     8.703  0.00000
  1270     8.703  0.00000
  1271     8.703  0.00000
  1272     8.703  0.00000
  1273     8.745  0.00000
  1274     8.745  0.00000
  1275     8.745  0.00000
  1276     8.745  0.00000
  1277     8.791  0.00000
  1278     8.792  0.00000
  1279     8.889  0.00000
  1280     8.889  0.00000
  1281     8.889  0.00000
  1282     8.889  0.00000
  1283     8.913  0.00000
  1284     8.913  0.00000
  1285     9.174  0.00000
  1286     9.174  0.00000
  1287     9.174  0.00000
  1288     9.174  0.00000
  1289     9.233  0.00000
  1290     9.233  0.00000
  1291     9.233  0.00000
  1292     9.238  0.00000
  1293     9.238  0.00000
  1294     9.238  0.00000
  1295     9.298  0.00000
  1296     9.298  0.00000
  1297     9.392  0.00000
  1298     9.392  0.00000
  1299     9.392  0.00000
  1300     9.393  0.00000
  1301     9.393  0.00000
  1302     9.393  0.00000
  1303     9.530  0.00000
  1304     9.531  0.00000
  1305     9.531  0.00000
  1306     9.531  0.00000
  1307     9.548  0.00000
  1308     9.549  0.00000
  1309     9.599  0.00000
  1310     9.599  0.00000
  1311     9.600  0.00000
  1312     9.603  0.00000
  1313     9.603  0.00000
  1314     9.603  0.00000
  1315    10.064  0.00000
  1316    10.065  0.00000
  1317    10.164  0.00000
  1318    10.164  0.00000
  1319    10.164  0.00000
  1320    10.164  0.00000
  1321    10.170  0.00000
  1322    10.170  0.00000
  1323    10.172  0.00000
  1324    10.172  0.00000
  1325    10.224  0.00000
  1326    10.224  0.00000
  1327    10.345  0.00000
  1328    10.352  0.00000
  1329    10.422  0.00000
  1330    10.422  0.00000
  1331    10.427  0.00000
  1332    10.427  0.00000
  1333    10.476  0.00000
  1334    10.484  0.00000
  1335    10.486  0.00000
  1336    10.486  0.00000
  1337    10.493  0.00000
  1338    10.493  0.00000
  1339    10.528  0.00000
  1340    10.528  0.00000
  1341    10.530  0.00000
  1342    10.537  0.00000
  1343    10.537  0.00000
  1344    10.538  0.00000
  1345    10.749  0.00000
  1346    10.756  0.00000
  1347    10.813  0.00000
  1348    10.813  0.00000
  1349    10.814  0.00000
  1350    10.814  0.00000
  1351    11.014  0.00000
  1352    11.016  0.00000
  1353    11.050  0.00000
  1354    11.050  0.00000
  1355    11.062  0.00000
  1356    11.062  0.00000
  1357    11.608  0.00000
  1358    11.608  0.00000
  1359    11.609  0.00000
  1360    11.609  0.00000
  1361    11.698  0.00000
  1362    11.698  0.00000
  1363    11.730  0.00000
  1364    11.733  0.00000
  1365    11.749  0.00000
  1366    11.749  0.00000
  1367    11.750  0.00000
  1368    11.750  0.00000
  1369    11.764  0.00000
  1370    11.767  0.00000
  1371    11.827  0.00000
  1372    11.827  0.00000
  1373    11.833  0.00000
  1374    11.833  0.00000
  1375    12.054  0.00000
  1376    12.054  0.00000
  1377    12.054  0.00000
  1378    12.056  0.00000
  1379    12.056  0.00000
  1380    12.056  0.00000
  1381    12.058  0.00000
  1382    12.059  0.00000
  1383    12.059  0.00000
  1384    12.059  0.00000
  1385    12.059  0.00000
  1386    12.059  0.00000
  1387    12.432  0.00000
  1388    12.432  0.00000
  1389    12.432  0.00000
  1390    12.432  0.00000
  1391    12.432  0.00000
  1392    12.432  0.00000
  1393    13.836  0.00000
  1394    13.836  0.00000
  1395    13.836  0.00000
  1396    13.836  0.00000
  1397    13.836  0.00000
  1398    13.836  0.00000
  1399    14.048  0.00000
  1400    14.049  0.00000
  1401    14.050  0.00000
  1402    14.051  0.00000
  1403    14.052  0.00000
  1404    14.053  0.00000
  1405    14.740  0.00000
  1406    14.741  0.00000
  1407    14.741  0.00000
  1408    14.808  0.00000
  1409    14.808  0.00000
  1410    14.808  0.00000
  1411    15.085  0.00000
  1412    15.085  0.00000
  1413    15.085  0.00000
  1414    15.086  0.00000
  1415    15.086  0.00000
  1416    15.086  0.00000
  1417    15.846  0.00000
  1418    15.846  0.00000
  1419    15.847  0.00000
  1420    15.860  0.00000
  1421    15.860  0.00000
  1422    15.862  0.00000
  1423    15.862  0.00000
  1424    15.900  0.00000
  1425    15.902  0.00000
  1426    15.902  0.00000
  1427    16.046  0.00000
  1428    16.047  0.00000
  1429    16.047  0.00000
  1430    16.053  0.00000
  1431    16.053  0.00000
  1432    16.053  0.00000
  1433    16.059  0.00000
  1434    16.059  0.00000
  1435    16.141  0.00000
  1436    16.144  0.00000
  1437    16.144  0.00000
  1438    16.144  0.00000
  1439    16.144  0.00000
  1440    16.146  0.00000
  1441    16.878  0.00000
  1442    16.878  0.00000
  1443    16.967  0.00000
  1444    16.967  0.00000
  1445    16.967  0.00000
  1446    16.967  0.00000
  1447    17.459  0.00000
  1448    17.459  0.00000
  1449    17.460  0.00000
  1450    17.460  0.00000
  1451    17.461  0.00000
  1452    17.461  0.00000
  1453    17.755  0.00000
  1454    17.756  0.00000
  1455    17.756  0.00000
  1456    17.759  0.00000
  1457    17.759  0.00000
  1458    17.761  0.00000
  1459    17.915  0.00000
  1460    17.915  0.00000
  1461    17.915  0.00000
  1462    17.920  0.00000
  1463    17.920  0.00000
  1464    17.920  0.00000
  1465    18.126  0.00000
  1466    18.126  0.00000
  1467    18.126  0.00000
  1468    18.128  0.00000
  1469    18.128  0.00000
  1470    18.129  0.00000
  1471    18.426  0.00000
  1472    18.426  0.00000
  1473    18.426  0.00000
  1474    18.427  0.00000
  1475    18.427  0.00000
  1476    18.427  0.00000
  1477    19.318  0.00000
  1478    19.319  0.00000
  1479    19.332  0.00000
  1480    19.332  0.00000
  1481    19.332  0.00000
  1482    19.332  0.00000
  1483    19.728  0.00000
  1484    19.728  0.00000
  1485    19.728  0.00000
  1486    19.729  0.00000
  1487    19.729  0.00000
  1488    19.730  0.00000
  1489    19.858  0.00000
  1490    19.859  0.00000
  1491    19.859  0.00000
  1492    19.860  0.00000
  1493    19.860  0.00000
  1494    19.861  0.00000
  1495    20.332  0.00000
  1496    20.332  0.00000
  1497    20.333  0.00000
  1498    20.333  0.00000
  1499    20.436  0.00000
  1500    20.436  0.00000
  1501    20.436  0.00000
  1502    20.437  0.00000
  1503    20.437  0.00000
  1504    20.438  0.00000
  1505    20.732  0.00000
  1506    20.734  0.00000
  1507    20.734  0.00000
  1508    20.737  0.00000
  1509    20.738  0.00000
  1510    20.739  0.00000
  1511    20.771  0.00000
  1512    20.771  0.00000
  1513    20.928  0.00000
  1514    20.928  0.00000
  1515    20.928  0.00000
  1516    20.928  0.00000
  1517    21.357  0.00000
  1518    21.357  0.00000
  1519    21.541  0.00000
  1520    21.542  0.00000
  1521    21.542  0.00000
  1522    21.544  0.00000
  1523    21.544  0.00000
  1524    21.545  0.00000
  1525    21.953  0.00000
  1526    21.954  0.00000
  1527    21.954  0.00000
  1528    21.954  0.00000
  1529    21.954  0.00000
  1530    21.954  0.00000
  1531    21.977  0.00000
  1532    21.978  0.00000
  1533    21.978  0.00000
  1534    21.978  0.00000
  1535    22.102  0.00000
  1536    22.102  0.00000
  1537    22.102  0.00000
  1538    22.102  0.00000
  1539    22.102  0.00000
  1540    22.102  0.00000
  1541    22.354  0.00000
  1542    22.354  0.00000
  1543    22.354  0.00000
  1544    22.354  0.00000
  1545    22.354  0.00000
  1546    22.354  0.00000
  1547    22.515  0.00000
  1548    22.515  0.00000
  1549    22.515  0.00000
  1550    22.515  0.00000
  1551    22.672  0.00000
  1552    22.673  0.00000
  1553    22.847  0.00000
  1554    22.847  0.00000
  1555    22.847  0.00000
  1556    22.859  0.00000
  1557    22.859  0.00000
  1558    22.860  0.00000
  1559    23.029  0.00000
  1560    23.030  0.00000
  1561    23.105  0.00000
  1562    23.105  0.00000
  1563    23.105  0.00000
  1564    23.106  0.00000
  1565    23.125  0.00000
  1566    23.126  0.00000
  1567    23.126  0.00000
  1568    23.126  0.00000
  1569    23.126  0.00000
  1570    23.127  0.00000
  1571    23.192  0.00000
  1572    23.192  0.00000
  1573    23.192  0.00000
  1574    23.192  0.00000
  1575    23.193  0.00000
  1576    23.194  0.00000
  1577    23.222  0.00000
  1578    23.222  0.00000
  1579    23.242  0.00000
  1580    23.243  0.00000
  1581    23.243  0.00000
  1582    23.243  0.00000
  1583    23.608  0.00000
  1584    23.608  0.00000
  1585    23.608  0.00000
  1586    23.609  0.00000
  1587    23.609  0.00000
  1588    23.609  0.00000
  1589    23.699  0.00000
  1590    23.699  0.00000
  1591    23.699  0.00000
  1592    23.699  0.00000
  1593    23.699  0.00000
  1594    23.699  0.00000
  1595    24.062  0.00000
  1596    24.062  0.00000
  1597    24.063  0.00000
  1598    24.076  0.00000
  1599    24.076  0.00000
  1600    24.076  0.00000
  1601    24.358  0.00000
  1602    24.358  0.00000
  1603    24.358  0.00000
  1604    24.358  0.00000
  1605    24.358  0.00000
  1606    24.359  0.00000
  1607    24.561  0.00000
  1608    24.561  0.00000
  1609    24.561  0.00000
  1610    24.562  0.00000
  1611    24.562  0.00000
  1612    24.562  0.00000
  1613    24.695  0.00000
  1614    24.695  0.00000
  1615    24.695  0.00000
  1616    24.695  0.00000
  1617    24.702  0.00000
  1618    24.703  0.00000
  1619    24.703  0.00000
  1620    24.703  0.00000
  1621    24.703  0.00000
  1622    24.703  0.00000
  1623    24.768  0.00000
  1624    24.768  0.00000
  1625    24.768  0.00000
  1626    24.768  0.00000
  1627    24.769  0.00000
  1628    24.769  0.00000
  1629    24.992  0.00000
  1630    24.993  0.00000
  1631    24.998  0.00000
  1632    24.999  0.00000
  1633    24.999  0.00000
  1634    24.999  0.00000
  1635    25.174  0.00000
  1636    25.174  0.00000
  1637    25.174  0.00000
  1638    25.197  0.00000
  1639    25.197  0.00000
  1640    25.197  0.00000
  1641    25.257  0.00000
  1642    25.258  0.00000
  1643    25.258  0.00000
  1644    25.262  0.00000
  1645    25.262  0.00000
  1646    25.263  0.00000
  1647    25.430  0.00000
  1648    25.430  0.00000
  1649    25.430  0.00000
  1650    25.434  0.00000
  1651    25.434  0.00000
  1652    25.434  0.00000
  1653    25.638  0.00000
  1654    25.638  0.00000
  1655    25.638  0.00000
  1656    25.639  0.00000
  1657    25.639  0.00000
  1658    25.639  0.00000
  1659    25.790  0.00000
  1660    25.790  0.00000
  1661    25.790  0.00000
  1662    25.790  0.00000
  1663    25.790  0.00000
  1664    25.790  0.00000
  1665    25.933  0.00000
  1666    25.934  0.00000
  1667    25.934  0.00000
  1668    25.934  0.00000
  1669    25.934  0.00000
  1670    25.935  0.00000
  1671    25.935  0.00000
  1672    25.935  0.00000
  1673    26.100  0.00000
  1674    26.100  0.00000
  1675    26.100  0.00000
  1676    26.100  0.00000
  1677    26.100  0.00000
  1678    26.100  0.00000
  1679    26.158  0.00000
  1680    26.158  0.00000
  1681    26.158  0.00000
  1682    26.158  0.00000
  1683    26.158  0.00000
  1684    26.159  0.00000
  1685    26.599  0.00000
  1686    26.599  0.00000
  1687    26.600  0.00000
  1688    26.600  0.00000
  1689    26.600  0.00000
  1690    26.600  0.00000
  1691    26.926  0.00000
  1692    26.926  0.00000
  1693    26.926  0.00000
  1694    26.926  0.00000
  1695    26.926  0.00000
  1696    26.926  0.00000
  1697    27.578  0.00000
  1698    27.578  0.00000
  1699    27.578  0.00000
  1700    27.578  0.00000
  1701    27.578  0.00000
  1702    27.578  0.00000
  1703    27.855  0.00000
  1704    27.855  0.00000
  1705    27.856  0.00000
  1706    27.856  0.00000
  1707    27.856  0.00000
  1708    27.856  0.00000
  1709    27.915  0.00000
  1710    27.915  0.00000
  1711    27.915  0.00000
  1712    27.946  0.00000
  1713    27.947  0.00000
  1714    27.947  0.00000
  1715    28.027  0.00000
  1716    28.027  0.00000
  1717    28.027  0.00000
  1718    28.053  0.00000
  1719    28.053  0.00000
  1720    28.053  0.00000
  1721    28.398  0.00000
  1722    28.398  0.00000
  1723    28.398  0.00000
  1724    28.398  0.00000
  1725    28.398  0.00000
  1726    28.398  0.00000
  1727    28.779  0.00000
  1728    28.780  0.00000
  1729    28.780  0.00000
  1730    28.781  0.00000
  1731    28.781  0.00000
  1732    28.781  0.00000
  1733    29.001  0.00000
  1734    29.001  0.00000
  1735    29.012  0.00000
  1736    29.012  0.00000
  1737    29.012  0.00000
  1738    29.012  0.00000
  1739    29.012  0.00000
  1740    29.012  0.00000
  1741    29.357  0.00000
  1742    29.357  0.00000
  1743    29.357  0.00000
  1744    29.357  0.00000
  1745    29.357  0.00000
  1746    29.357  0.00000
  1747    29.428  0.00000
  1748    29.428  0.00000
  1749    29.428  0.00000
  1750    29.436  0.00000
  1751    29.436  0.00000
  1752    29.436  0.00000
  1753    29.564  0.00000
  1754    29.564  0.00000
  1755    29.564  0.00000
  1756    29.564  0.00000
  1757    29.564  0.00000
  1758    29.565  0.00000
  1759    29.640  0.00000
  1760    29.640  0.00000
  1761    29.640  0.00000
  1762    29.640  0.00000
  1763    30.027  0.00000
  1764    30.027  0.00000
  1765    30.027  0.00000
  1766    30.028  0.00000
  1767    30.028  0.00000
  1768    30.028  0.00000
  1769    30.043  0.00000
  1770    30.043  0.00000
  1771    30.044  0.00000
  1772    30.044  0.00000
  1773    30.044  0.00000
  1774    30.044  0.00000
  1775    30.132  0.00000
  1776    30.132  0.00000
  1777    30.207  0.00000
  1778    30.207  0.00000
  1779    30.207  0.00000
  1780    30.208  0.00000
  1781    30.208  0.00000
  1782    30.208  0.00000
  1783    30.342  0.00000
  1784    30.343  0.00000
  1785    30.344  0.00000
  1786    30.346  0.00000
  1787    30.346  0.00000
  1788    30.347  0.00000
  1789    30.532  0.00000
  1790    30.533  0.00000
  1791    30.533  0.00000
  1792    30.535  0.00000
  1793    30.535  0.00000
  1794    30.536  0.00000
  1795    30.984  0.00000
  1796    30.984  0.00000
  1797    30.984  0.00000
  1798    30.984  0.00000
  1799    31.205  0.00000
  1800    31.205  0.00000
  1801    31.205  0.00000
  1802    31.205  0.00000
  1803    31.205  0.00000
  1804    31.206  0.00000
  1805    31.349  0.00000
  1806    31.349  0.00000
  1807    31.349  0.00000
  1808    31.349  0.00000
  1809    31.349  0.00000
  1810    31.349  0.00000
  1811    31.722  0.00000
  1812    31.722  0.00000
  1813    31.722  0.00000
  1814    31.723  0.00000
  1815    31.727  0.00000
  1816    31.727  0.00000
  1817    32.267  0.00000
  1818    32.267  0.00000
  1819    32.267  0.00000
  1820    32.267  0.00000
  1821    32.267  0.00000
  1822    32.268  0.00000
  1823    32.549  0.00000
  1824    32.549  0.00000
  1825    32.549  0.00000
  1826    32.549  0.00000
  1827    32.549  0.00000
  1828    32.549  0.00000
  1829    32.568  0.00000
  1830    32.568  0.00000
  1831    32.568  0.00000
  1832    32.568  0.00000
  1833    32.578  0.00000
  1834    32.578  0.00000
  1835    32.667  0.00000
  1836    32.667  0.00000
  1837    32.667  0.00000
  1838    32.667  0.00000
  1839    32.667  0.00000
  1840    32.667  0.00000
  1841    33.455  0.00000
  1842    33.455  0.00000
  1843    33.455  0.00000
  1844    33.455  0.00000
  1845    33.460  0.00000
  1846    33.460  0.00000
  1847    33.679  0.00000
  1848    33.679  0.00000
  1849    33.842  0.00000
  1850    33.842  0.00000
  1851    33.845  0.00000
  1852    33.845  0.00000
  1853    33.845  0.00000
  1854    33.845  0.00000
  1855    34.139  0.00000
  1856    34.139  0.00000
  1857    34.139  0.00000
  1858    34.139  0.00000
  1859    34.139  0.00000
  1860    34.139  0.00000
  1861    34.243  0.00000
  1862    34.243  0.00000
  1863    34.243  0.00000
  1864    34.285  0.00000
  1865    34.285  0.00000
  1866    34.285  0.00000
  1867    34.646  0.00000
  1868    34.646  0.00000
  1869    34.646  0.00000
  1870    34.691  0.00000
  1871    34.691  0.00000
  1872    34.691  0.00000
  1873    35.153  0.00000
  1874    35.153  0.00000
  1875    35.153  0.00000
  1876    35.154  0.00000
  1877    35.154  0.00000
  1878    35.154  0.00000
  1879    35.195  0.00000
  1880    35.195  0.00000
  1881    35.195  0.00000
  1882    35.196  0.00000
  1883    35.196  0.00000
  1884    35.196  0.00000
  1885    36.936  0.00000
  1886    36.936  0.00000
  1887    36.936  0.00000
  1888    36.938  0.00000
  1889    36.938  0.00000
  1890    36.938  0.00000
  1891    37.118  0.00000
  1892    37.118  0.00000
  1893    37.118  0.00000
  1894    37.118  0.00000
  1895    37.118  0.00000
  1896    37.118  0.00000
  1897    37.205  0.00000
  1898    37.205  0.00000
  1899    37.205  0.00000
  1900    37.205  0.00000
  1901    37.205  0.00000
  1902    37.205  0.00000
  1903    37.659  0.00000
  1904    37.659  0.00000
  1905    37.659  0.00000
  1906    37.659  0.00000
  1907    37.659  0.00000
  1908    37.659  0.00000
  1909    40.322  0.00000
  1910    40.322  0.00000
  1911    40.322  0.00000
  1912    40.322  0.00000
  1913    40.322  0.00000
  1914    40.322  0.00000
  1915    44.252  0.00000
  1916    44.252  0.00000
  1917    44.252  0.00000
  1918    44.253  0.00000
  1919    44.259  0.00000
  1920    44.259  0.00000
  1921    60.258  0.00000
  1922    60.258  0.00000
  1923    60.258  0.00000
  1924    60.258  0.00000
  1925    60.258  0.00000
  1926    60.258  0.00000
  1927    88.889  0.00000
  1928    88.889  0.00000
  1929    88.889  0.00000
  1930    88.889  0.00000
  1931    88.889  0.00000
  1932    88.890  0.00000
  1933   110.159  0.00000
  1934   110.159  0.00000
  1935   110.160  0.00000
  1936   110.161  0.00000
  1937   110.161  0.00000
  1938   110.161  0.00000
  1939   111.850  0.00000
  1940   111.850  0.00000
  1941   111.851  0.00000
  1942   111.852  0.00000
  1943   111.852  0.00000
  1944   111.852  0.00000
  1945   126.596  0.00000
  1946   126.596  0.00000
  1947   126.596  0.00000
  1948   126.596  0.00000
  1949   126.596  0.00000
  1950   126.596  0.00000
  1951   133.256  0.00000
  1952   133.256  0.00000
  1953   133.257  0.00000
  1954   133.257  0.00000
  1955   133.257  0.00000
  1956   133.258  0.00000
  1957   133.792  0.00000
  1958   133.792  0.00000
  1959   133.793  0.00000
  1960   133.793  0.00000
  1961   133.793  0.00000
  1962   133.794  0.00000
  1963   143.611  0.00000
  1964   143.611  0.00000
  1965   143.611  0.00000
  1966   143.611  0.00000
  1967   143.611  0.00000
  1968   143.611  0.00000

