-2.14071334940401E+04
-2.10562067958492E+04
-2.11296450109702E+04
-2.10889374905158E+04
-2.10619353544580E+04
-2.10602799301073E+04
-2.10144968995880E+04
-2.10167302445840E+04
-2.10500888784938E+04
-2.10857256688690E+04
-2.10380282440091E+04
-2.10737559137019E+04
-2.10535457935371E+04
-2.10242905152598E+04
-2.10291213860219E+04
-2.10319655321557E+04
-2.10527554642577E+04
-2.11141055945021E+04
-2.11288583754572E+04
-2.10518893084244E+04
-2.10956671789371E+04
-2.10568416561039E+04
-2.10746449662390E+04
-2.10444889493719E+04
-2.10338970749745E+04
-2.10311130684259E+04
-2.10566008208644E+04
-2.11215699203646E+04
-2.10259123406339E+04
-2.10477191111213E+04
-2.10728597873587E+04
-2.10202549281196E+04
-2.10935006908765E+04
-2.10602571284905E+04
-2.10508783584187E+04
-2.10615797972045E+04
-2.10318860827367E+04
-2.10508704113078E+04
-2.10726684989561E+04
-2.11280581375677E+04
-2.10373876406823E+04
-2.10932139157078E+04
-2.10705023256357E+04
-2.10160988755268E+04
-2.10872934833069E+04
-2.10533085674306E+04
-2.10275127114887E+04
-2.10495775120734E+04
-2.10935913333139E+04
-2.10564141363098E+04
-2.10762216924431E+04
-2.10672318220339E+04
-2.10258043151247E+04
-2.10121750117856E+04
-2.10646994046275E+04
-2.10705687783499E+04
-2.10384778262111E+04
-2.10440054039322E+04
-2.10811504814697E+04
-2.10717890076207E+04
-2.10862456753375E+04
-2.10512322552848E+04
-2.10518291595264E+04
-2.10922468685405E+04
-2.10751878400982E+04
-2.11167453034370E+04
-2.10547306780869E+04
-2.10402618001219E+04
-2.10357452804732E+04
-2.10628587196011E+04
-2.10844609140737E+04
-2.10504871493825E+04
-2.11195266986543E+04
-2.10178072500384E+04
-2.10738778075750E+04
-2.10750855967330E+04
-2.10472566425582E+04
-2.11094440958851E+04
-2.10676696479477E+04
-2.10503050229388E+04
-2.10660680626597E+04
-2.10615548263755E+04
-2.10736854233180E+04
-2.10510949978886E+04
-2.10466935369032E+04
-2.10356435925014E+04
-2.10579250677957E+04
-2.10578433005550E+04
-2.10297249668802E+04
-2.10339591277224E+04
-2.10410436969160E+04
-2.10544430162356E+04
-2.10480828715978E+04
-2.10517552223894E+04
-2.11089119351359E+04
-2.10351054903459E+04
-2.10245617794157E+04
-2.10701540425098E+04
-2.10414274558190E+04
-2.10678521078578E+04
-2.10496909519413E+04
-2.10501818905453E+04
-2.10369955856769E+04
-2.10529205564637E+04
-2.10540215917501E+04
-2.10660755686003E+04
-2.10275575605422E+04
-2.11447631911172E+04
-2.10735653380947E+04
-2.10675298644694E+04
-2.10359351931431E+04
-2.10295568344860E+04
-2.10266342252018E+04
-2.10916380635120E+04
-2.10760345416969E+04
-2.10216690993017E+04
-2.10320169374603E+04
-2.10584745218825E+04
-2.10941214897898E+04
-2.10471192761054E+04
-2.11200610812082E+04
-2.10572237575837E+04
-2.10182294688532E+04
-2.10178581465693E+04
-2.10236448386552E+04
-2.10687041464166E+04
-2.10624057495179E+04
-2.10203897474112E+04
-2.10016435307593E+04
-2.10650094886994E+04
-2.10937336156756E+04
-2.10952570884271E+04
-2.10898635580876E+04
-2.10816132871061E+04
-2.10849654079714E+04
-2.10755788804057E+04
-2.10736018872247E+04
-2.10670496310584E+04
-2.10362256972091E+04
-2.10577448816879E+04
-2.10762505014910E+04
-2.10490796484293E+04
-2.10646345048757E+04
-2.10755897236751E+04
-2.10363382918654E+04
-2.10644019760168E+04
-2.10624262683690E+04
-2.10535322419424E+04
-2.10669982842256E+04
-2.10904867220165E+04
-2.10582480839678E+04
-2.11050761438561E+04
-2.10791252321246E+04
-2.10595658158414E+04
-2.10656070977866E+04
-2.10771361099166E+04
-2.10611935005504E+04
-2.10767135038092E+04
-2.10381146286016E+04
-2.10638781702933E+04
-2.10741999703580E+04
-2.10648834894664E+04
-2.10217266340376E+04
-2.10784719300702E+04
-2.10593226103143E+04
-2.11104123466622E+04
-2.11122993182252E+04
-2.10726524712967E+04
-2.10447254357565E+04
-2.10362207855956E+04
-2.10481898671490E+04
-2.10650487138072E+04
-2.10471105854346E+04
-2.10832724297205E+04
-2.10719151200316E+04
-2.10925917417204E+04
-2.10695010192301E+04
-2.10750886636862E+04
-2.10794871346226E+04
-2.10623717211044E+04
-2.10738876244544E+04
-2.10728458275077E+04
-2.10663962555917E+04
-2.10676180876687E+04
-2.10322662352951E+04
-2.10189471300926E+04
-2.10668103861961E+04
-2.10073198508431E+04
-2.10378059183694E+04
-2.10671618053061E+04
-2.10390316993812E+04
-2.10635730693025E+04
-2.10667256272680E+04
-2.10754298727542E+04
-2.10727912056951E+04
-2.10558716934059E+04
-2.10419177204384E+04
-2.10423837503863E+04
-2.10802770499808E+04
-2.10516814410519E+04
-2.10557344536229E+04
-2.10799607960376E+04
-2.10219485779008E+04
-2.10576338793125E+04
-2.10958268539944E+04
-2.10636259891284E+04
-2.10755037428686E+04
-2.11061182416190E+04
-2.10313709915261E+04
-2.10441330099624E+04
-2.11113894557446E+04
-2.10608974983001E+04
-2.10647404811859E+04
-2.10410234061837E+04
-2.10802891035682E+04
-2.10532186455935E+04
-2.10695123270658E+04
-2.10646464191362E+04
-2.10940110258389E+04
-2.10420805907006E+04
-2.10630411385822E+04
-2.10721563444948E+04
-2.10579842586217E+04
-2.11191622972435E+04
-2.10478063683354E+04
-2.10749315100717E+04
-2.10737673459345E+04
-2.10367437561575E+04
-2.10197657518983E+04
-2.10923655913300E+04
-2.10944391197552E+04
-2.10824970103495E+04
-2.10970744487903E+04
-2.10577778456140E+04
-2.10717233069360E+04
-2.10456347999296E+04
-2.10430924831473E+04
-2.10393515881559E+04
-2.10834961331397E+04
-2.10425459813431E+04
-2.10409851648361E+04
-2.10308334184101E+04
-2.10586584441049E+04
-2.11013506205007E+04
-2.10667524252762E+04
-2.10372281400120E+04
-2.10620024034740E+04
-2.10653618334680E+04
-2.10843082355627E+04
-2.10924862027457E+04
-2.11327145100595E+04
-2.10893919842779E+04
-2.10399670579508E+04
-2.10575227965409E+04
-2.10932615971893E+04
-2.10500422819439E+04
-2.10652402303543E+04
-2.10999323216173E+04
-2.10712308521167E+04
-2.10370999399696E+04
-2.10325273771748E+04
-2.10833472186631E+04
-2.10502204109368E+04
-2.10375858983315E+04
-2.10157567901272E+04
-2.10731380341813E+04
-2.10752077276216E+04
-2.10261176435396E+04
-2.10877564218087E+04
-2.10473358088447E+04
-2.10940328150468E+04
-2.10696494266892E+04
-2.10186968892155E+04
-2.10774704236334E+04
-2.10667195741328E+04
-2.10815182194113E+04
-2.10726969457610E+04
-2.11127380697001E+04
-2.10061120301093E+04
-2.10420679028680E+04
-2.10411536540709E+04
-2.10439533096322E+04
-2.10844387934875E+04
-2.10242836854878E+04
-2.11097157565127E+04
-2.10596496702153E+04
-2.10838194702200E+04
-2.10793210128597E+04
-2.10173140373383E+04
-2.10808877211442E+04
-2.11035614105194E+04
-2.10710899249446E+04
-2.10609373638560E+04
-2.10786935207265E+04
-2.10558275459230E+04
-2.10146634727817E+04
-2.10676302818208E+04
-2.10918598313060E+04
-2.10730303890212E+04
-2.10823761255021E+04
-2.10691561615081E+04
-2.11167008895942E+04
-2.10948294306497E+04
-2.10729890719958E+04
-2.10557477301032E+04
-2.10439047956342E+04
-2.10474000038543E+04
-2.10342073424348E+04
-2.10524757832799E+04
-2.10338358341159E+04
-2.10753257911347E+04
-2.10993833642375E+04
-2.10791091869880E+04
-2.10704549462079E+04
-2.10660964095073E+04
-2.10758700987977E+04
-2.10720142092627E+04
-2.10797929421934E+04
-2.10817010655819E+04
-2.10402603227774E+04
-2.10163488820609E+04
-2.10381354535819E+04
-2.10410969031394E+04
-2.10709815960909E+04
-2.10341604484739E+04
-2.10718583616980E+04
-2.10176782850304E+04
-2.11039379377943E+04
-2.10758528483441E+04
-2.10623033854420E+04
-2.10831705569577E+04
-2.10475677184596E+04
-2.10911583479222E+04
-2.10478331013797E+04
-2.10812348468308E+04
-2.11097469995742E+04
-2.10726229955977E+04
-2.10948911262615E+04
-2.10602632442953E+04
-2.11204224696666E+04
-2.11357793661572E+04
-2.10754094078167E+04
-2.10843077592473E+04
-2.10681127904096E+04
-2.10829442448865E+04
-2.10644342253957E+04
-2.10445996316589E+04
-2.10786619395752E+04
-2.10964574189551E+04
-2.10786151771421E+04
-2.10368815947668E+04
-2.10432489636403E+04
-2.10649256861191E+04
-2.10533863394512E+04
-2.10728713104233E+04
-2.10170622798154E+04
-2.10395785240918E+04
-2.10462324709934E+04
-2.10290975636711E+04
-2.10241947924881E+04
-2.10721882698389E+04
-2.10792040904973E+04
-2.10597855828818E+04
-2.10630040874937E+04
-2.10599330800817E+04
-2.10897665833245E+04
-2.10634955312168E+04
-2.10256115630125E+04
-2.11449468689716E+04
-2.10548009559944E+04
-2.10185116982337E+04
-2.10762199491555E+04
-2.10472101867946E+04
-2.10789115387552E+04
-2.10151004414398E+04
-2.10242036922401E+04
-2.10568823356502E+04
-2.10193786499575E+04
-2.10777001912386E+04
-2.10647304943806E+04
-2.10741147857258E+04
-2.11058207940839E+04
-2.11000532019324E+04
-2.10735352822503E+04
-2.10273511038144E+04
-2.10521441954386E+04
-2.10828536071686E+04
-2.10696366252095E+04
-2.10157941202504E+04
-2.10856263431148E+04
-2.10734012600059E+04
-2.10915563505863E+04
-2.10253776946200E+04
-2.10436806813455E+04
-2.10531291876760E+04
-2.10155797618928E+04
-2.10723899924535E+04
-2.10513190655583E+04
-2.10532734529927E+04
-2.10845846535300E+04
-2.10269839984474E+04
-2.10475091326286E+04
-2.10317867918723E+04
-2.10956678570105E+04
-2.10801111901114E+04
-2.10319832996746E+04
-2.10361013544583E+04
-2.10638451848647E+04
-2.10774287854199E+04
-2.10571591162595E+04
-2.10600774850077E+04
-2.10891962467978E+04
-2.10902250190167E+04
-2.10481723802835E+04
-2.10700955375653E+04
-2.10207073657428E+04
-2.10425746824958E+04
-2.10379449297567E+04
-2.10773200797064E+04
-2.10415437009911E+04
-2.10309765361561E+04
-2.10401396945687E+04
-2.10844608025067E+04
-2.10388628605453E+04
-2.10946624347415E+04
-2.11095071108091E+04
-2.10582615920961E+04
-2.11031431542235E+04
-2.10866819592923E+04
-2.10453891953224E+04
-2.10485775921417E+04
-2.10347970624944E+04
-2.10270494577569E+04
-2.10899029416909E+04
-2.10535215083443E+04
-2.10453072272781E+04
-2.10588764720477E+04
-2.10671875968283E+04
-2.10286744479068E+04
-2.10627840199829E+04
-2.10742132930142E+04
-2.10802038038680E+04
-2.10181231338846E+04
-2.10730987931369E+04
-2.10645579622064E+04
-2.10888014760575E+04
-2.10457723329640E+04
-2.10999530681889E+04
-2.10295518110230E+04
-2.10722083908249E+04
-2.10650546931483E+04
-2.10461552251360E+04
-2.10820784975701E+04
-2.10496801674830E+04
-2.10578121806591E+04
-2.11259848899605E+04
-2.11032593392654E+04
-2.10483810318426E+04
-2.10748026407546E+04
-2.10804495053816E+04
-2.11420273516020E+04
-2.10760219560640E+04
-2.10479597031418E+04
-2.10431026831656E+04
-2.10530447401303E+04
-2.10658654163377E+04
-2.10945353209777E+04
-2.10335816487311E+04
-2.11002783820844E+04
-2.11086018851447E+04
-2.10466010291867E+04
-2.10874937645120E+04
-2.10871222159350E+04
-2.11078338675282E+04
-2.10535186784589E+04
-2.10360665885769E+04
-2.10571340163072E+04
-2.10689931136754E+04
-2.10816729080812E+04
-2.10696665750342E+04
