 KPT            1  SPIN            1  KWEIGHT    1.0000000000000000     
     1   -26.015  2.00000
     2   -25.851  2.00000
     3   -25.848  2.00000
     4   -25.846  2.00000
     5   -25.690  2.00000
     6   -25.635  2.00000
     7   -25.616  2.00000
     8   -25.603  2.00000
     9   -25.589  2.00000
    10   -25.569  2.00000
    11   -25.566  2.00000
    12   -25.559  2.00000
    13   -25.559  2.00000
    14   -25.533  2.00000
    15   -25.529  2.00000
    16   -25.506  2.00000
    17   -25.505  2.00000
    18   -25.499  2.00000
    19   -25.455  2.00000
    20   -25.454  2.00000
    21   -25.442  2.00000
    22   -25.430  2.00000
    23   -25.428  2.00000
    24   -25.427  2.00000
    25   -25.423  2.00000
    26   -25.423  2.00000
    27   -25.414  2.00000
    28   -25.295  2.00000
    29   -25.168  2.00000
    30   -25.162  2.00000
    31   -25.152  2.00000
    32   -25.136  2.00000
    33   -25.134  2.00000
    34   -25.128  2.00000
    35   -25.111  2.00000
    36   -25.104  2.00000
    37   -25.098  2.00000
    38   -25.094  2.00000
    39   -25.089  2.00000
    40   -25.073  2.00000
    41   -25.072  2.00000
    42   -25.048  2.00000
    43   -25.019  2.00000
    44   -25.001  2.00000
    45   -24.988  2.00000
    46   -24.975  2.00000
    47   -24.950  2.00000
    48   -24.949  2.00000
    49   -24.948  2.00000
    50   -24.939  2.00000
    51   -24.933  2.00000
    52   -24.930  2.00000
    53   -24.928  2.00000
    54   -24.927  2.00000
    55   -24.924  2.00000
    56   -24.912  2.00000
    57   -24.910  2.00000
    58   -24.903  2.00000
    59   -24.895  2.00000
    60   -24.894  2.00000
    61   -24.893  2.00000
    62   -24.876  2.00000
    63   -24.870  2.00000
    64   -24.869  2.00000
    65   -24.869  2.00000
    66   -24.868  2.00000
    67   -24.868  2.00000
    68   -24.849  2.00000
    69   -24.836  2.00000
    70   -24.834  2.00000
    71   -24.823  2.00000
    72   -24.813  2.00000
    73   -24.812  2.00000
    74   -24.809  2.00000
    75   -24.806  2.00000
    76   -24.804  2.00000
    77   -24.802  2.00000
    78   -24.801  2.00000
    79   -24.795  2.00000
    80   -24.793  2.00000
    81   -24.773  2.00000
    82   -24.764  2.00000
    83   -24.750  2.00000
    84   -24.728  2.00000
    85   -24.724  2.00000
    86   -24.723  2.00000
    87   -24.705  2.00000
    88   -24.704  2.00000
    89   -24.694  2.00000
    90   -24.692  2.00000
    91   -24.674  2.00000
    92   -24.667  2.00000
    93   -24.662  2.00000
    94   -24.649  2.00000
    95   -24.629  2.00000
    96   -24.586  2.00000
    97   -23.630  2.00000
    98   -23.628  2.00000
    99   -23.615  2.00000
   100   -23.583  2.00000
   101   -23.557  2.00000
   102   -23.538  2.00000
   103   -23.532  2.00000
   104   -23.510  2.00000
   105   -23.503  2.00000
   106   -23.498  2.00000
   107   -23.496  2.00000
   108   -23.485  2.00000
   109   -23.484  2.00000
   110   -23.472  2.00000
   111   -23.469  2.00000
   112   -23.453  2.00000
   113   -23.451  2.00000
   114   -23.444  2.00000
   115   -23.442  2.00000
   116   -23.439  2.00000
   117   -23.437  2.00000
   118   -23.428  2.00000
   119   -23.418  2.00000
   120   -23.412  2.00000
   121   -23.406  2.00000
   122   -23.395  2.00000
   123   -23.395  2.00000
   124   -23.393  2.00000
   125   -23.369  2.00000
   126   -23.366  2.00000
   127   -23.366  2.00000
   128   -23.360  2.00000
   129   -23.349  2.00000
   130   -23.344  2.00000
   131   -23.342  2.00000
   132   -23.340  2.00000
   133   -23.335  2.00000
   134   -23.329  2.00000
   135   -23.323  2.00000
   136   -23.318  2.00000
   137   -23.293  2.00000
   138   -23.293  2.00000
   139   -23.282  2.00000
   140   -23.272  2.00000
   141   -23.240  2.00000
   142   -23.236  2.00000
   143   -23.217  2.00000
   144   -23.197  2.00000
   145   -22.511  2.00000
   146   -22.448  2.00000
   147   -22.416  2.00000
   148   -22.406  2.00000
   149   -22.405  2.00000
   150   -22.399  2.00000
   151   -22.394  2.00000
   152   -22.371  2.00000
   153   -20.010  2.00000
   154   -19.986  2.00000
   155   -19.887  2.00000
   156   -19.874  2.00000
   157   -19.798  2.00000
   158   -19.746  2.00000
   159   -19.740  2.00000
   160   -19.736  2.00000
   161   -19.736  2.00000
   162   -19.728  2.00000
   163   -19.719  2.00000
   164   -19.718  2.00000
   165   -19.715  2.00000
   166   -19.714  2.00000
   167   -19.569  2.00000
   168   -19.459  2.00000
   169   -19.417  2.00000
   170   -19.415  2.00000
   171   -19.414  2.00000
   172   -19.381  2.00000
   173   -19.369  2.00000
   174   -19.368  2.00000
   175   -19.346  2.00000
   176   -19.306  2.00000
   177   -19.022  2.00000
   178   -18.688  2.00000
   179   -18.637  2.00000
   180   -18.606  2.00000
   181   -18.561  2.00000
   182   -18.538  2.00000
   183   -18.536  2.00000
   184   -18.526  2.00000
   185   -18.518  2.00000
   186   -18.500  2.00000
   187   -18.497  2.00000
   188   -18.493  2.00000
   189   -18.483  2.00000
   190   -18.320  2.00000
   191   -18.283  2.00000
   192   -18.272  2.00000
   193   -18.264  2.00000
   194   -18.252  2.00000
   195   -18.245  2.00000
   196   -18.243  2.00000
   197   -18.234  2.00000
   198   -18.224  2.00000
   199   -18.215  2.00000
   200   -18.210  2.00000
   201   -18.208  2.00000
   202   -18.206  2.00000
   203   -18.202  2.00000
   204   -18.192  2.00000
   205   -18.183  2.00000
   206   -18.179  2.00000
   207   -18.121  2.00000
   208   -18.113  2.00000
   209   -18.105  2.00000
   210   -18.072  2.00000
   211   -18.059  2.00000
   212   -18.046  2.00000
   213   -18.038  2.00000
   214   -18.033  2.00000
   215   -18.012  2.00000
   216   -18.011  2.00000
   217   -18.006  2.00000
   218   -17.982  2.00000
   219   -17.963  2.00000
   220   -17.932  2.00000
   221   -17.923  2.00000
   222   -17.921  2.00000
   223   -17.911  2.00000
   224   -17.886  2.00000
   225   -17.885  2.00000
   226   -17.881  2.00000
   227   -17.875  2.00000
   228   -17.869  2.00000
   229   -17.863  2.00000
   230   -17.862  2.00000
   231   -17.859  2.00000
   232   -17.858  2.00000
   233   -17.856  2.00000
   234   -17.817  2.00000
   235   -17.809  2.00000
   236   -17.796  2.00000
   237   -17.777  2.00000
   238   -17.758  2.00000
   239   -17.686  2.00000
   240   -17.660  2.00000
   241   -17.638  2.00000
   242   -17.629  2.00000
   243   -17.622  2.00000
   244   -17.617  2.00000
   245   -17.588  2.00000
   246   -17.585  2.00000
   247   -17.565  2.00000
   248   -17.548  2.00000
   249   -17.542  2.00000
   250   -17.534  2.00000
   251   -17.511  2.00000
   252   -17.507  2.00000
   253   -17.505  2.00000
   254   -17.501  2.00000
   255   -17.493  2.00000
   256   -17.490  2.00000
   257   -17.487  2.00000
   258   -17.482  2.00000
   259   -17.475  2.00000
   260   -17.406  2.00000
   261   -17.347  2.00000
   262   -17.252  2.00000
   263   -17.119  2.00000
   264   -17.082  2.00000
   265   -17.080  2.00000
   266   -17.056  2.00000
   267   -17.039  2.00000
   268   -17.035  2.00000
   269   -17.035  2.00000
   270   -17.022  2.00000
   271   -17.005  2.00000
   272   -17.005  2.00000
   273   -17.000  2.00000
   274   -16.988  2.00000
   275   -16.983  2.00000
   276   -16.982  2.00000
   277   -16.978  2.00000
   278   -16.975  2.00000
   279   -16.972  2.00000
   280   -16.969  2.00000
   281   -16.964  2.00000
   282   -16.953  2.00000
   283   -16.949  2.00000
   284   -16.930  2.00000
   285   -16.870  2.00000
   286   -16.762  2.00000
   287   -16.732  2.00000
   288   -16.716  2.00000
   289   -16.688  2.00000
   290   -16.660  2.00000
   291   -16.654  2.00000
   292   -16.631  2.00000
   293   -16.626  2.00000
   294   -16.604  2.00000
   295   -16.583  2.00000
   296   -16.576  2.00000
   297   -16.457  2.00000
   298   -16.438  2.00000
   299   -16.421  2.00000
   300   -16.414  2.00000
   301   -16.413  2.00000
   302   -16.407  2.00000
   303   -16.396  2.00000
   304   -16.393  2.00000
   305   -16.381  2.00000
   306   -16.377  2.00000
   307   -16.349  2.00000
   308   -16.263  2.00000
   309   -16.237  2.00000
   310   -16.191  2.00000
   311   -16.187  2.00000
   312   -16.186  2.00000
   313   -16.176  2.00000
   314   -16.153  2.00000
   315   -16.141  2.00000
   316   -16.140  2.00000
   317   -16.136  2.00000
   318   -16.106  2.00000
   319   -16.096  2.00000
   320   -15.943  2.00000
   321   -15.768  2.00000
   322   -15.684  2.00000
   323   -15.673  2.00000
   324   -15.670  2.00000
   325   -15.663  2.00000
   326   -15.660  2.00000
   327   -15.656  2.00000
   328   -15.618  2.00000
   329   -15.609  2.00000
   330   -15.604  2.00000
   331   -15.599  2.00000
   332   -15.594  2.00000
   333   -15.580  2.00000
   334   -15.495  2.00000
   335   -15.487  2.00000
   336   -15.449  2.00000
   337   -15.391  2.00000
   338   -15.385  2.00000
   339   -15.296  2.00000
   340   -15.286  2.00000
   341   -15.271  2.00000
   342   -15.259  2.00000
   343   -15.256  2.00000
   344   -15.252  2.00000
   345   -15.245  2.00000
   346   -15.242  2.00000
   347   -15.234  2.00000
   348   -15.201  2.00000
   349   -15.175  2.00000
   350   -15.168  2.00000
   351   -15.152  2.00000
   352   -15.110  2.00000
   353   -15.099  2.00000
   354   -15.090  2.00000
   355   -15.077  2.00000
   356   -15.073  2.00000
   357   -15.069  2.00000
   358   -15.067  2.00000
   359   -15.063  2.00000
   360   -15.058  2.00000
   361   -15.047  2.00000
   362   -15.037  2.00000
   363   -15.035  2.00000
   364   -15.034  2.00000
   365   -15.028  2.00000
   366   -15.010  2.00000
   367   -15.007  2.00000
   368   -14.998  2.00000
   369   -14.997  2.00000
   370   -14.992  2.00000
   371   -14.986  2.00000
   372   -14.982  2.00000
   373   -14.979  2.00000
   374   -14.964  2.00000
   375   -14.962  2.00000
   376   -14.947  2.00000
   377   -14.945  2.00000
   378   -14.940  2.00000
   379   -14.859  2.00000
   380   -14.829  2.00000
   381   -14.810  2.00000
   382   -14.797  2.00000
   383   -14.783  2.00000
   384   -14.768  2.00000
   385   -14.744  2.00000
   386   -14.710  2.00000
   387   -14.699  2.00000
   388   -14.697  2.00000
   389   -14.681  2.00000
   390   -14.672  2.00000
   391   -14.633  2.00000
   392   -14.549  2.00000
   393   -14.199  2.00000
   394   -14.165  2.00000
   395   -14.139  2.00000
   396   -14.092  2.00000
   397   -14.080  2.00000
   398   -14.077  2.00000
   399   -14.075  2.00000
   400   -14.070  2.00000
   401   -14.051  2.00000
   402   -14.043  2.00000
   403   -14.038  2.00000
   404   -14.038  2.00000
   405   -14.035  2.00000
   406   -13.920  2.00000
   407   -13.852  2.00000
   408   -13.824  2.00000
   409   -13.804  2.00000
   410   -13.800  2.00000
   411   -13.790  2.00000
   412   -13.782  2.00000
   413   -13.760  2.00000
   414   -13.744  2.00000
   415   -13.731  2.00000
   416   -13.720  2.00000
   417   -13.717  2.00000
   418   -13.715  2.00000
   419   -13.701  2.00000
   420   -13.694  2.00000
   421   -13.693  2.00000
   422   -13.690  2.00000
   423   -13.682  2.00000
   424   -13.671  2.00000
   425   -13.669  2.00000
   426   -13.666  2.00000
   427   -13.663  2.00000
   428   -13.660  2.00000
   429   -13.658  2.00000
   430   -13.652  2.00000
   431   -13.648  2.00000
   432   -13.635  2.00000
   433   -13.620  2.00000
   434   -13.610  2.00000
   435   -13.602  2.00000
   436   -13.594  2.00000
   437   -13.589  2.00000
   438   -13.580  2.00000
   439   -13.574  2.00000
   440   -13.560  2.00000
   441   -13.546  2.00000
   442   -13.532  2.00000
   443   -13.501  2.00000
   444   -13.489  2.00000
   445   -13.454  2.00000
   446   -13.441  2.00000
   447   -13.436  2.00000
   448   -13.434  2.00000
   449   -13.429  2.00000
   450   -13.424  2.00000
   451   -13.419  2.00000
   452   -13.411  2.00000
   453   -13.410  2.00000
   454   -13.395  2.00000
   455   -13.372  2.00000
   456   -13.351  2.00000
   457   -13.298  2.00000
   458   -13.274  2.00000
   459   -13.269  2.00000
   460   -13.259  2.00000
   461   -13.239  2.00000
   462   -13.232  2.00000
   463   -13.230  2.00000
   464   -13.229  2.00000
   465   -13.226  2.00000
   466   -13.220  2.00000
   467   -13.215  2.00000
   468   -13.213  2.00000
   469   -13.213  2.00000
   470   -13.185  2.00000
   471   -13.172  2.00000
   472   -13.167  2.00000
   473   -13.145  2.00000
   474   -13.133  2.00000
   475   -13.130  2.00000
   476   -13.123  2.00000
   477   -13.119  2.00000
   478   -13.116  2.00000
   479   -13.108  2.00000
   480   -13.103  2.00000
   481   -13.090  2.00000
   482   -13.077  2.00000
   483   -13.076  2.00000
   484   -13.066  2.00000
   485   -13.058  2.00000
   486   -13.051  2.00000
   487   -13.046  2.00000
   488   -13.043  2.00000
   489   -13.040  2.00000
   490   -13.025  2.00000
   491   -13.017  2.00000
   492   -13.003  2.00000
   493   -13.002  2.00000
   494   -12.989  2.00000
   495   -12.983  2.00000
   496   -12.973  2.00000
   497   -12.944  2.00000
   498   -12.940  2.00000
   499   -12.939  2.00000
   500   -12.937  2.00000
   501   -12.919  2.00000
   502   -12.917  2.00000
   503   -12.899  2.00000
   504   -12.898  2.00000
   505   -12.891  2.00000
   506   -12.890  2.00000
   507   -12.887  2.00000
   508   -12.883  2.00000
   509   -12.881  2.00000
   510   -12.875  2.00000
   511   -12.870  2.00000
   512   -12.867  2.00000
   513   -12.863  2.00000
   514   -12.858  2.00000
   515   -12.853  2.00000
   516   -12.834  2.00000
   517   -12.822  2.00000
   518   -12.807  2.00000
   519   -12.804  2.00000
   520   -12.791  2.00000
   521   -12.775  2.00000
   522   -12.698  2.00000
   523   -12.662  2.00000
   524   -12.637  2.00000
   525   -12.621  2.00000
   526   -12.617  2.00000
   527   -12.570  2.00000
   528   -12.568  2.00000
   529   -12.538  2.00000
   530   -12.519  2.00000
   531   -12.485  2.00000
   532   -12.424  2.00000
   533   -12.332  2.00000
   534   -12.330  2.00000
   535   -12.289  2.00000
   536   -12.267  2.00000
   537   -12.250  2.00000
   538   -12.238  2.00000
   539   -12.218  2.00000
   540   -12.178  2.00000
   541   -12.156  2.00000
   542   -12.154  2.00000
   543   -12.145  2.00000
   544   -12.135  2.00000
   545   -12.128  2.00000
   546   -12.125  2.00000
   547   -12.117  2.00000
   548   -12.114  2.00000
   549   -12.111  2.00000
   550   -12.105  2.00000
   551   -12.042  2.00000
   552   -12.032  2.00000
   553   -12.023  2.00000
   554   -12.023  2.00000
   555   -12.015  2.00000
   556   -12.013  2.00000
   557   -12.010  2.00000
   558   -12.007  2.00000
   559   -12.006  2.00000
   560   -11.992  2.00000
   561   -11.992  2.00000
   562   -11.991  2.00000
   563   -11.989  2.00000
   564   -11.974  2.00000
   565   -11.970  2.00000
   566   -11.968  2.00000
   567   -11.951  2.00000
   568   -11.934  2.00000
   569   -11.932  2.00000
   570   -11.927  2.00000
   571   -11.921  2.00000
   572   -11.916  2.00000
   573   -11.913  2.00000
   574   -11.908  2.00000
   575   -11.906  2.00000
   576   -11.902  2.00000
   577   -11.900  2.00000
   578   -11.900  2.00000
   579   -11.891  2.00000
   580   -11.889  2.00000
   581   -11.883  2.00000
   582   -11.879  2.00000
   583   -11.870  2.00000
   584   -11.860  2.00000
   585   -11.853  2.00000
   586   -11.851  2.00000
   587   -11.849  2.00000
   588   -11.846  2.00000
   589   -11.844  2.00000
   590   -11.841  2.00000
   591   -11.839  2.00000
   592   -11.833  2.00000
   593   -11.823  2.00000
   594   -11.821  2.00000
   595   -11.816  2.00000
   596   -11.813  2.00000
   597   -11.811  2.00000
   598   -11.807  2.00000
   599   -11.802  2.00000
   600   -11.788  2.00000
   601   -11.766  2.00000
   602   -11.762  2.00000
   603   -11.746  2.00000
   604   -11.743  2.00000
   605   -11.739  2.00000
   606   -11.728  2.00000
   607   -11.718  2.00000
   608   -11.713  2.00000
   609   -11.711  2.00000
   610   -11.700  2.00000
   611   -11.696  2.00000
   612   -11.694  2.00000
   613   -11.689  2.00000
   614   -11.686  2.00000
   615   -11.681  2.00000
   616   -11.679  2.00000
   617   -11.674  2.00000
   618   -11.660  2.00000
   619   -11.659  2.00000
   620   -11.655  2.00000
   621   -11.650  2.00000
   622   -11.647  2.00000
   623   -11.647  2.00000
   624   -11.645  2.00000
   625   -11.644  2.00000
   626   -11.635  2.00000
   627   -11.625  2.00000
   628   -11.619  2.00000
   629   -11.615  2.00000
   630   -11.613  2.00000
   631   -11.599  2.00000
   632   -11.591  2.00000
   633   -11.589  2.00000
   634   -11.589  2.00000
   635   -11.579  2.00000
   636   -11.577  2.00000
   637   -11.566  2.00000
   638   -11.565  2.00000
   639   -11.563  2.00000
   640   -11.555  2.00000
   641   -11.544  2.00000
   642   -11.537  2.00000
   643   -11.536  2.00000
   644   -11.526  2.00000
   645   -11.521  2.00000
   646   -11.516  2.00000
   647   -11.514  2.00000
   648   -11.483  2.00000
   649   -11.470  2.00000
   650   -11.469  2.00000
   651   -11.446  2.00000
   652   -11.443  2.00000
   653   -11.440  2.00000
   654   -11.431  2.00000
   655   -11.407  2.00000
   656   -11.395  2.00000
   657   -11.392  2.00000
   658   -11.390  2.00000
   659   -11.388  2.00000
   660   -11.385  2.00000
   661   -11.370  2.00000
   662   -11.363  2.00000
   663   -11.362  2.00000
   664   -11.362  2.00000
   665   -11.360  2.00000
   666   -11.358  2.00000
   667   -11.353  2.00000
   668   -11.343  2.00000
   669   -11.337  2.00000
   670   -11.331  2.00000
   671   -11.320  2.00000
   672   -11.318  2.00000
   673   -11.314  2.00000
   674   -11.311  2.00000
   675   -11.300  2.00000
   676   -11.296  2.00000
   677   -11.289  2.00000
   678   -11.284  2.00000
   679   -11.229  2.00000
   680   -11.217  2.00000
   681   -11.200  2.00000
   682   -11.179  2.00000
   683   -11.159  2.00000
   684   -11.145  2.00000
   685   -11.124  2.00000
   686   -11.117  2.00000
   687   -11.103  2.00000
   688   -11.092  2.00000
   689   -11.085  2.00000
   690   -11.076  2.00000
   691   -11.068  2.00000
   692   -11.062  2.00000
   693   -11.055  2.00000
   694   -11.053  2.00000
   695   -11.050  2.00000
   696   -11.046  2.00000
   697   -11.043  2.00000
   698   -11.037  2.00000
   699   -11.028  2.00000
   700   -11.022  2.00000
   701   -11.018  2.00000
   702   -11.013  2.00000
   703   -11.011  2.00000
   704   -11.005  2.00000
   705   -11.003  2.00000
   706   -10.989  2.00000
   707   -10.973  2.00000
   708   -10.953  2.00000
   709   -10.937  2.00000
   710   -10.925  2.00000
   711   -10.915  2.00000
   712   -10.910  2.00000
   713   -10.900  2.00000
   714   -10.894  2.00000
   715   -10.887  2.00000
   716   -10.881  2.00000
   717   -10.877  2.00000
   718   -10.871  2.00000
   719   -10.853  2.00000
   720   -10.843  2.00000
   721   -10.836  2.00000
   722   -10.822  2.00000
   723   -10.820  2.00000
   724   -10.819  2.00000
   725   -10.807  2.00000
   726   -10.801  2.00000
   727   -10.796  2.00000
   728   -10.792  2.00000
   729   -10.790  2.00000
   730   -10.784  2.00000
   731   -10.783  2.00000
   732   -10.782  2.00000
   733   -10.775  2.00000
   734   -10.770  2.00000
   735   -10.762  2.00000
   736   -10.761  2.00000
   737   -10.755  2.00000
   738   -10.751  2.00000
   739   -10.748  2.00000
   740   -10.743  2.00000
   741   -10.738  2.00000
   742   -10.731  2.00000
   743   -10.727  2.00000
   744   -10.725  2.00000
   745   -10.719  2.00000
   746   -10.711  2.00000
   747   -10.709  2.00000
   748   -10.707  2.00000
   749   -10.705  2.00000
   750   -10.700  2.00000
   751   -10.697  2.00000
   752   -10.696  2.00000
   753   -10.691  2.00000
   754   -10.682  2.00000
   755   -10.679  2.00000
   756   -10.678  2.00000
   757   -10.675  2.00000
   758   -10.672  2.00000
   759   -10.666  2.00000
   760   -10.660  2.00000
   761   -10.656  2.00000
   762   -10.653  2.00000
   763   -10.648  2.00000
   764   -10.645  2.00000
   765   -10.642  2.00000
   766   -10.639  2.00000
   767   -10.635  2.00000
   768   -10.633  2.00000
   769   -10.629  2.00000
   770   -10.628  2.00000
   771   -10.625  2.00000
   772   -10.622  2.00000
   773   -10.618  2.00000
   774   -10.616  2.00000
   775   -10.611  2.00000
   776   -10.610  2.00000
   777   -10.605  2.00000
   778   -10.601  2.00000
   779   -10.596  2.00000
   780   -10.594  2.00000
   781   -10.591  2.00000
   782   -10.589  2.00000
   783   -10.586  2.00000
   784   -10.582  2.00000
   785   -10.577  2.00000
   786   -10.577  2.00000
   787   -10.570  2.00000
   788   -10.568  2.00000
   789   -10.566  2.00000
   790   -10.562  2.00000
   791   -10.557  2.00000
   792   -10.555  2.00000
   793   -10.553  2.00000
   794   -10.550  2.00000
   795   -10.543  2.00000
   796   -10.539  2.00000
   797   -10.536  2.00000
   798   -10.528  2.00000
   799   -10.521  2.00000
   800   -10.520  2.00000
   801   -10.519  2.00000
   802   -10.509  2.00000
   803   -10.505  2.00000
   804   -10.500  2.00000
   805   -10.495  2.00000
   806   -10.493  2.00000
   807   -10.489  2.00000
   808   -10.482  2.00000
   809   -10.479  2.00000
   810   -10.475  2.00000
   811   -10.468  2.00000
   812   -10.465  2.00000
   813   -10.460  2.00000
   814   -10.459  2.00000
   815   -10.454  2.00000
   816   -10.453  2.00000
   817   -10.444  2.00000
   818   -10.442  2.00000
   819   -10.437  2.00000
   820   -10.432  2.00000
   821   -10.430  2.00000
   822   -10.427  2.00000
   823   -10.422  2.00000
   824   -10.420  2.00000
   825   -10.414  2.00000
   826   -10.410  2.00000
   827   -10.404  2.00000
   828   -10.401  2.00000
   829   -10.397  2.00000
   830   -10.396  2.00000
   831   -10.390  2.00000
   832   -10.386  2.00000
   833   -10.381  2.00000
   834   -10.381  2.00000
   835   -10.376  2.00000
   836   -10.368  2.00000
   837   -10.365  2.00000
   838   -10.363  2.00000
   839   -10.358  2.00000
   840   -10.351  2.00000
   841   -10.341  2.00000
   842   -10.337  2.00000
   843   -10.335  2.00000
   844   -10.332  2.00000
   845   -10.322  2.00000
   846   -10.317  2.00000
   847   -10.311  2.00000
   848   -10.305  2.00000
   849   -10.300  2.00000
   850   -10.297  2.00000
   851   -10.290  2.00000
   852   -10.288  2.00000
   853   -10.285  2.00000
   854   -10.279  2.00000
   855   -10.267  2.00000
   856   -10.261  2.00000
   857   -10.254  2.00000
   858   -10.249  2.00000
   859   -10.245  2.00000
   860   -10.240  2.00000
   861   -10.234  2.00000
   862   -10.231  2.00000
   863   -10.225  2.00000
   864   -10.224  2.00000
   865   -10.222  2.00000
   866   -10.219  2.00000
   867   -10.215  2.00000
   868   -10.211  2.00000
   869   -10.205  2.00000
   870   -10.202  2.00000
   871   -10.194  2.00000
   872   -10.193  2.00000
   873   -10.189  2.00000
   874   -10.181  2.00000
   875   -10.177  2.00000
   876   -10.176  2.00000
   877   -10.174  2.00000
   878   -10.169  2.00000
   879   -10.162  2.00000
   880   -10.161  2.00000
   881   -10.159  2.00000
   882   -10.152  2.00000
   883   -10.151  2.00000
   884   -10.146  2.00000
   885   -10.141  2.00000
   886   -10.139  2.00000
   887   -10.131  2.00000
   888   -10.122  2.00000
   889   -10.116  2.00000
   890   -10.105  2.00000
   891   -10.101  2.00000
   892   -10.099  2.00000
   893   -10.083  2.00000
   894   -10.076  2.00000
   895   -10.067  2.00000
   896   -10.062  2.00000
   897   -10.054  2.00000
   898   -10.049  2.00000
   899   -10.047  2.00000
   900   -10.041  2.00000
   901   -10.037  2.00000
   902   -10.036  2.00000
   903   -10.032  2.00000
   904   -10.029  2.00000
   905   -10.022  2.00000
   906   -10.019  2.00000
   907   -10.018  2.00000
   908   -10.017  2.00000
   909   -10.007  2.00000
   910    -9.999  2.00000
   911    -9.993  2.00000
   912    -9.979  2.00000
   913    -9.978  2.00000
   914    -9.974  2.00000
   915    -9.970  2.00000
   916    -9.967  2.00000
   917    -9.964  2.00000
   918    -9.956  2.00000
   919    -9.948  2.00000
   920    -9.948  2.00000
   921    -9.946  2.00000
   922    -9.939  2.00000
   923    -9.931  2.00000
   924    -9.926  2.00000
   925    -9.921  2.00000
   926    -9.915  2.00000
   927    -9.909  2.00000
   928    -9.903  2.00000
   929    -9.900  2.00000
   930    -9.897  2.00000
   931    -9.895  2.00000
   932    -9.893  2.00000
   933    -9.889  2.00000
   934    -9.885  2.00000
   935    -9.882  2.00000
   936    -9.880  2.00000
   937    -9.874  2.00000
   938    -9.869  2.00000
   939    -9.868  2.00000
   940    -9.867  2.00000
   941    -9.862  2.00000
   942    -9.858  2.00000
   943    -9.857  2.00000
   944    -9.855  2.00000
   945    -9.852  2.00000
   946    -9.846  2.00000
   947    -9.844  2.00000
   948    -9.840  2.00000
   949    -9.835  2.00000
   950    -9.835  2.00000
   951    -9.831  2.00000
   952    -9.825  2.00000
   953    -9.820  2.00000
   954    -9.819  2.00000
   955    -9.814  2.00000
   956    -9.814  2.00000
   957    -9.808  2.00000
   958    -9.805  2.00000
   959    -9.805  2.00000
   960    -9.800  2.00000
   961    -9.794  2.00000
   962    -9.793  2.00000
   963    -9.788  2.00000
   964    -9.785  2.00000
   965    -9.778  2.00000
   966    -9.775  2.00000
   967    -9.770  2.00000
   968    -9.765  2.00000
   969    -9.762  2.00000
   970    -9.759  2.00000
   971    -9.755  2.00000
   972    -9.751  2.00000
   973    -9.748  2.00000
   974    -9.743  2.00000
   975    -9.741  2.00000
   976    -9.737  2.00000
   977    -9.733  2.00000
   978    -9.726  2.00000
   979    -9.723  2.00000
   980    -9.721  2.00000
   981    -9.718  2.00000
   982    -9.712  2.00000
   983    -9.707  2.00000
   984    -9.705  2.00000
   985    -9.703  2.00000
   986    -9.700  2.00000
   987    -9.697  2.00000
   988    -9.692  2.00000
   989    -9.692  2.00000
   990    -9.688  2.00000
   991    -9.686  2.00000
   992    -9.681  2.00000
   993    -9.677  2.00000
   994    -9.673  2.00000
   995    -9.672  2.00000
   996    -9.670  2.00000
   997    -9.666  2.00000
   998    -9.660  2.00000
   999    -9.652  2.00000
  1000    -9.649  2.00000
  1001    -9.647  2.00000
  1002    -9.639  2.00000
  1003    -9.639  2.00000
  1004    -9.630  2.00000
  1005    -9.623  2.00000
  1006    -9.617  2.00000
  1007    -9.612  2.00000
  1008    -9.608  2.00000
  1009    -9.596  2.00000
  1010    -9.593  2.00000
  1011    -9.586  2.00000
  1012    -9.584  2.00000
  1013    -9.583  2.00000
  1014    -9.579  2.00000
  1015    -9.574  2.00000
  1016    -9.570  2.00000
  1017    -9.564  2.00000
  1018    -9.560  2.00000
  1019    -9.555  2.00000
  1020    -9.554  2.00000
  1021    -9.552  2.00000
  1022    -9.550  2.00000
  1023    -9.544  2.00000
  1024    -9.542  2.00000
  1025    -9.540  2.00000
  1026    -9.538  2.00000
  1027    -9.536  2.00000
  1028    -9.536  2.00000
  1029    -9.531  2.00000
  1030    -9.531  2.00000
  1031    -9.527  2.00000
  1032    -9.524  2.00000
  1033    -9.523  2.00000
  1034    -9.519  2.00000
  1035    -9.517  2.00000
  1036    -9.514  2.00000
  1037    -9.512  2.00000
  1038    -9.509  2.00000
  1039    -9.507  2.00000
  1040    -9.502  2.00000
  1041    -9.500  2.00000
  1042    -9.499  2.00000
  1043    -9.497  2.00000
  1044    -9.492  2.00000
  1045    -9.489  2.00000
  1046    -9.488  2.00000
  1047    -9.483  2.00000
  1048    -9.479  2.00000
  1049    -9.474  2.00000
  1050    -9.464  2.00000
  1051    -9.459  2.00000
  1052    -9.456  2.00000
  1053    -9.450  2.00000
  1054    -9.435  2.00000
  1055    -9.424  2.00000
  1056    -9.412  2.00000
  1057    -9.401  2.00000
  1058    -9.397  2.00000
  1059    -9.388  2.00000
  1060    -9.387  2.00000
  1061    -9.382  2.00000
  1062    -9.380  2.00000
  1063    -9.375  2.00000
  1064    -9.372  2.00000
  1065    -9.369  2.00000
  1066    -9.368  2.00000
  1067    -9.365  2.00000
  1068    -9.362  2.00000
  1069    -9.358  2.00000
  1070    -9.354  2.00000
  1071    -9.351  2.00000
  1072    -9.349  2.00000
  1073    -9.342  2.00000
  1074    -9.340  2.00000
  1075    -9.334  2.00000
  1076    -9.333  2.00000
  1077    -9.329  2.00000
  1078    -9.320  2.00000
  1079    -9.312  2.00000
  1080    -9.311  2.00000
  1081    -9.308  2.00000
  1082    -9.305  2.00000
  1083    -9.302  2.00000
  1084    -9.297  2.00000
  1085    -9.293  2.00000
  1086    -9.290  2.00000
  1087    -9.285  2.00000
  1088    -9.283  2.00000
  1089    -9.282  2.00000
  1090    -9.277  2.00000
  1091    -9.272  2.00000
  1092    -9.271  2.00000
  1093    -9.266  2.00000
  1094    -9.263  2.00000
  1095    -9.259  2.00000
  1096    -9.250  2.00000
  1097    -9.248  2.00000
  1098    -9.239  2.00000
  1099    -9.233  2.00000
  1100    -9.233  2.00000
  1101    -9.230  2.00000
  1102    -9.216  2.00000
  1103    -9.212  2.00000
  1104    -9.205  2.00000
  1105    -9.199  2.00000
  1106    -9.196  2.00000
  1107    -9.186  2.00000
  1108    -9.184  2.00000
  1109    -9.180  2.00000
  1110    -9.169  2.00000
  1111    -9.168  2.00000
  1112    -9.161  2.00000
  1113    -9.154  2.00000
  1114    -9.151  2.00000
  1115    -9.148  2.00000
  1116    -9.134  2.00000
  1117    -9.124  2.00000
  1118    -9.114  2.00000
  1119    -9.110  2.00000
  1120    -9.099  2.00000
  1121    -9.092  2.00000
  1122    -9.087  2.00000
  1123    -9.082  2.00000
  1124    -9.081  2.00000
  1125    -9.077  2.00000
  1126    -9.071  2.00000
  1127    -9.063  2.00000
  1128    -9.060  2.00000
  1129    -9.054  2.00000
  1130    -9.043  2.00000
  1131    -9.036  2.00000
  1132    -9.028  2.00000
  1133    -9.025  2.00000
  1134    -9.017  2.00000
  1135    -9.013  2.00000
  1136    -9.009  2.00000
  1137    -9.006  2.00000
  1138    -9.002  2.00000
  1139    -8.993  2.00000
  1140    -8.987  2.00000
  1141    -8.979  2.00000
  1142    -8.978  2.00000
  1143    -8.971  2.00000
  1144    -8.970  2.00000
  1145    -8.967  2.00000
  1146    -8.948  2.00000
  1147    -8.939  2.00000
  1148    -8.934  2.00000
  1149    -8.926  2.00000
  1150    -8.925  2.00000
  1151    -8.920  2.00000
  1152    -8.915  2.00000
  1153    -8.912  2.00000
  1154    -8.907  2.00000
  1155    -8.906  2.00000
  1156    -8.900  2.00000
  1157    -8.883  2.00000
  1158    -8.874  2.00000
  1159    -8.865  2.00000
  1160    -8.857  2.00000
  1161    -8.854  2.00000
  1162    -8.850  2.00000
  1163    -8.842  2.00000
  1164    -8.838  2.00000
  1165    -8.836  2.00000
  1166    -8.830  2.00000
  1167    -8.829  2.00000
  1168    -8.823  2.00000
  1169    -8.817  2.00000
  1170    -8.812  2.00000
  1171    -8.807  2.00000
  1172    -8.804  2.00000
  1173    -8.800  2.00000
  1174    -8.798  2.00000
  1175    -8.791  2.00000
  1176    -8.787  2.00000
  1177    -8.772  2.00000
  1178    -8.767  2.00000
  1179    -8.761  2.00000
  1180    -8.755  2.00000
  1181    -8.753  2.00000
  1182    -8.744  2.00000
  1183    -8.736  2.00000
  1184    -8.732  2.00000
  1185    -8.725  2.00000
  1186    -8.722  2.00000
  1187    -8.720  2.00000
  1188    -8.718  2.00000
  1189    -8.706  2.00000
  1190    -8.704  2.00000
  1191    -8.701  2.00000
  1192    -8.699  2.00000
  1193    -8.696  2.00000
  1194    -8.690  2.00000
  1195    -8.688  2.00000
  1196    -8.683  2.00000
  1197    -8.681  2.00000
  1198    -8.675  2.00000
  1199    -8.672  2.00000
  1200    -8.670  2.00000
  1201    -8.664  2.00000
  1202    -8.663  2.00000
  1203    -8.658  2.00000
  1204    -8.655  2.00000
  1205    -8.650  2.00000
  1206    -8.648  2.00000
  1207    -8.645  2.00000
  1208    -8.642  2.00000
  1209    -8.637  2.00000
  1210    -8.635  2.00000
  1211    -8.634  2.00000
  1212    -8.630  2.00000
  1213    -8.629  2.00000
  1214    -8.620  2.00000
  1215    -8.613  2.00000
  1216    -8.601  2.00000
  1217    -8.589  2.00000
  1218    -8.585  2.00000
  1219    -8.581  2.00000
  1220    -8.575  2.00000
  1221    -8.568  2.00000
  1222    -8.560  2.00000
  1223    -8.555  2.00000
  1224    -8.541  2.00000
  1225    -8.538  2.00000
  1226    -8.535  2.00000
  1227    -8.532  2.00000
  1228    -8.516  2.00000
  1229    -8.503  2.00000
  1230    -8.499  2.00000
  1231    -8.486  2.00000
  1232    -8.486  2.00000
  1233    -8.484  2.00000
  1234    -8.464  2.00000
  1235    -8.439  2.00000
  1236    -8.413  2.00000
  1237    -8.407  2.00000
  1238    -8.403  2.00000
  1239    -8.401  2.00000
  1240    -8.394  2.00000
  1241    -8.393  2.00000
  1242    -8.387  2.00000
  1243    -8.381  2.00000
  1244    -8.373  2.00000
  1245    -8.370  2.00000
  1246    -8.365  2.00000
  1247    -8.361  2.00000
  1248    -8.359  2.00000
  1249    -8.355  2.00000
  1250    -8.353  2.00000
  1251    -8.349  2.00000
  1252    -8.339  2.00000
  1253    -8.337  2.00000
  1254    -8.334  2.00000
  1255    -8.333  2.00000
  1256    -8.331  2.00000
  1257    -8.328  2.00000
  1258    -8.327  2.00000
  1259    -8.324  2.00000
  1260    -8.319  2.00000
  1261    -8.317  2.00000
  1262    -8.315  2.00000
  1263    -8.313  2.00000
  1264    -8.312  2.00000
  1265    -8.309  2.00000
  1266    -8.307  2.00000
  1267    -8.305  2.00000
  1268    -8.301  2.00000
  1269    -8.296  2.00000
  1270    -8.293  2.00000
  1271    -8.288  2.00000
  1272    -8.283  2.00000
  1273    -8.282  2.00000
  1274    -8.278  2.00000
  1275    -8.276  2.00000
  1276    -8.272  2.00000
  1277    -8.270  2.00000
  1278    -8.266  2.00000
  1279    -8.266  2.00000
  1280    -8.262  2.00000
  1281    -8.260  2.00000
  1282    -8.257  2.00000
  1283    -8.255  2.00000
  1284    -8.250  2.00000
  1285    -8.248  2.00000
  1286    -8.245  2.00000
  1287    -8.242  2.00000
  1288    -8.240  2.00000
  1289    -8.239  2.00000
  1290    -8.230  2.00000
  1291    -8.224  2.00000
  1292    -8.221  2.00000
  1293    -8.215  2.00000
  1294    -8.211  2.00000
  1295    -8.208  2.00000
  1296    -8.197  2.00000
  1297    -8.195  2.00000
  1298    -8.192  2.00000
  1299    -8.189  2.00000
  1300    -8.184  2.00000
  1301    -8.179  2.00000
  1302    -8.175  2.00000
  1303    -8.172  2.00000
  1304    -8.167  2.00000
  1305    -8.165  2.00000
  1306    -8.163  2.00000
  1307    -8.155  2.00000
  1308    -8.151  2.00000
  1309    -8.149  2.00000
  1310    -8.146  2.00000
  1311    -8.142  2.00000
  1312    -8.141  2.00000
  1313    -8.136  2.00000
  1314    -8.133  2.00000
  1315    -8.132  2.00000
  1316    -8.125  2.00000
  1317    -8.123  2.00000
  1318    -8.115  2.00000
  1319    -8.112  2.00000
  1320    -8.101  2.00000
  1321    -8.095  2.00000
  1322    -8.090  2.00000
  1323    -8.078  2.00000
  1324    -8.076  2.00000
  1325    -8.074  2.00000
  1326    -8.068  2.00000
  1327    -8.064  2.00000
  1328    -8.062  2.00000
  1329    -8.050  2.00000
  1330    -8.043  2.00000
  1331    -8.041  2.00000
  1332    -8.040  2.00000
  1333    -8.039  2.00000
  1334    -8.036  2.00000
  1335    -8.035  2.00000
  1336    -8.027  2.00000
  1337    -8.026  2.00000
  1338    -8.023  2.00000
  1339    -8.016  2.00000
  1340    -7.992  2.00000
  1341    -7.980  2.00000
  1342    -7.974  2.00000
  1343    -7.972  2.00000
  1344    -7.967  2.00000
  1345    -7.946  2.00000
  1346    -7.936  2.00000
  1347    -7.926  2.00000
  1348    -7.917  2.00000
  1349    -7.910  2.00000
  1350    -7.907  2.00000
  1351    -7.902  2.00000
  1352    -7.892  2.00000
  1353    -7.888  2.00000
  1354    -7.883  2.00000
  1355    -7.881  2.00000
  1356    -7.877  2.00000
  1357    -7.861  2.00000
  1358    -7.860  2.00000
  1359    -7.858  2.00000
  1360    -7.853  2.00000
  1361    -7.846  2.00000
  1362    -7.844  2.00000
  1363    -7.840  2.00000
  1364    -7.837  2.00000
  1365    -7.836  2.00000
  1366    -7.827  2.00000
  1367    -7.816  2.00000
  1368    -7.809  2.00000
  1369    -7.799  2.00000
  1370    -7.791  2.00000
  1371    -7.785  2.00000
  1372    -7.782  2.00000
  1373    -7.773  2.00000
  1374    -7.766  2.00000
  1375    -7.761  2.00000
  1376    -7.754  2.00000
  1377    -7.752  2.00000
  1378    -7.744  2.00000
  1379    -7.744  2.00000
  1380    -7.730  2.00000
  1381    -7.726  2.00000
  1382    -7.713  2.00000
  1383    -7.705  2.00000
  1384    -7.701  2.00000
  1385    -7.699  2.00000
  1386    -7.696  2.00000
  1387    -7.690  2.00000
  1388    -7.683  2.00000
  1389    -7.673  2.00000
  1390    -7.669  2.00000
  1391    -7.659  2.00000
  1392    -7.653  2.00000
  1393    -7.649  2.00000
  1394    -7.637  2.00000
  1395    -7.631  2.00000
  1396    -7.625  2.00000
  1397    -7.622  2.00000
  1398    -7.616  2.00000
  1399    -7.614  2.00000
  1400    -7.609  2.00000
  1401    -7.605  2.00000
  1402    -7.603  2.00000
  1403    -7.596  2.00000
  1404    -7.583  2.00000
  1405    -7.579  2.00000
  1406    -7.577  2.00000
  1407    -7.571  2.00000
  1408    -7.568  2.00000
  1409    -7.562  2.00000
  1410    -7.559  2.00000
  1411    -7.555  2.00000
  1412    -7.553  2.00000
  1413    -7.549  2.00000
  1414    -7.547  2.00000
  1415    -7.540  2.00000
  1416    -7.538  2.00000
  1417    -7.535  2.00000
  1418    -7.529  2.00000
  1419    -7.525  2.00000
  1420    -7.522  2.00000
  1421    -7.520  2.00000
  1422    -7.515  2.00000
  1423    -7.513  2.00000
  1424    -7.508  2.00000
  1425    -7.505  2.00000
  1426    -7.504  2.00000
  1427    -7.499  2.00000
  1428    -7.496  2.00000
  1429    -7.492  2.00000
  1430    -7.490  2.00000
  1431    -7.490  2.00000
  1432    -7.479  2.00000
  1433    -7.476  2.00000
  1434    -7.474  2.00000
  1435    -7.471  2.00000
  1436    -7.467  2.00000
  1437    -7.464  2.00000
  1438    -7.463  2.00000
  1439    -7.461  2.00000
  1440    -7.459  2.00000
  1441    -7.454  2.00000
  1442    -7.449  2.00000
  1443    -7.447  2.00000
  1444    -7.446  2.00000
  1445    -7.441  2.00000
  1446    -7.440  2.00000
  1447    -7.437  2.00000
  1448    -7.433  2.00000
  1449    -7.431  2.00000
  1450    -7.429  2.00000
  1451    -7.428  2.00000
  1452    -7.426  2.00000
  1453    -7.424  2.00000
  1454    -7.419  2.00000
  1455    -7.415  2.00000
  1456    -7.413  2.00000
  1457    -7.412  2.00000
  1458    -7.406  2.00000
  1459    -7.405  2.00000
  1460    -7.400  2.00000
  1461    -7.398  2.00000
  1462    -7.395  2.00000
  1463    -7.389  2.00000
  1464    -7.384  2.00000
  1465    -7.380  2.00000
  1466    -7.376  2.00000
  1467    -7.372  2.00000
  1468    -7.368  2.00000
  1469    -7.363  2.00000
  1470    -7.358  2.00000
  1471    -7.354  2.00000
  1472    -7.344  2.00000
  1473    -7.339  2.00000
  1474    -7.337  2.00000
  1475    -7.335  2.00000
  1476    -7.334  2.00000
  1477    -7.328  2.00000
  1478    -7.321  2.00000
  1479    -7.317  2.00000
  1480    -7.314  2.00000
  1481    -7.311  2.00000
  1482    -7.309  2.00000
  1483    -7.305  2.00000
  1484    -7.299  2.00000
  1485    -7.298  2.00000
  1486    -7.297  2.00000
  1487    -7.290  2.00000
  1488    -7.289  2.00000
  1489    -7.287  2.00000
  1490    -7.285  2.00000
  1491    -7.283  2.00000
  1492    -7.281  2.00000
  1493    -7.274  2.00000
  1494    -7.269  2.00000
  1495    -7.265  2.00000
  1496    -7.258  2.00000
  1497    -7.253  2.00000
  1498    -7.249  2.00000
  1499    -7.242  2.00000
  1500    -7.232  2.00000
  1501    -7.220  2.00000
  1502    -7.210  2.00000
  1503    -7.202  2.00000
  1504    -7.188  2.00000
  1505    -7.159  2.00000
  1506    -7.146  2.00000
  1507    -7.141  2.00000
  1508    -7.096  2.00000
  1509    -7.036  2.00000
  1510    -6.979  2.00000
  1511    -6.971  2.00000
  1512    -6.966  2.00000
  1513    -6.960  2.00000
  1514    -6.957  2.00000
  1515    -6.955  2.00000
  1516    -6.954  2.00000
  1517    -6.951  2.00000
  1518    -6.947  2.00000
  1519    -6.943  2.00000
  1520    -6.941  2.00000
  1521    -6.938  2.00000
  1522    -6.937  2.00000
  1523    -6.932  2.00000
  1524    -6.931  2.00000
  1525    -6.926  2.00000
  1526    -6.925  2.00000
  1527    -6.920  2.00000
  1528    -6.918  2.00000
  1529    -6.917  2.00000
  1530    -6.916  2.00000
  1531    -6.916  2.00000
  1532    -6.914  2.00000
  1533    -6.913  2.00000
  1534    -6.912  2.00000
  1535    -6.911  2.00000
  1536    -6.911  2.00000
  1537    -6.908  2.00000
  1538    -6.906  2.00000
  1539    -6.903  2.00000
  1540    -6.900  2.00000
  1541    -6.899  2.00000
  1542    -6.897  2.00000
  1543    -6.892  2.00000
  1544    -6.891  2.00000
  1545    -6.890  2.00000
  1546    -6.888  2.00000
  1547    -6.886  2.00000
  1548    -6.884  2.00000
  1549    -6.881  2.00000
  1550    -6.879  2.00000
  1551    -6.877  2.00000
  1552    -6.875  2.00000
  1553    -6.872  2.00000
  1554    -6.860  2.00000
  1555    -6.858  2.00000
  1556    -6.851  2.00000
  1557    -6.849  2.00000
  1558    -6.847  2.00000
  1559    -6.841  2.00000
  1560    -6.839  2.00000
  1561    -6.833  2.00000
  1562    -6.829  2.00000
  1563    -6.827  2.00000
  1564    -6.823  2.00000
  1565    -6.821  2.00000
  1566    -6.819  2.00000
  1567    -6.815  2.00000
  1568    -6.809  2.00000
  1569    -6.805  2.00000
  1570    -6.801  2.00000
  1571    -6.797  2.00000
  1572    -6.795  2.00000
  1573    -6.783  2.00000
  1574    -6.779  2.00000
  1575    -6.776  2.00000
  1576    -6.769  2.00000
  1577    -6.768  2.00000
  1578    -6.762  2.00000
  1579    -6.761  2.00000
  1580    -6.759  2.00000
  1581    -6.746  2.00000
  1582    -6.740  2.00000
  1583    -6.730  2.00000
  1584    -6.729  2.00000
  1585    -6.724  2.00000
  1586    -6.719  2.00000
  1587    -6.711  2.00000
  1588    -6.707  2.00000
  1589    -6.704  2.00000
  1590    -6.694  2.00000
  1591    -6.691  2.00000
  1592    -6.688  2.00000
  1593    -6.685  2.00000
  1594    -6.680  2.00000
  1595    -6.679  2.00000
  1596    -6.671  2.00000
  1597    -6.665  2.00000
  1598    -6.662  2.00000
  1599    -6.654  2.00000
  1600    -6.647  2.00000
  1601    -6.639  2.00000
  1602    -6.628  2.00000
  1603    -6.611  2.00000
  1604    -6.596  2.00000
  1605    -6.585  2.00000
  1606    -6.536  2.00000
  1607    -6.520  2.00000
  1608    -6.499  2.00000
  1609    -6.496  2.00000
  1610    -6.487  2.00000
  1611    -6.480  2.00000
  1612    -6.467  2.00000
  1613    -6.436  2.00000
  1614    -6.421  2.00000
  1615    -6.403  2.00000
  1616    -6.383  2.00000
  1617    -6.380  2.00000
  1618    -6.378  2.00000
  1619    -6.367  2.00000
  1620    -6.365  2.00000
  1621    -6.356  2.00000
  1622    -6.338  2.00000
  1623    -6.332  2.00000
  1624    -6.313  2.00000
  1625    -6.276  2.00000
  1626    -6.268  2.00000
  1627    -6.259  2.00000
  1628    -6.254  2.00000
  1629    -6.248  2.00000
  1630    -6.234  2.00000
  1631    -6.218  2.00000
  1632    -6.202  2.00000
  1633    -6.196  2.00000
  1634    -6.175  2.00000
  1635    -6.161  2.00000
  1636    -6.153  2.00000
  1637    -6.121  2.00000
  1638    -6.109  2.00000
  1639    -6.096  2.00000
  1640    -6.086  2.00000
  1641    -6.084  2.00000
  1642    -6.065  2.00000
  1643    -6.062  2.00000
  1644    -6.050  2.00000
  1645    -6.043  2.00000
  1646    -6.039  2.00000
  1647    -6.030  2.00000
  1648    -6.024  2.00000
  1649    -6.015  2.00000
  1650    -6.007  2.00000
  1651    -6.001  2.00000
  1652    -6.001  2.00000
  1653    -5.988  2.00000
  1654    -5.984  2.00000
  1655    -5.982  2.00000
  1656    -5.968  2.00000
  1657    -5.962  2.00000
  1658    -5.954  2.00000
  1659    -5.933  2.00000
  1660    -5.928  2.00000
  1661    -5.911  2.00000
  1662    -5.883  2.00000
  1663    -5.882  2.00000
  1664    -5.858  2.00000
  1665    -5.856  2.00000
  1666    -5.810  2.00000
  1667    -5.790  2.00000
  1668    -5.777  2.00000
  1669    -5.770  2.00000
  1670    -5.742  2.00000
  1671    -5.725  2.00000
  1672    -5.707  2.00000
  1673    -5.699  2.00000
  1674    -5.679  2.00000
  1675    -5.666  2.00000
  1676    -5.650  2.00000
  1677    -5.608  2.00000
  1678    -5.578  2.00000
  1679    -5.573  2.00000
  1680    -5.571  2.00000
  1681    -5.533  2.00000
  1682    -5.511  2.00000
  1683    -5.459  2.00000
  1684    -5.429  2.00000
  1685    -5.407  2.00000
  1686    -5.401  2.00000
  1687    -5.393  2.00000
  1688    -5.388  2.00000
  1689    -5.388  2.00000
  1690    -5.384  2.00000
  1691    -5.381  2.00000
  1692    -5.375  2.00000
  1693    -5.373  2.00000
  1694    -5.368  2.00000
  1695    -5.367  2.00000
  1696    -5.363  2.00000
  1697    -5.357  2.00000
  1698    -5.357  2.00000
  1699    -5.356  2.00000
  1700    -5.356  2.00000
  1701    -5.352  2.00000
  1702    -5.350  2.00000
  1703    -5.349  2.00000
  1704    -5.348  1.00000
  1705    -5.348  0.00000
  1706    -5.347  0.00000
  1707    -5.346  0.00000
  1708    -5.344  0.00000
  1709    -5.339  0.00000
  1710    -5.339  0.00000
  1711    -5.334  0.00000
  1712    -5.329  0.00000
  1713    -5.324  0.00000
  1714    -5.324  0.00000
  1715    -5.318  0.00000
  1716    -5.316  0.00000
  1717    -5.311  0.00000
  1718    -5.139  0.00000
  1719    -4.929  0.00000
  1720    -4.501  0.00000
  1721    -4.486  0.00000
  1722    -4.467  0.00000
  1723    -4.461  0.00000
  1724    -4.460  0.00000
  1725    -4.459  0.00000
  1726    -4.459  0.00000
  1727    -4.459  0.00000
  1728    -4.452  0.00000
  1729    -4.450  0.00000
  1730    -4.447  0.00000
  1731    -4.437  0.00000
  1732    -4.435  0.00000
  1733    -4.434  0.00000
  1734    -4.433  0.00000
  1735    -4.420  0.00000
  1736    -4.416  0.00000
  1737    -4.413  0.00000
  1738    -4.411  0.00000
  1739    -4.379  0.00000
  1740    -4.275  0.00000
  1741    -4.241  0.00000
  1742    -4.207  0.00000
  1743    -3.976  0.00000
  1744    -3.961  0.00000
  1745    -3.885  0.00000
  1746    -3.667  0.00000
  1747    -3.546  0.00000
  1748    -3.543  0.00000
  1749    -3.535  0.00000
  1750    -3.529  0.00000
  1751    -3.514  0.00000
  1752    -3.511  0.00000
  1753    -3.508  0.00000
  1754    -3.504  0.00000
  1755    -3.489  0.00000
  1756    -3.488  0.00000
  1757    -3.479  0.00000
  1758    -3.466  0.00000
  1759    -3.459  0.00000
  1760    -3.458  0.00000
  1761    -3.455  0.00000
  1762    -3.452  0.00000
  1763    -3.443  0.00000
  1764    -3.439  0.00000
  1765    -3.435  0.00000
  1766    -3.428  0.00000
  1767    -3.387  0.00000
  1768    -3.338  0.00000
  1769    -3.093  0.00000
  1770    -3.040  0.00000
  1771    -2.989  0.00000
  1772    -2.597  0.00000
  1773    -2.567  0.00000
  1774    -2.546  0.00000
  1775    -2.458  0.00000
  1776    -2.453  0.00000
  1777    -2.400  0.00000
  1778    -2.326  0.00000
  1779    -2.319  0.00000
  1780    -2.311  0.00000
  1781    -2.309  0.00000
  1782    -2.304  0.00000
  1783    -2.302  0.00000
  1784    -2.297  0.00000
  1785    -2.296  0.00000
  1786    -2.293  0.00000
  1787    -2.251  0.00000
  1788    -2.158  0.00000
  1789    -2.154  0.00000
  1790    -2.133  0.00000
  1791    -2.113  0.00000
  1792    -2.106  0.00000
  1793    -2.093  0.00000
  1794    -2.070  0.00000
  1795    -2.044  0.00000
  1796    -2.003  0.00000
  1797    -1.995  0.00000
  1798    -1.926  0.00000
  1799    -1.914  0.00000
  1800    -1.633  0.00000
  1801    -1.407  0.00000
  1802    -1.387  0.00000
  1803    -1.380  0.00000
  1804    -1.375  0.00000
  1805    -1.366  0.00000
  1806    -1.355  0.00000
  1807    -1.348  0.00000
  1808    -1.347  0.00000
  1809    -1.346  0.00000
  1810    -1.345  0.00000
  1811    -1.341  0.00000
  1812    -1.340  0.00000
  1813    -1.337  0.00000
  1814    -1.334  0.00000
  1815    -1.333  0.00000
  1816    -1.332  0.00000
  1817    -1.332  0.00000
  1818    -1.331  0.00000
  1819    -1.331  0.00000
  1820    -1.318  0.00000
  1821    -1.125  0.00000
  1822    -0.826  0.00000
  1823    -0.809  0.00000
  1824    -0.777  0.00000
  1825    -0.774  0.00000
  1826    -0.749  0.00000
  1827    -0.683  0.00000
  1828    -0.669  0.00000
  1829    -0.660  0.00000
  1830    -0.657  0.00000
  1831    -0.647  0.00000
  1832    -0.641  0.00000
  1833    -0.637  0.00000
  1834    -0.632  0.00000
  1835    -0.624  0.00000
  1836    -0.613  0.00000
  1837    -0.599  0.00000
  1838    -0.588  0.00000
  1839    -0.581  0.00000
  1840    -0.572  0.00000
  1841    -0.562  0.00000
  1842    -0.543  0.00000
  1843    -0.535  0.00000
  1844    -0.524  0.00000
  1845    -0.515  0.00000
  1846    -0.487  0.00000
  1847    -0.483  0.00000
  1848    -0.451  0.00000
  1849    -0.438  0.00000
  1850    -0.379  0.00000
  1851    -0.294  0.00000
  1852    -0.278  0.00000
  1853    -0.272  0.00000
  1854    -0.271  0.00000
  1855    -0.245  0.00000
  1856    -0.231  0.00000
  1857    -0.223  0.00000
  1858    -0.217  0.00000
  1859    -0.198  0.00000
  1860    -0.192  0.00000
  1861    -0.176  0.00000
  1862    -0.173  0.00000
  1863    -0.169  0.00000
  1864    -0.159  0.00000
  1865    -0.159  0.00000
  1866    -0.153  0.00000
  1867    -0.152  0.00000
  1868    -0.150  0.00000
  1869    -0.149  0.00000
  1870    -0.142  0.00000
  1871    -0.116  0.00000
  1872    -0.103  0.00000
  1873     0.195  0.00000
  1874     0.304  0.00000
  1875     0.358  0.00000
  1876     0.362  0.00000
  1877     0.372  0.00000
  1878     0.402  0.00000
  1879     0.445  0.00000
  1880     0.474  0.00000
  1881     0.485  0.00000
  1882     0.502  0.00000
  1883     0.513  0.00000
  1884     0.518  0.00000
  1885     0.520  0.00000
  1886     0.525  0.00000
  1887     0.527  0.00000
  1888     0.534  0.00000
  1889     0.535  0.00000
  1890     0.546  0.00000
  1891     0.548  0.00000
  1892     0.550  0.00000
  1893     0.554  0.00000
  1894     0.560  0.00000
  1895     0.571  0.00000
  1896     0.599  0.00000
  1897     3.164  0.00000
  1898     3.230  0.00000
  1899     3.258  0.00000
  1900     3.264  0.00000
  1901     3.269  0.00000
  1902     3.272  0.00000
  1903     3.290  0.00000
  1904     3.305  0.00000
  1905     3.570  0.00000
  1906     3.720  0.00000
  1907     3.758  0.00000
  1908     3.763  0.00000
  1909     3.787  0.00000
  1910     3.860  0.00000
  1911     3.864  0.00000
  1912     3.908  0.00000
  1913     3.910  0.00000
  1914     3.925  0.00000
  1915     3.946  0.00000
  1916     3.967  0.00000
  1917     3.984  0.00000
  1918     3.987  0.00000
  1919     3.993  0.00000
  1920     4.007  0.00000
  1921     4.015  0.00000
  1922     4.016  0.00000
  1923     4.024  0.00000
  1924     4.026  0.00000
  1925     4.029  0.00000
  1926     4.036  0.00000
  1927     4.041  0.00000
  1928     4.048  0.00000
  1929     4.308  0.00000
  1930     4.343  0.00000
  1931     4.346  0.00000
  1932     4.352  0.00000
  1933     4.369  0.00000
  1934     4.387  0.00000
  1935     4.389  0.00000
  1936     4.398  0.00000
  1937     4.422  0.00000
  1938     4.423  0.00000
  1939     4.430  0.00000
  1940     4.438  0.00000
  1941     4.444  0.00000
  1942     4.445  0.00000
  1943     4.448  0.00000
  1944     4.453  0.00000
  1945     4.457  0.00000
  1946     4.461  0.00000
  1947     4.468  0.00000
  1948     4.475  0.00000
  1949     4.480  0.00000
  1950     4.490  0.00000
  1951     4.497  0.00000
  1952     4.512  0.00000
  1953     5.711  0.00000
  1954     5.766  0.00000
  1955     5.816  0.00000
  1956     5.818  0.00000
  1957     5.831  0.00000
  1958     5.832  0.00000
  1959     5.836  0.00000
  1960     6.096  0.00000
  1961     6.186  0.00000
  1962     6.195  0.00000
  1963     6.241  0.00000
  1964     6.242  0.00000
  1965     6.253  0.00000
  1966     6.261  0.00000
  1967     6.263  0.00000
  1968     6.315  0.00000
  1969     6.324  0.00000
  1970     6.370  0.00000
  1971     6.377  0.00000
  1972     6.394  0.00000
  1973     6.398  0.00000
  1974     6.404  0.00000
  1975     6.416  0.00000
  1976     6.433  0.00000
  1977     6.436  0.00000
  1978     6.449  0.00000
  1979     6.450  0.00000
  1980     6.455  0.00000
  1981     6.550  0.00000
  1982     6.569  0.00000
  1983     6.580  0.00000
  1984     6.625  0.00000
  1985     6.675  0.00000
  1986     6.704  0.00000
  1987     6.739  0.00000
  1988     6.758  0.00000
  1989     6.762  0.00000
  1990     6.765  0.00000
  1991     6.776  0.00000
  1992     6.811  0.00000
  1993     6.821  0.00000
  1994     6.825  0.00000
  1995     6.866  0.00000
  1996     6.870  0.00000
  1997     6.873  0.00000
  1998     6.926  0.00000
  1999     6.959  0.00000
  2000     7.015  0.00000
  2001     7.022  0.00000
  2002     7.048  0.00000
  2003     7.067  0.00000
  2004     7.069  0.00000
  2005     7.077  0.00000
  2006     7.096  0.00000
  2007     7.149  0.00000
  2008     7.151  0.00000
  2009     7.170  0.00000
  2010     7.198  0.00000
  2011     7.212  0.00000
  2012     7.253  0.00000
  2013     7.258  0.00000
  2014     7.267  0.00000
  2015     7.277  0.00000
  2016     7.279  0.00000
  2017     7.335  0.00000
  2018     7.397  0.00000
  2019     7.403  0.00000
  2020     7.410  0.00000
  2021     7.414  0.00000
  2022     7.419  0.00000
  2023     7.435  0.00000
  2024     7.437  0.00000
  2025     7.447  0.00000
  2026     7.489  0.00000
  2027     7.500  0.00000
  2028     7.511  0.00000
  2029     7.524  0.00000
  2030     7.539  0.00000
  2031     7.540  0.00000
  2032     7.543  0.00000
  2033     7.554  0.00000
  2034     7.562  0.00000
  2035     7.570  0.00000
  2036     7.573  0.00000
  2037     7.600  0.00000
  2038     7.608  0.00000
  2039     7.614  0.00000
  2040     7.618  0.00000
  2041     7.621  0.00000
  2042     7.625  0.00000
  2043     7.637  0.00000
  2044     7.670  0.00000
  2045     7.677  0.00000
  2046     7.679  0.00000
  2047     7.689  0.00000
  2048     7.695  0.00000
  2049     7.720  0.00000
  2050     7.729  0.00000
  2051     7.743  0.00000
  2052     7.760  0.00000
  2053     7.763  0.00000
  2054     7.778  0.00000
  2055     7.784  0.00000
  2056     7.788  0.00000
  2057     7.791  0.00000
  2058     7.804  0.00000
  2059     7.805  0.00000
  2060     7.807  0.00000
  2061     7.810  0.00000
  2062     7.815  0.00000
  2063     7.820  0.00000
  2064     7.824  0.00000
  2065     7.840  0.00000
  2066     7.842  0.00000
  2067     7.854  0.00000
  2068     7.865  0.00000
  2069     7.866  0.00000
  2070     7.895  0.00000
  2071     7.908  0.00000
  2072     7.961  0.00000
  2073     7.976  0.00000
  2074     8.004  0.00000
  2075     8.011  0.00000
  2076     8.133  0.00000
  2077     8.204  0.00000
  2078     8.234  0.00000
  2079     8.244  0.00000
  2080     8.247  0.00000
  2081     8.303  0.00000
  2082     8.335  0.00000
  2083     8.338  0.00000
  2084     8.373  0.00000
  2085     8.382  0.00000
  2086     8.452  0.00000
  2087     8.485  0.00000
  2088     8.488  0.00000
  2089     8.500  0.00000
  2090     8.523  0.00000
  2091     8.527  0.00000
  2092     8.534  0.00000
  2093     8.536  0.00000
  2094     8.537  0.00000
  2095     8.541  0.00000
  2096     8.546  0.00000
  2097     8.558  0.00000
  2098     8.562  0.00000
  2099     8.570  0.00000
  2100     8.572  0.00000
  2101     8.575  0.00000
  2102     8.581  0.00000
  2103     8.589  0.00000
  2104     8.590  0.00000
  2105     8.597  0.00000
  2106     8.599  0.00000
  2107     8.601  0.00000
  2108     8.602  0.00000
  2109     8.614  0.00000
  2110     8.634  0.00000
  2111     8.648  0.00000
  2112     8.697  0.00000
  2113     8.701  0.00000
  2114     8.720  0.00000
  2115     8.721  0.00000
  2116     8.722  0.00000
  2117     8.731  0.00000
  2118     8.734  0.00000
  2119     8.736  0.00000
  2120     8.738  0.00000
  2121     8.742  0.00000
  2122     8.751  0.00000
  2123     8.758  0.00000
  2124     8.781  0.00000
  2125     8.795  0.00000
  2126     8.815  0.00000
  2127     8.850  0.00000
  2128     8.936  0.00000
  2129     8.979  0.00000
  2130     8.987  0.00000
  2131     9.042  0.00000
  2132     9.070  0.00000
  2133     9.076  0.00000
  2134     9.082  0.00000
  2135     9.094  0.00000
  2136     9.102  0.00000
  2137     9.111  0.00000
  2138     9.112  0.00000
  2139     9.122  0.00000
  2140     9.128  0.00000
  2141     9.135  0.00000
  2142     9.138  0.00000
  2143     9.141  0.00000
  2144     9.153  0.00000
  2145     9.161  0.00000
  2146     9.164  0.00000
  2147     9.178  0.00000
  2148     9.179  0.00000
  2149     9.183  0.00000
  2150     9.186  0.00000
  2151     9.189  0.00000
  2152     9.192  0.00000
  2153     9.196  0.00000
  2154     9.204  0.00000
  2155     9.210  0.00000
  2156     9.215  0.00000
  2157     9.219  0.00000
  2158     9.222  0.00000
  2159     9.224  0.00000
  2160     9.225  0.00000
  2161     9.227  0.00000
  2162     9.236  0.00000
  2163     9.252  0.00000
  2164     9.258  0.00000
  2165     9.263  0.00000
  2166     9.265  0.00000
  2167     9.270  0.00000
  2168     9.278  0.00000
  2169     9.294  0.00000
  2170     9.299  0.00000
  2171     9.303  0.00000
  2172     9.307  0.00000
  2173     9.311  0.00000
  2174     9.318  0.00000
  2175     9.321  0.00000
  2176     9.323  0.00000
  2177     9.323  0.00000
  2178     9.330  0.00000
  2179     9.332  0.00000
  2180     9.333  0.00000
  2181     9.339  0.00000
  2182     9.341  0.00000
  2183     9.344  0.00000
  2184     9.345  0.00000
  2185     9.348  0.00000
  2186     9.351  0.00000
  2187     9.352  0.00000
  2188     9.353  0.00000
  2189     9.363  0.00000
  2190     9.368  0.00000
  2191     9.374  0.00000
  2192     9.375  0.00000
  2193     9.384  0.00000
  2194     9.390  0.00000
  2195     9.398  0.00000
  2196     9.416  0.00000
  2197     9.430  0.00000
  2198     9.433  0.00000
  2199     9.445  0.00000
  2200     9.478  0.00000
  2201     9.482  0.00000
  2202     9.486  0.00000
  2203     9.528  0.00000
  2204     9.540  0.00000
  2205     9.544  0.00000
  2206     9.580  0.00000
  2207     9.586  0.00000
  2208     9.592  0.00000
  2209     9.608  0.00000
  2210     9.655  0.00000
  2211     9.676  0.00000
  2212     9.682  0.00000
  2213     9.723  0.00000
  2214     9.730  0.00000
  2215     9.741  0.00000
  2216     9.770  0.00000
  2217     9.779  0.00000
  2218     9.834  0.00000
  2219     9.839  0.00000
  2220     9.866  0.00000
  2221     9.884  0.00000
  2222     9.899  0.00000
  2223     9.920  0.00000
  2224     9.927  0.00000
  2225     9.931  0.00000
  2226     9.938  0.00000
  2227     9.960  0.00000
  2228     9.964  0.00000
  2229     9.966  0.00000
  2230     9.970  0.00000
  2231     9.977  0.00000
  2232     9.979  0.00000
  2233     9.989  0.00000
  2234     9.991  0.00000
  2235     9.994  0.00000
  2236     9.996  0.00000
  2237    10.004  0.00000
  2238    10.010  0.00000
  2239    10.014  0.00000
  2240    10.024  0.00000
  2241    10.029  0.00000
  2242    10.035  0.00000
  2243    10.039  0.00000
  2244    10.049  0.00000
  2245    10.120  0.00000
  2246    10.214  0.00000
  2247    10.257  0.00000
  2248    10.270  0.00000
  2249    10.316  0.00000
  2250    10.333  0.00000
  2251    10.343  0.00000
  2252    10.369  0.00000
  2253    10.380  0.00000
  2254    10.394  0.00000
  2255    10.403  0.00000
  2256    10.429  0.00000
  2257    10.446  0.00000
  2258    10.450  0.00000
  2259    10.459  0.00000
  2260    10.480  0.00000
  2261    10.498  0.00000
  2262    10.501  0.00000
  2263    10.507  0.00000
  2264    10.514  0.00000
  2265    10.527  0.00000
  2266    10.537  0.00000
  2267    10.540  0.00000
  2268    10.543  0.00000
  2269    10.550  0.00000
  2270    10.555  0.00000
  2271    10.561  0.00000
  2272    10.581  0.00000
  2273    10.614  0.00000
  2274    10.628  0.00000
  2275    10.634  0.00000
  2276    10.641  0.00000
  2277    10.646  0.00000
  2278    10.647  0.00000
  2279    10.648  0.00000
  2280    10.658  0.00000
  2281    10.679  0.00000
  2282    10.687  0.00000
  2283    10.689  0.00000
  2284    10.694  0.00000
  2285    10.701  0.00000
  2286    10.759  0.00000
  2287    10.773  0.00000
  2288    10.803  0.00000
  2289    10.804  0.00000
  2290    10.813  0.00000
  2291    10.816  0.00000
  2292    10.872  0.00000
  2293    10.881  0.00000
  2294    10.903  0.00000
  2295    10.917  0.00000
  2296    10.925  0.00000
  2297    10.928  0.00000
  2298    10.929  0.00000
  2299    10.930  0.00000
  2300    10.958  0.00000
  2301    10.964  0.00000
  2302    10.976  0.00000
  2303    10.991  0.00000
  2304    11.014  0.00000
  2305    11.016  0.00000
  2306    11.040  0.00000
  2307    11.060  0.00000
  2308    11.076  0.00000
  2309    11.107  0.00000
  2310    11.112  0.00000
  2311    11.124  0.00000
  2312    11.129  0.00000
  2313    11.153  0.00000
  2314    11.154  0.00000
  2315    11.156  0.00000
  2316    11.160  0.00000
  2317    11.173  0.00000
  2318    11.214  0.00000
  2319    11.219  0.00000
  2320    11.252  0.00000
  2321    11.263  0.00000
  2322    11.264  0.00000
  2323    11.287  0.00000
  2324    11.306  0.00000
  2325    11.314  0.00000
  2326    11.318  0.00000
  2327    11.322  0.00000
  2328    11.335  0.00000
  2329    11.351  0.00000
  2330    11.354  0.00000
  2331    11.368  0.00000
  2332    11.375  0.00000
  2333    11.386  0.00000
  2334    11.388  0.00000
  2335    11.389  0.00000
  2336    11.415  0.00000
  2337    11.415  0.00000
  2338    11.417  0.00000
  2339    11.425  0.00000
  2340    11.446  0.00000
  2341    11.451  0.00000
  2342    11.453  0.00000
  2343    11.455  0.00000
  2344    11.487  0.00000
  2345    11.489  0.00000
  2346    11.496  0.00000
  2347    11.515  0.00000
  2348    11.529  0.00000
  2349    11.529  0.00000
  2350    11.539  0.00000
  2351    11.548  0.00000
  2352    11.554  0.00000
  2353    11.559  0.00000
  2354    11.571  0.00000
  2355    11.572  0.00000
  2356    11.578  0.00000
  2357    11.581  0.00000
  2358    11.590  0.00000
  2359    11.595  0.00000
  2360    11.600  0.00000
  2361    11.603  0.00000
  2362    11.607  0.00000
  2363    11.617  0.00000
  2364    11.620  0.00000
  2365    11.639  0.00000
  2366    11.653  0.00000
  2367    11.658  0.00000
  2368    11.665  0.00000
  2369    11.673  0.00000
  2370    11.705  0.00000
  2371    11.726  0.00000
  2372    11.764  0.00000
  2373    11.772  0.00000
  2374    11.805  0.00000
  2375    11.815  0.00000
  2376    11.824  0.00000
  2377    11.829  0.00000
  2378    11.836  0.00000
  2379    11.844  0.00000
  2380    11.855  0.00000
  2381    11.861  0.00000
  2382    11.864  0.00000
  2383    11.869  0.00000
  2384    11.885  0.00000
  2385    11.888  0.00000
  2386    11.922  0.00000
  2387    11.928  0.00000
  2388    11.943  0.00000
  2389    11.945  0.00000
  2390    11.957  0.00000
  2391    11.977  0.00000
  2392    11.988  0.00000
  2393    11.991  0.00000
  2394    12.006  0.00000
  2395    12.012  0.00000
  2396    12.039  0.00000
  2397    12.047  0.00000
  2398    12.048  0.00000
  2399    12.054  0.00000
  2400    12.064  0.00000
  2401    12.067  0.00000
  2402    12.075  0.00000
  2403    12.081  0.00000
  2404    12.085  0.00000
  2405    12.093  0.00000
  2406    12.108  0.00000
  2407    12.118  0.00000
  2408    12.130  0.00000
  2409    12.137  0.00000
  2410    12.141  0.00000
  2411    12.146  0.00000
  2412    12.152  0.00000
  2413    12.158  0.00000
  2414    12.162  0.00000
  2415    12.173  0.00000
  2416    12.183  0.00000
  2417    12.203  0.00000
  2418    12.220  0.00000
  2419    12.226  0.00000
  2420    12.234  0.00000
  2421    12.239  0.00000
  2422    12.242  0.00000
  2423    12.244  0.00000
  2424    12.249  0.00000
  2425    12.253  0.00000
  2426    12.257  0.00000
  2427    12.265  0.00000
  2428    12.274  0.00000
  2429    12.280  0.00000
  2430    12.288  0.00000
  2431    12.296  0.00000
  2432    12.296  0.00000
  2433    12.301  0.00000
  2434    12.302  0.00000
  2435    12.303  0.00000
  2436    12.306  0.00000
  2437    12.311  0.00000
  2438    12.315  0.00000
  2439    12.317  0.00000
  2440    12.322  0.00000
  2441    12.324  0.00000
  2442    12.326  0.00000
  2443    12.334  0.00000
  2444    12.337  0.00000
  2445    12.342  0.00000
  2446    12.343  0.00000
  2447    12.346  0.00000
  2448    12.348  0.00000
  2449    12.351  0.00000
  2450    12.352  0.00000
  2451    12.355  0.00000
  2452    12.359  0.00000
  2453    12.360  0.00000
  2454    12.368  0.00000
  2455    12.369  0.00000
  2456    12.371  0.00000
  2457    12.374  0.00000
  2458    12.376  0.00000
  2459    12.377  0.00000
  2460    12.379  0.00000
  2461    12.382  0.00000
  2462    12.384  0.00000
  2463    12.390  0.00000
  2464    12.393  0.00000
  2465    12.394  0.00000
  2466    12.398  0.00000
  2467    12.399  0.00000
  2468    12.403  0.00000
  2469    12.407  0.00000
  2470    12.410  0.00000
  2471    12.417  0.00000
  2472    12.427  0.00000
  2473    12.437  0.00000
  2474    12.438  0.00000
  2475    12.550  0.00000
  2476    12.551  0.00000
  2477    12.625  0.00000
  2478    12.688  0.00000
  2479    12.697  0.00000
  2480    12.707  0.00000
  2481    12.712  0.00000
  2482    12.723  0.00000
  2483    12.727  0.00000
  2484    12.739  0.00000
  2485    12.743  0.00000
  2486    12.753  0.00000
  2487    12.763  0.00000
  2488    12.765  0.00000
  2489    12.786  0.00000
  2490    12.790  0.00000
  2491    12.794  0.00000
  2492    12.810  0.00000
  2493    12.819  0.00000
  2494    12.827  0.00000
  2495    12.839  0.00000
  2496    12.843  0.00000
  2497    12.849  0.00000
  2498    12.855  0.00000
  2499    12.856  0.00000
  2500    12.865  0.00000
  2501    12.873  0.00000
  2502    12.884  0.00000
  2503    12.886  0.00000
  2504    12.892  0.00000
  2505    12.899  0.00000
  2506    12.906  0.00000
  2507    12.919  0.00000
  2508    12.925  0.00000
  2509    12.926  0.00000
  2510    12.929  0.00000
  2511    12.943  0.00000
  2512    12.946  0.00000
  2513    12.957  0.00000
  2514    12.970  0.00000
  2515    12.980  0.00000
  2516    12.988  0.00000
  2517    12.994  0.00000
  2518    13.022  0.00000
  2519    13.035  0.00000
  2520    13.035  0.00000
  2521    13.037  0.00000
  2522    13.047  0.00000
  2523    13.048  0.00000
  2524    13.050  0.00000
  2525    13.059  0.00000
  2526    13.060  0.00000
  2527    13.066  0.00000
  2528    13.082  0.00000
  2529    13.085  0.00000
  2530    13.103  0.00000
  2531    13.114  0.00000
  2532    13.118  0.00000
  2533    13.119  0.00000
  2534    13.127  0.00000
  2535    13.135  0.00000
  2536    13.145  0.00000
  2537    13.151  0.00000
  2538    13.164  0.00000
  2539    13.169  0.00000
  2540    13.187  0.00000
  2541    13.201  0.00000
  2542    13.208  0.00000
  2543    13.209  0.00000
  2544    13.215  0.00000
  2545    13.222  0.00000
  2546    13.251  0.00000
  2547    13.254  0.00000
  2548    13.264  0.00000
  2549    13.274  0.00000
  2550    13.329  0.00000
  2551    13.361  0.00000
  2552    13.386  0.00000
  2553    13.441  0.00000
  2554    13.476  0.00000
  2555    13.703  0.00000
  2556    13.720  0.00000
  2557    13.786  0.00000
  2558    13.797  0.00000
  2559    13.835  0.00000
  2560    13.882  0.00000
  2561    13.895  0.00000
  2562    13.937  0.00000
  2563    13.970  0.00000
  2564    13.997  0.00000
  2565    14.011  0.00000
  2566    14.019  0.00000
  2567    14.038  0.00000
  2568    14.092  0.00000
  2569    14.098  0.00000
  2570    14.115  0.00000
  2571    14.138  0.00000
  2572    14.167  0.00000
  2573    14.168  0.00000
  2574    14.175  0.00000
  2575    14.199  0.00000
  2576    14.217  0.00000
  2577    14.269  0.00000
  2578    14.278  0.00000
  2579    14.293  0.00000
  2580    14.332  0.00000
  2581    14.333  0.00000
  2582    14.345  0.00000
  2583    14.377  0.00000
  2584    14.378  0.00000
  2585    14.386  0.00000
  2586    14.397  0.00000
  2587    14.477  0.00000
  2588    14.611  0.00000
  2589    14.681  0.00000
  2590    14.808  0.00000
  2591    14.822  0.00000
  2592    14.824  0.00000
  2593    14.854  0.00000
  2594    14.899  0.00000
  2595    14.907  0.00000
  2596    14.934  0.00000
  2597    15.007  0.00000
  2598    15.013  0.00000
  2599    15.068  0.00000
  2600    15.087  0.00000
  2601    15.124  0.00000
  2602    15.154  0.00000
  2603    15.185  0.00000
  2604    15.222  0.00000
  2605    15.255  0.00000
  2606    15.340  0.00000
  2607    15.530  0.00000
  2608    15.559  0.00000
  2609    15.563  0.00000
  2610    15.571  0.00000
  2611    15.599  0.00000
  2612    15.605  0.00000
  2613    15.618  0.00000
  2614    15.667  0.00000
  2615    15.684  0.00000
  2616    15.708  0.00000
  2617    15.734  0.00000
  2618    15.741  0.00000
  2619    15.757  0.00000
  2620    15.779  0.00000
  2621    15.794  0.00000
  2622    15.814  0.00000
  2623    15.829  0.00000
  2624    15.886  0.00000
  2625    15.905  0.00000
  2626    15.922  0.00000
  2627    15.955  0.00000
  2628    15.963  0.00000
  2629    15.964  0.00000
  2630    15.976  0.00000
  2631    15.992  0.00000
  2632    16.021  0.00000
  2633    16.031  0.00000
  2634    16.034  0.00000
  2635    16.080  0.00000
  2636    16.083  0.00000
  2637    16.095  0.00000
  2638    16.120  0.00000
  2639    16.172  0.00000
  2640    16.174  0.00000
  2641    16.192  0.00000
  2642    16.199  0.00000
  2643    16.203  0.00000
  2644    16.217  0.00000
  2645    16.241  0.00000
  2646    16.276  0.00000
  2647    16.281  0.00000
  2648    16.291  0.00000
  2649    16.295  0.00000
  2650    16.309  0.00000
  2651    16.310  0.00000
  2652    16.318  0.00000
  2653    16.350  0.00000
  2654    16.353  0.00000
  2655    16.355  0.00000
  2656    16.364  0.00000
  2657    16.371  0.00000
  2658    16.395  0.00000
  2659    16.411  0.00000
  2660    16.413  0.00000
  2661    16.442  0.00000
  2662    16.472  0.00000
  2663    16.520  0.00000
  2664    16.586  0.00000
  2665    16.591  0.00000
  2666    16.670  0.00000
  2667    16.679  0.00000
  2668    16.693  0.00000
  2669    16.714  0.00000
  2670    16.717  0.00000
  2671    16.721  0.00000
  2672    16.729  0.00000
  2673    16.738  0.00000
  2674    16.760  0.00000
  2675    16.806  0.00000
  2676    16.807  0.00000
  2677    16.827  0.00000
  2678    16.829  0.00000
  2679    16.843  0.00000
  2680    16.858  0.00000
  2681    16.864  0.00000
  2682    16.890  0.00000
  2683    16.899  0.00000
  2684    16.911  0.00000
  2685    16.933  0.00000
  2686    16.942  0.00000
  2687    16.949  0.00000
  2688    16.964  0.00000
  2689    16.967  0.00000
  2690    17.035  0.00000
  2691    17.163  0.00000
  2692    17.211  0.00000
  2693    17.250  0.00000
  2694    17.260  0.00000
  2695    17.302  0.00000
  2696    18.407  0.00000
  2697    20.637  0.00000
  2698    20.641  0.00000
  2699    20.684  0.00000
  2700    20.693  0.00000
  2701    20.714  0.00000
  2702    20.737  0.00000
  2703    20.783  0.00000
  2704    20.785  0.00000
  2705    20.794  0.00000
  2706    20.799  0.00000
  2707    20.802  0.00000
  2708    20.808  0.00000
  2709    20.814  0.00000
  2710    20.816  0.00000
  2711    20.822  0.00000
  2712    20.831  0.00000
  2713    20.836  0.00000
  2714    20.849  0.00000
  2715    20.851  0.00000
  2716    20.851  0.00000
  2717    20.868  0.00000
  2718    20.871  0.00000
  2719    20.886  0.00000
  2720    20.890  0.00000
  2721    20.907  0.00000
  2722    20.908  0.00000
  2723    20.910  0.00000
  2724    20.912  0.00000
  2725    20.913  0.00000
  2726    20.915  0.00000
  2727    20.920  0.00000
  2728    20.927  0.00000
  2729    20.927  0.00000
  2730    20.939  0.00000
  2731    20.940  0.00000
  2732    20.951  0.00000
  2733    20.958  0.00000
  2734    20.961  0.00000
  2735    20.967  0.00000
  2736    20.980  0.00000
  2737    20.981  0.00000
  2738    20.992  0.00000
  2739    21.003  0.00000
  2740    21.009  0.00000
  2741    21.053  0.00000
  2742    21.054  0.00000
  2743    21.064  0.00000
  2744    21.089  0.00000
  2745    21.414  0.00000
  2746    21.427  0.00000
  2747    21.538  0.00000
  2748    21.561  0.00000
  2749    21.564  0.00000
  2750    21.667  0.00000
  2751    21.680  0.00000
  2752    21.682  0.00000
  2753    21.686  0.00000
  2754    21.691  0.00000
  2755    21.691  0.00000
  2756    21.697  0.00000
  2757    21.699  0.00000
  2758    21.788  0.00000
  2759    21.881  0.00000
  2760    21.919  0.00000
  2761    21.923  0.00000
  2762    21.927  0.00000
  2763    21.965  0.00000
  2764    21.966  0.00000
  2765    21.995  0.00000
  2766    22.004  0.00000
  2767    22.048  0.00000
  2768    22.838  0.00000
  2769    23.115  0.00000
  2770    23.135  0.00000
  2771    23.231  0.00000
  2772    23.240  0.00000
  2773    23.288  0.00000
  2774    23.352  0.00000
  2775    23.361  0.00000
  2776    23.369  0.00000
  2777    23.377  0.00000
  2778    23.387  0.00000
  2779    23.395  0.00000
  2780    23.401  0.00000
  2781    23.412  0.00000
  2782    23.452  0.00000
  2783    23.483  0.00000
  2784    23.571  0.00000
  2785    23.574  0.00000
  2786    23.586  0.00000
  2787    23.588  0.00000
  2788    23.599  0.00000
  2789    23.617  0.00000
  2790    23.637  0.00000
  2791    23.653  0.00000
  2792    23.659  0.00000
  2793    23.687  0.00000
  2794    23.726  0.00000
  2795    23.768  0.00000
  2796    23.779  0.00000
  2797    23.823  0.00000
  2798    23.892  0.00000
  2799    23.911  0.00000
  2800    23.950  0.00000
  2801    23.955  0.00000
  2802    23.964  0.00000
  2803    23.994  0.00000
  2804    23.996  0.00000
  2805    24.011  0.00000
  2806    24.024  0.00000
  2807    24.032  0.00000
  2808    24.035  0.00000
  2809    24.037  0.00000
  2810    24.045  0.00000
  2811    24.048  0.00000
  2812    24.049  0.00000
  2813    24.050  0.00000
  2814    24.054  0.00000
  2815    24.072  0.00000
  2816    25.833  0.00000
  2817    25.852  0.00000
  2818    25.887  0.00000
  2819    25.902  0.00000
  2820    25.951  0.00000
  2821    25.972  0.00000
  2822    26.024  0.00000
  2823    26.034  0.00000
  2824    26.037  0.00000
  2825    26.044  0.00000
  2826    26.056  0.00000
  2827    26.059  0.00000
  2828    26.078  0.00000
  2829    26.083  0.00000
  2830    26.088  0.00000
  2831    26.097  0.00000
  2832    26.114  0.00000
  2833    26.120  0.00000
  2834    26.148  0.00000
  2835    26.150  0.00000
  2836    26.174  0.00000
  2837    26.184  0.00000
  2838    26.191  0.00000
  2839    26.223  0.00000
  2840    26.237  0.00000
  2841    26.255  0.00000
  2842    26.260  0.00000
  2843    26.269  0.00000
  2844    26.289  0.00000
  2845    26.290  0.00000
  2846    26.335  0.00000
  2847    26.380  0.00000
  2848    26.409  0.00000
  2849    26.415  0.00000
  2850    26.422  0.00000
  2851    26.424  0.00000
  2852    26.426  0.00000
  2853    26.427  0.00000
  2854    26.437  0.00000
  2855    26.437  0.00000
  2856    26.438  0.00000
  2857    26.440  0.00000
  2858    26.440  0.00000
  2859    26.457  0.00000
  2860    26.467  0.00000
  2861    26.500  0.00000
  2862    26.504  0.00000
  2863    26.549  0.00000
  2864    27.650  0.00000
  2865    28.208  0.00000
  2866    28.216  0.00000
  2867    28.370  0.00000
  2868    28.371  0.00000
  2869    28.476  0.00000
  2870    28.490  0.00000
  2871    28.511  0.00000
  2872    28.513  0.00000
  2873    28.517  0.00000
  2874    28.518  0.00000
  2875    28.530  0.00000
  2876    28.531  0.00000
  2877    28.535  0.00000
  2878    28.753  0.00000
  2879    28.847  0.00000
  2880    28.858  0.00000
  2881    28.869  0.00000
  2882    28.890  0.00000
  2883    28.894  0.00000
  2884    28.902  0.00000
  2885    28.935  0.00000
  2886    28.937  0.00000
  2887    28.945  0.00000
  2888    28.954  0.00000
  2889    28.966  0.00000
  2890    28.977  0.00000
  2891    28.987  0.00000
  2892    29.009  0.00000
  2893    29.014  0.00000
  2894    29.067  0.00000
  2895    29.074  0.00000
  2896    29.084  0.00000
  2897    29.091  0.00000
  2898    29.098  0.00000
  2899    29.107  0.00000
  2900    29.112  0.00000
  2901    29.124  0.00000
  2902    29.205  0.00000
  2903    29.296  0.00000
  2904    29.314  0.00000
  2905    29.320  0.00000
  2906    29.341  0.00000
  2907    29.359  0.00000
  2908    29.373  0.00000
  2909    29.386  0.00000
  2910    29.406  0.00000
  2911    29.450  0.00000
  2912    30.393  0.00000
  2913    30.403  0.00000
  2914    30.414  0.00000
  2915    30.430  0.00000
  2916    30.544  0.00000
  2917    30.593  0.00000
  2918    30.643  0.00000
  2919    30.666  0.00000
  2920    30.682  0.00000
  2921    30.684  0.00000
  2922    30.691  0.00000
  2923    30.696  0.00000
  2924    30.701  0.00000
  2925    30.703  0.00000
  2926    30.708  0.00000
  2927    30.748  0.00000
  2928    30.771  0.00000
  2929    30.781  0.00000
  2930    30.795  0.00000
  2931    30.817  0.00000
  2932    30.824  0.00000
  2933    30.857  0.00000
  2934    30.859  0.00000
  2935    30.907  0.00000
  2936    31.564  0.00000
  2937    31.760  0.00000
  2938    31.769  0.00000
  2939    31.910  0.00000
  2940    32.051  0.00000
  2941    32.058  0.00000
  2942    32.060  0.00000
  2943    32.068  0.00000
  2944    32.070  0.00000
  2945    32.074  0.00000
  2946    32.078  0.00000
  2947    32.081  0.00000
  2948    32.122  0.00000
  2949    32.129  0.00000
  2950    32.390  0.00000
  2951    32.482  0.00000
  2952    32.520  0.00000
  2953    32.528  0.00000
  2954    32.535  0.00000
  2955    32.563  0.00000
  2956    32.572  0.00000
  2957    32.604  0.00000
  2958    32.604  0.00000
  2959    32.647  0.00000
  2960    34.765  0.00000
  2961    34.784  0.00000
  2962    34.867  0.00000
  2963    34.871  0.00000
  2964    34.927  0.00000
  2965    35.072  0.00000
  2966    35.073  0.00000
  2967    35.081  0.00000
  2968    35.088  0.00000
  2969    35.089  0.00000
  2970    35.097  0.00000
  2971    35.101  0.00000
  2972    35.102  0.00000
  2973    35.104  0.00000
  2974    35.145  0.00000
  2975    35.241  0.00000
  2976    35.271  0.00000
  2977    35.283  0.00000
  2978    35.291  0.00000
  2979    35.320  0.00000
  2980    35.327  0.00000
  2981    35.355  0.00000
  2982    35.361  0.00000
  2983    35.401  0.00000
  2984    39.286  0.00000
  2985    39.309  0.00000
  2986    39.413  0.00000
  2987    39.442  0.00000
  2988    39.504  0.00000
  2989    39.539  0.00000
  2990    39.589  0.00000
  2991    39.598  0.00000
  2992    39.600  0.00000
  2993    39.603  0.00000
  2994    39.611  0.00000
  2995    39.616  0.00000
  2996    39.621  0.00000
  2997    39.622  0.00000
  2998    39.768  0.00000
  2999    39.867  0.00000
  3000    39.892  0.00000
  3001    39.898  0.00000
  3002    39.908  0.00000
  3003    39.943  0.00000
  3004    39.946  0.00000
  3005    39.954  0.00000
  3006    39.988  0.00000
  3007    40.020  0.00000

